Scenario 166	
ID	PGA_Soil_g
H4050	0.20719238
H4040	0.20719238
H4030	0.20118922
H4020	0.19946518
H4090	0.22481896
H4010	0.2211844
H4160	0.2211844
CC4040	0.3536517
SY4010	0.32065946
WS4010	0.38861973
SM4030	0.42450461
SM4040	0.47751248
SM4090	0.44787884
SM4100	0.44787884
SM4230	0.45921507
SM4050	0.4682979
VF4140	0.5289712
SM4070	0.54699707
SM4080	0.54699707
SM4160	0.5269376
HH4000	0.60267502
EH4010	0.31067047
SY4040	0.29370238
SY4050	0.28981175
SY4060	0.28163925
SM4060	0.33729767
SM4110	0.37264585
SM4120	0.37264585
SM4150	0.40071896
SM4220	0.33969739
SM4280	0.35226232
HH4010	0.62363231
HH4050	0.62115395
HH4060	0.56232369
HH4090	0.63883084
MW4070	0.56122249
MW4080	0.56351507
SM4000	0.55780995
SM4010	0.45023999
SM4020	0.41775102
SM4140	0.38189574
EH4000	0.36769729
EH4040	0.38534138
EH4080	0.37341432
CC4750	0.61325377
HH4170	0.64877522
HH4180	0.60064715
HH4190	0.60064715
MW4000	0.55526292
HP4040	0.71208322
HP4140	0.62678057
HP4150	0.62678057
MW4130	0.6607669
MW4140	0.6607669
MW4150	0.79864782
HP4010	0.8559196
HP4020	0.78481436
HP4050	0.90217793
HP4070	0.94477463
GH4000	0.29957611
GH4070	0.30078761
GH4080	0.30078761
EH4050	0.29865541
EH4060	0.33184921
EH4070	0.33184921
ST4020	1.17854416
ST4040	1.16577148
ST4060	1.03723443
VF4270	0.68621361
VF5540	0.65985286
ST4010	1.21231556
ST4030	1.16370571
ST4050	1.18543756
ST4080	1.17982304
VF5070	0.45685413
GH4060	0.24456476
ST4070	1.2192924
GH4020	0.33884639
FH4030	0.59228492
FH4040	0.5834676
FH4010	0.59617019
FH4020	0.59617019
SY4000	0.29467088
CC4250	0.40784293
SY4030	0.27547584
CC4220	0.58825564
CC4230	0.554726
CC4240	0.53842717
HH4110	0.62865895
MW4100	0.51833105
WS4020	0.39799814
WS4030	0.41203079
VF5550	0.38442171
CC4280	0.49365383
HP4030	0.82450455
HP4060	0.94477463
FH4000	0.99654949
GH4150	0.32814488
FH4050	0.59635758
VF4010	0.00001
VF4180	0.00001
HH8000	0.00001
HH8010	0.00001
