Scenario 195	
ID	PGA_Soil_g
H4000	0.13249488
H4180	0.13414903
H4060	0.11640716
H4130	0.12768962
H4080	0.11694896
H4070	0.11718919
CC4360	0.1344387
H4140	0.1264752
CC4060	0.15917635
CC4070	0.15917635
CC4080	0.15917635
CC4090	0.15917635
CC4100	0.15917635
CC4110	0.15870767
CC4140	0.17478367
CC4150	0.17533295
CC4160	0.17533295
CC4370	0.15917635
CC4380	0.15651895
CC4460	0.17533295
CC4470	0.17533295
CC4480	0.17533295
MW4210	0.17010745
MW4220	0.16937521
MW4190	0.19458348
MW4200	0.19374974
CC4760	0.19458348
HP4110	0.11548311
GH4010	0.29144427
GH4040	0.31993562
GH4050	0.31993562
VF5300	0.23621175
VF5310	0.23739336
VF4150	0.23018076
ST4090	0.20628442
ST4100	0.20565538
ST4110	0.20565538
ST4120	0.20757624
ST4130	0.20757624
VF5420	0.26222819
VF5430	0.26098972
VF5440	0.26098972
VF5450	0.26098972
VF5460	0.26098972
VF5470	0.26266295
VF5480	0.26140278
VF5490	0.26140278
VF5500	0.26140278
VF5510	0.2630671
VF5520	0.2630671
VF5580	0.26140278
VF4000	0.27667875
VF4280	0.27667875
VF4290	0.27444232
VF4300	0.27444232
VF5690	0.27444232
VF5700	0.27444232
VF4010	0.29391423
GH4140	0.31337398
VF4070	0.22252178
VF4080	0.22036955
VF4090	0.22131907
VF4100	0.22426839
VF4110	0.22538812
VF4120	0.22538812
VF4130	0.22538812
VF4200	0.21693845
VF4210	0.21693845
VF4220	0.2161658
VF4230	0.2161658
VF4250	0.21435633
VF4260	0.21332633
VF4610	0.23050229
VF4620	0.22947267
VF4630	0.22719155
VF4640	0.22594816
VF4650	0.22495241
VF4660	0.2227541
VF4760	0.25325957
VF4770	0.25325957
VF4780	0.25171942
VF4790	0.25052906
VF4800	0.2478523
VF4810	0.2478523
VF4820	0.2478523
VF4830	0.2478523
VF4840	0.24522785
VF4850	0.24522785
VF4860	0.24522785
VF4870	0.24408202
VF4880	0.24265419
VF4890	0.24265419
VF4900	0.24152898
VF4910	0.23682061
VF4920	0.23682061
VF4930	0.23023364
VF4940	0.22894326
VF4950	0.23792173
VF4960	0.22569521
VF4970	0.22445407
VF4980	0.22445407
VF5010	0.23522478
VF5020	0.23284138
VF5030	0.23284138
VF5040	0.23415856
VF5050	0.23415856
VF5060	0.23284138
VF5530	0.26178536
VF5570	0.25325957
VF5600	0.2237329
VF5620	0.23682061
VF5630	0.2227541
VF5750	0.23522478
VF5760	0.23415856
VF5770	0.23415856
VF5780	0.23284138
VF5790	0.22322192
VF5800	0.22921855
VF5810	0.23153311
VF5830	0.23284138
VF5870	0.2354849
VF4180	0.34566583
VF4020	0.22639101
VF4030	0.22865961
VF4040	0.22395848
VF4050	0.22618016
VF4060	0.22865961
VF4380	0.2250277
VF4390	0.2250277
VF4400	0.2250277
VF4410	0.2250277
VF4420	0.2250277
VF4430	0.2250277
VF4440	0.2250277
VF4450	0.2250277
VF4460	0.2250277
VF4470	0.2250277
VF4480	0.2250277
VF4490	0.2250277
VF4500	0.2250277
VF4510	0.2250277
VF4520	0.2250277
VF4530	0.2250277
VF4540	0.2250277
VF4550	0.2250277
VF4560	0.2250277
VF4570	0.2250277
VF4580	0.2250277
VF4590	0.22392905
VF4600	0.22392905
VF4670	0.22059552
VF4680	0.21847559
VF4690	0.21847559
VF4700	0.21639332
VF4710	0.23652079
VF4720	0.2367666
VF4730	0.23579946
VF4740	0.23461239
VF4750	0.23343322
VF4990	0.24925531
VF5000	0.24925531
VF5280	0.21054575
VF5290	0.23940735
VF5340	0.24343078
VF5350	0.24343078
VF5360	0.24203919
VF5370	0.24343078
VF5380	0.24088391
VF5390	0.24225694
VF5400	0.24642937
VF5410	0.24642937
VF5590	0.23699441
VF5610	0.2225908
VF5820	0.24363898
VF5840	0.24088391
VF5850	0.24203919
VF5860	0.24088391
GH4090	0.31461289
VF5100	0.31182475
CC4050	0.15917635
CC4130	0.17478367
VF5880	0.27779275
