Scenario 195	
ID	PGA_Soil_g
H4050	0.11231932
H4040	0.11231932
H4030	0.11146941
H4020	0.10958599
H4090	0.11707152
H4010	0.11673853
H4160	0.11673853
CC4040	0.16627025
SY4010	0.20323373
WS4010	0.20526379
SM4030	0.14332047
SM4040	0.14811063
SM4090	0.14600234
SM4100	0.14600234
SM4230	0.14411302
SM4050	0.17931991
VF4140	0.17703554
SM4070	0.17381945
SM4080	0.17381945
SM4160	0.1746232
HH4000	0.13069777
EH4010	0.22813316
SY4040	0.19746019
SY4050	0.19691137
SY4060	0.19092979
SM4060	0.18901101
SM4110	0.18773929
SM4120	0.18773929
SM4150	0.1802732
SM4220	0.19012996
SM4280	0.1958831
HH4010	0.19703223
HH4050	0.19184211
HH4060	0.18962158
HH4090	0.19172301
MW4070	0.16416536
MW4080	0.16608888
SM4000	0.20652792
SM4010	0.21018206
SM4020	0.20545758
SM4140	0.22837253
EH4000	0.22829651
EH4040	0.22297841
EH4080	0.24799139
CC4750	0.17396693
HH4170	0.17962002
HH4180	0.1954064
HH4190	0.1954064
MW4000	0.15153309
HP4040	0.15406247
HP4140	0.15123976
HP4150	0.15123976
MW4130	0.16076846
MW4140	0.16076846
MW4150	0.1564912
HP4010	0.16316624
HP4020	0.16996195
HP4050	0.16057246
HP4070	0.11651739
GH4000	0.29144427
GH4070	0.29682888
GH4080	0.29682888
EH4050	0.26929593
EH4060	0.26608105
EH4070	0.26608105
ST4020	0.14721614
ST4040	0.14893954
ST4060	0.16215901
VF4270	0.2354849
VF5540	0.26140278
ST4010	0.20908331
ST4030	0.20434399
ST4050	0.20124767
ST4080	0.20483731
VF5070	0.28020921
GH4060	0.28910473
ST4070	0.14671943
GH4020	0.34747033
FH4030	0.29049155
FH4040	0.29296287
FH4010	0.31095221
FH4020	0.31095221
SY4000	0.18372576
CC4250	0.1780134
SY4030	0.19977402
CC4220	0.17199685
CC4230	0.16946364
CC4240	0.15938369
HH4110	0.19611244
MW4100	0.15958322
WS4020	0.20694872
WS4030	0.21042742
VF5550	0.24307736
CC4280	0.15056705
HP4030	0.15627834
HP4060	0.11651739
FH4000	0.20091773
GH4150	0.32876873
FH4050	0.28938532
VF4010	0.00001
VF4180	0.00001
HH8000	0.00001
HH8010	0.00001