Scenario 222	
ID	PGA_Soil_g
H4000	0.20729692
H4180	0.193674004
H4060	0.188798901
H4130	0.1952191
H4080	0.180275989
H4070	0.181462035
CC4360	0.200832866
H4140	0.198287603
CC4060	0.227215195
CC4070	0.227215195
CC4080	0.227215195
CC4090	0.227215195
CC4100	0.227215195
CC4110	0.22537694
CC4140	0.228765333
CC4150	0.230897182
CC4160	0.230897182
CC4370	0.227215195
CC4380	0.213642621
CC4460	0.230897182
CC4470	0.230897182
CC4480	0.230897182
MW4210	0.186129031
MW4220	0.184756836
MW4190	0.214811873
MW4200	0.213212132
CC4760	0.214811873
HP4110	0.112749949
GH4010	0.435660338
GH4040	0.399962068
GH4050	0.399962068
VF5300	0.222284544
VF5310	0.224118531
VF4150	0.22458339
ST4090	0.176660001
ST4100	0.177302894
ST4110	0.177302894
ST4120	0.177790576
ST4130	0.177790576
VF5420	0.230325907
VF5430	0.231460509
VF5440	0.231460509
VF5450	0.231460509
VF5460	0.231460509
VF5470	0.233247536
VF5480	0.234409466
VF5490	0.234409466
VF5500	0.234409466
VF5510	0.236238113
VF5520	0.236238113
VF5580	0.234409466
VF4000	0.194747901
VF4280	0.194747901
VF4290	0.193443185
VF4300	0.193443185
VF5690	0.193443185
VF5700	0.193443185
VF4010	0.206777054
GH4140	0.247499049
VF4070	0.224148509
VF4080	0.223298106
VF4090	0.22236751
VF4100	0.229475904
VF4110	0.231227064
VF4120	0.231227064
VF4130	0.231227064
VF4200	0.220129609
VF4210	0.220129609
VF4220	0.220819902
VF4230	0.220819902
VF4250	0.219872856
VF4260	0.218258762
VF4610	0.228457665
VF4620	0.229471937
VF4630	0.228632152
VF4640	0.226798499
VF4650	0.227781394
VF4660	0.226919746
VF4760	0.23536182
VF4770	0.23536182
VF4780	0.23351348
VF4790	0.234644097
VF4800	0.233913377
VF4810	0.233913377
VF4820	0.233913377
VF4830	0.233913377
VF4840	0.233169952
VF4850	0.233169952
VF4860	0.233169952
VF4870	0.234276557
VF4880	0.232414094
VF4890	0.232414094
VF4900	0.233505532
VF4910	0.234888804
VF4920	0.234888804
VF4930	0.225645977
VF4940	0.223867816
VF4950	0.233803186
VF4960	0.224026927
VF4970	0.222258425
VF4980	0.222258425
VF5010	0.230074587
VF5020	0.229271644
VF5030	0.229271644
VF5040	0.231119922
VF5050	0.231119922
VF5060	0.229271644
VF5530	0.237428206
VF5570	0.23536182
VF5600	0.225952998
VF5620	0.234888804
VF5630	0.226919746
VF5750	0.230074587
VF5760	0.231119922
VF5770	0.231119922
VF5780	0.229271644
VF5790	0.220512578
VF5800	0.226637906
VF5810	0.227447107
VF5830	0.229271644
VF5870	0.232992211
VF4180	0.235371521
VF4020	0.232535654
VF4030	0.233413866
VF4040	0.228766876
VF4050	0.229634032
VF4060	0.233413866
VF4380	0.237235808
VF4390	0.237235808
VF4400	0.237235808
VF4410	0.237235808
VF4420	0.237235808
VF4430	0.237235808
VF4440	0.237235808
VF4450	0.237235808
VF4460	0.237235808
VF4470	0.237235808
VF4480	0.237235808
VF4490	0.237235808
VF4500	0.237235808
VF4510	0.237235808
VF4520	0.237235808
VF4530	0.237235808
VF4540	0.237235808
VF4550	0.237235808
VF4560	0.237235808
VF4570	0.237235808
VF4580	0.237235808
VF4590	0.235393238
VF4600	0.235393238
VF4670	0.226047355
VF4680	0.225164324
VF4690	0.225164324
VF4700	0.224270841
VF4710	0.213737285
VF4720	0.216250736
VF4730	0.217066196
VF4740	0.215338165
VF4750	0.213633895
VF4990	0.253111455
VF5000	0.253111455
VF5280	0.22421973
VF5290	0.222396049
VF5340	0.241553593
VF5350	0.241553593
VF5360	0.239578497
VF5370	0.241553593
VF5380	0.240728119
VF5390	0.242725599
VF5400	0.248875627
VF5410	0.248875627
VF5590	0.218818343
VF5610	0.231015396
VF5820	0.244749114
VF5840	0.240728119
VF5850	0.239578497
VF5860	0.240728119
GH4090	0.238822138
VF5100	0.237286702
CC4050	0.227215195
CC4130	0.228765333
VF5880	0.2032107
