Scenario 452	
ID	PGA_Soil_g
H4050	0.70555824
H4040	0.70555824
H4030	0.620682597
H4020	0.638004839
H4090	0.785353243
H4010	0.790940106
H4160	0.790940106
CC4040	0.228478548
SY4010	0.161429346
WS4010	0.17282092
SM4030	0.117244937
SM4040	0.110704616
SM4090	0.113818832
SM4100	0.113818832
SM4230	0.114208303
SM4050	0.13250699
VF4140	0.129805362
SM4070	0.13017303
SM4080	0.13017303
SM4160	0.13119303
HH4000	0.11103633
EH4010	0.110707551
SY4040	0.129967403
SY4050	0.13035627
SY4060	0.135530582
SM4060	0.136911884
SM4110	0.135911509
SM4120	0.135911509
SM4150	0.137114856
SM4220	0.135735556
SM4280	0.130095318
HH4010	0.148119576
HH4050	0.150628719
HH4060	0.156300651
HH4090	0.149217398
MW4070	0.165584074
MW4080	0.164857641
SM4000	0.148981109
SM4010	0.145860471
SM4020	0.151954214
SM4140	0.138626139
EH4000	0.137739249
EH4040	0.1404365
EH4080	0.127728203
CC4750	0.157850043
HH4170	0.153139603
HH4180	0.150793776
HH4190	0.150793776
MW4000	0.164440794
HP4040	0.147587532
HP4140	0.153185989
HP4150	0.153185989
MW4130	0.15431672
MW4140	0.15431672
MW4150	0.143406278
HP4010	0.141861516
HP4020	0.146701027
HP4050	0.137631217
HP4070	0.09558364
GH4000	0.102355199
GH4070	0.101275077
GH4080	0.101275077
EH4050	0.119292554
EH4060	0.120651533
EH4070	0.120651533
ST4020	0.077464432
ST4040	0.077584922
ST4060	0.075956844
VF4270	0.140520215
VF5540	0.127940536
ST4010	0.104897417
ST4030	0.103311861
ST4050	0.103878494
ST4080	0.101281795
VF5070	0.078705552
GH4060	0.068123944
ST4070	0.074740522
GH4020	0.075782329
FH4030	0.090073542
FH4040	0.090001006
FH4010	0.101351011
FH4020	0.101351011
SY4000	0.143436313
CC4250	0.137895602
SY4030	0.127520558
CC4220	0.160506198
CC4230	0.16476973
CC4240	0.170005581
HH4110	0.148096743
MW4100	0.174359986
WS4020	0.152149093
WS4030	0.148265795
VF5550	0.129860491
CC4280	0.178188199
HP4030	0.141801122
HP4060	0.09558364
FH4000	0.089996311
GH4150	0.079268172
FH4050	0.090591714
VF4010	0.00001
VF4180	0.00001
HH8000	0.00001
HH8010	0.00001
