Scenario 176	
ID	PGA_Soil_g
H4000	0.218399
H4180	0.22883904
H4060	0.18121138
H4130	0.2106735
H4080	0.20097103
H4070	0.20050569
CC4360	0.24896537
H4140	0.22346259
CC4060	0.31335225
CC4070	0.31335225
CC4080	0.31335225
CC4090	0.31335225
CC4100	0.31335225
CC4110	0.31485908
CC4140	0.34978563
CC4150	0.34769754
CC4160	0.34769754
CC4370	0.31335225
CC4380	0.33450032
CC4460	0.34769754
CC4470	0.34769754
CC4480	0.34769754
MW4210	0.84112084
MW4220	0.84665906
MW4190	0.82544196
MW4200	0.83071071
CC4760	0.82544196
HP4110	1.06405389
GH4010	0.21289719
GH4040	0.21647799
GH4050	0.21647799
VF5300	0.78055984
VF5310	0.77152455
VF4150	0.73973727
ST4090	0.71694535
ST4100	0.72711509
ST4110	0.72711509
ST4120	0.71173131
ST4130	0.71173131
VF5420	0.52858359
VF5430	0.53330523
VF5440	0.53330523
VF5450	0.53330523
VF5460	0.53330523
VF5470	0.5227387
VF5480	0.52694046
VF5490	0.52694046
VF5500	0.52694046
VF5510	0.516514
VF5520	0.516514
VF5580	0.52694046
VF4000	0.36685151
VF4280	0.36685151
VF4290	0.37253384
VF4300	0.37253384
VF5690	0.37253384
VF5700	0.37253384
VF4010	0.3260806
GH4140	0.18027423
VF4070	0.76532769
VF4080	0.77509338
VF4090	0.77714956
VF4100	0.90551084
VF4110	0.89543545
VF4120	0.89543545
VF4130	0.89543545
VF4200	0.94762629
VF4210	0.94762629
VF4220	0.93690473
VF4230	0.93690473
VF4250	0.93755543
VF4260	0.94856721
VF4610	0.72004569
VF4620	0.72129542
VF4630	0.73154128
VF4640	0.7433452
VF4650	0.74153107
VF4660	0.75116646
VF4760	0.56566638
VF4770	0.56566638
VF4780	0.57850355
VF4790	0.58269966
VF4800	0.59990484
VF4810	0.59990484
VF4820	0.59990484
VF4830	0.59990484
VF4840	0.61718911
VF4850	0.61718911
VF4860	0.61718911
VF4870	0.62038654
VF4880	0.63450098
VF4890	0.63450098
VF4900	0.63744462
VF4910	0.65859044
VF4920	0.65859044
VF4930	0.72988999
VF4940	0.74184853
VF4950	0.65685076
VF4960	0.75558335
VF4970	0.76714391
VF4980	0.76714391
VF5010	0.68640727
VF5020	0.70357984
VF5030	0.70357984
VF5040	0.6889028
VF5050	0.6889028
VF5060	0.70357984
VF5530	0.52031046
VF5570	0.56566638
VF5600	0.75348479
VF5620	0.65859044
VF5630	0.75116646
VF5750	0.68640727
VF5760	0.6889028
VF5770	0.6889028
VF5780	0.70357984
VF5790	0.77880585
VF5800	0.7320329
VF5810	0.71729374
VF5830	0.70357984
VF5870	0.67379814
VF4180	0.34966307
VF4020	0.71343839
VF4030	0.70271343
VF4040	0.73897523
VF4050	0.72929013
VF4060	0.70271343
VF4380	0.84463257
VF4390	0.84463257
VF4400	0.84463257
VF4410	0.84463257
VF4420	0.84463257
VF4430	0.84463257
VF4440	0.84463257
VF4450	0.84463257
VF4460	0.84463257
VF4470	0.84463257
VF4480	0.84463257
VF4490	0.84463257
VF4500	0.84463257
VF4510	0.84463257
VF4520	0.84463257
VF4530	0.84463257
VF4540	0.84463257
VF4550	0.84463257
VF4560	0.84463257
VF4570	0.84463257
VF4580	0.84463257
VF4590	0.85409158
VF4600	0.85409158
VF4670	0.76032829
VF4680	0.76889199
VF4690	0.76889199
VF4700	0.77673995
VF4710	0.83991653
VF4720	0.8228507
VF4730	0.81475842
VF4740	0.8230809
VF4750	0.83121705
VF4990	0.53507161
VF5000	0.53507161
VF5280	0.77794909
VF5290	0.78855878
VF5340	0.59835559
VF5350	0.59835559
VF5360	0.61260694
VF5370	0.59835559
VF5380	0.61363405
VF5390	0.5991565
VF5400	0.55911392
VF5410	0.55911392
VF5590	0.80627793
VF5610	0.88304949
VF5820	0.58514869
VF5840	0.61363405
VF5850	0.61260694
VF5860	0.61363405
GH4090	0.31271907
VF5100	0.3175052
CC4050	0.31335225
CC4130	0.34978563
VF5880	0.30696335
