Scenario 451	
ID	PGA_Soil_g
H6060	0.483779758
H6050	0.483779758
CC6010	0.3077944
CC7180	0.3077944
CC7300	0.312452647
H6070	0.462092122
H6030	0.453328758
H6230	0.305664241
H6200	0.352437903
H6170	0.42053154
H6130	0.402203363
H6120	0.410030673
H6020	0.441679345
H6010	0.441679345
H6000	0.441679345
WS6220	0.185225534
WS6260	0.178938508
WS6510	0.171763298
WS6920	0.176315179
CC6070	0.302927405
CC6130	0.241392177
CC6160	0.262630868
CC6200	0.28910035
CC6540	0.217324452
WS6080	0.193225572
WS6490	0.187463424
WS7010	0.201984221
WS7120	0.201984221
WS6400	0.188629246
WS6470	0.19280777
WS6620	0.184634054
WS6630	0.184634054
WS6640	0.184634054
WS6780	0.192177832
CC6640	0.170931738
CC6650	0.15903804
WS6900	0.174449639
WS6130	0.148107612
WS6310	0.148107612
WS6360	0.145115596
WS6180	0.145219706
CC7090	0.155429646
CC6460	0.170602608
CC6420	0.147572386
WS6890	0.142349334
SY6000	0.123379879
SY6030	0.116475275
SY6040	0.123379879
SY6100	0.114979142
SY6180	0.114800034
SY6200	0.114800034
SY6310	0.11595967
WS7110	0.130311957
WS7150	0.130311957
WS6010	0.127127336
WS6540	0.120782335
WS6550	0.120782335
WS6560	0.120782335
WS6590	0.120782335
MW6140	0.148248637
CC6350	0.216042641
CC6390	0.232514834
CC6770	0.173929739
CC6780	0.173929739
CC7230	0.213046452
CC7240	0.213046452
CC7330	0.205969143
CC7340	0.205969143
CC7350	0.205969143
WS6250	0.186117876
WS6280	0.153270841
WS6340	0.156117094
WS6420	0.159169853
WS6660	0.162536025
WS7040	0.167193758
WS7050	0.167193758
WS7100	0.167193758
WS7070	0.167193758
WS7250	0.167193758
WS7260	0.11915106
WS6040	0.119359656
WS7160	0.120467398
SY6060	0.11769931
SY6150	0.119359656
SY6160	0.119359656
SY6170	0.119359656
SY6270	0.117432365
SY6280	0.118664348
SY6290	0.118664348
SY6320	0.119359656
SY6330	0.099275243
CC6280	0.192620349
CC6490	0.155470522
CC7290	0.163337028
WS6990	0.153458989
WS7000	0.153458989
WS6100	0.138087404
CC6790	0.134496684
CC6800	0.134496684
CC6830	0.133434765
CC6860	0.131602655
CC6990	0.134637104
CC7010	0.134410557
SY6120	0.097538674
SY6140	0.098520362
SY6240	0.096679759
WS6120	0.121241865
WS6190	0.123718619
WS6300	0.127120952
WS6450	0.121599819
WS6600	0.122365326
WS6680	0.120775722
WS6730	0.120236063
WS6810	0.123598748
WS6820	0.125339317
WS6840	0.121599819
WS7180	0.121152796
WS7190	0.12066629
WS7220	0.120775722
WS7230	0.120775722
WS7240	0.120775722
WS7270	0.120775722
WS7280	0.120775722
WS7290	0.120775722
WS7300	0.120775722
WS6690	0.121599819
CC6210	0.135841519
CC6250	0.145391846
CC6880	0.134856474
HH6200	0.135470244
HH6210	0.136577788
CC6030	0.134856474
CC6290	0.145859158
CC7220	0.142040853
MW6100	0.145423138
MW6110	0.145423138
MW6190	0.144404455
SM6150	0.11680105
MW6160	0.127945998
MW6350	0.126059023
SM6170	0.085836574
SM6340	0.086226396
CC7040	0.136550793
MW6410	0.134688976
MW6420	0.134319997
MW6430	0.134319997
CC6940	0.142044556
HH6220	0.140089905
HH6230	0.140089905
HH6240	0.140089905
HH6280	0.140806496
MW6060	0.140806496
MW6070	0.140806496
SM6130	0.099935228
SM6140	0.099935228
SM6320	0.095649737
EH6200	0.096996707
HH6130	0.086062714
HH6180	0.085752234
SM6190	0.084826179
SM6240	0.085012197
SM6270	0.100672737
CC7210	0.124895069
HH6120	0.118335298
HH6150	0.122887044
HH6160	0.122887044
HH6000	0.085618094
MW6020	0.120460346
MW6120	0.123189308
MW6210	0.122259609
MW6230	0.125036271
MW6270	0.122902732
MW6380	0.12581684
MW6050	0.134572068
MW6240	0.128353134
MW6320	0.134852234
HP6000	0.132291548
HP6010	0.132291548
HH6030	0.115378684
HH6050	0.11524663
CC7100	0.139693797
CC7110	0.139693797
CC7380	0.139706802
WS6030	0.098237014
HH6090	0.112520725
HH6100	0.114637376
HH6110	0.114637376
VF7102	0.107898644
VF7112	0.107898644
VF7122	0.107898644
VF7132	0.107898644
HH6320	0.118136393
WS7130	0.096059105
WS7170	0.096059105
CC7360	0.099433967
SM6210	0.101320803
SM6300	0.101565537
EH6230	0.101257315
HP6050	0.117757952
HP6110	0.117757952
WS6960	0.10374378
SM6000	0.111026333
SM6010	0.111026333
SM6020	0.111026333
EH6190	0.104268324
WS7210	0.108198962
SM6100	0.109863204
EH6120	0.088166696
EH6130	0.088166696
EH6030	0.088166696
HP6090	0.118635058
HP6060	0.079000689
HP6070	0.122198141
VF6130	0.096435207
VF6140	0.096435207
VF6460	0.09215979
VF6470	0.09215979
VF6560	0.087594295
ST6000	0.06323953
VF6190	0.095285654
VF6200	0.095285654
FH6080	0.101650822
FH6110	0.100860548
FH6130	0.100131416
VF6010	0.091638082
GH7230	0.083887738
VF6150	0.087656206
VF6170	0.087656206
VF6640	0.101907861
VF6540	0.09381206
GH7370	0.063194919
VF6660	0.089157188
GH7160	0.08595311
VF6610	0.096857807
GH7200	0.087562835
GH7220	0.087562835
GH7250	0.087969166
ST6030	0.082894395
ST6060	0.085951749
ST6080	0.0869522
ST6100	0.084125277
ST6110	0.084125277
ST6120	0.084125277
VF6040	0.092609042
VF6830	0.100650036
VF6840	0.065599747
VF6240	0.109209895
VF6250	0.109209895
VF6260	0.109209895
VF6270	0.108887863
VF6280	0.108887863
VF6290	0.108887863
VF6300	0.109053051
VF6310	0.109053051
VF6370	0.109053051
VF6380	0.109053051
VF6390	0.109053051
VF6400	0.109053051
VF6850	0.101044583
VF6910	0.103215432
VF6940	0.11267215
VF6960	0.108942926
VF6970	0.1133641
GH7100	0.06349432
GH7120	0.06270432
VF6730	0.063740458
GH7020	0.063194919
GH7040	0.063194919
GH7310	0.063194919
GH7320	0.063194919
GH7330	0.063194919
GH7360	0.063194919
VF6000	0.087886155
VF6110	0.107655084
VF6930	0.119737267
VF6050	0.11440289
VF6060	0.11440289
VF6070	0.11440289
VF6430	0.08880043
VF6580	0.096544093
VF6590	0.096544093
GH7050	0.088387042
