Scenario 119	
ID	PGA_Soil_g
H4050	0.15841145
H4040	0.15841145
H4030	0.15381233
H4020	0.14912648
H4090	0.17772678
H4010	0.1751433
H4160	0.1751433
CC4040	0.45774764
SY4010	0.3491236
WS4010	0.68778646
SM4030	0.83005625
SM4040	0.76541322
SM4090	0.79898083
SM4100	0.79898083
SM4230	0.81758052
SM4050	0.75072628
VF4140	0.75092524
SM4070	0.76698136
SM4080	0.76698136
SM4160	0.77261704
HH4000	0.81820822
EH4010	0.32150756
SY4040	0.36676165
SY4050	0.35881257
SY4060	0.35318485
SM4060	0.47761151
SM4110	0.57884866
SM4120	0.57884866
SM4150	0.74211025
SM4220	0.47793925
SM4280	0.47332311
HH4010	0.75599074
HH4050	0.79047483
HH4060	0.81730247
HH4090	0.78252411
MW4070	0.71825284
MW4080	0.73856264
SM4000	0.73347074
SM4010	0.59183633
SM4020	0.63127095
SM4140	0.4347573
EH4000	0.45225531
EH4040	0.47153464
EH4080	0.38633913
CC4750	0.81055379
HH4170	0.81795287
HH4180	0.77913588
HH4190	0.77913588
MW4000	0.5508647
HP4040	0.60032326
HP4140	0.55576378
HP4150	0.55576378
MW4130	0.73684216
MW4140	0.73684216
MW4150	0.62854052
HP4010	0.73877478
HP4020	0.82734811
HP4050	0.6543721
HP4070	0.64352947
GH4000	0.22484395
GH4070	0.22274251
GH4080	0.22274251
EH4050	0.30625144
EH4060	0.30763828
EH4070	0.30763828
ST4020	0.34123605
ST4040	0.33952972
ST4060	0.30576634
VF4270	0.47360203
VF5540	0.38747084
ST4010	0.35640459
ST4030	0.33251825
ST4050	0.3398623
ST4080	0.31632544
VF5070	0.22891856
GH4060	0.16522333
ST4070	0.31189764
GH4020	0.19791883
FH4030	0.24741259
FH4040	0.24663215
FH4010	0.25836771
FH4020	0.25836771
SY4000	0.37340632
CC4250	0.77006638
SY4030	0.31972435
CC4220	0.79607451
CC4230	0.76098442
CC4240	0.63630843
HH4110	0.75922036
MW4100	0.60707468
WS4020	0.60394108
WS4030	0.58037847
VF5550	0.3756247
CC4280	0.49049109
HP4030	0.61383849
HP4060	0.64352947
FH4000	0.3215984
GH4150	0.21077517
FH4050	0.25051689
VF4010	0.00001
VF4180	0.00001
HH8000	0.00001
HH8010	0.00001
