Scenario 18	
ID	PGA_Soil_g
H5000	0.1258908
H5140	0.10470113
H5130	0.10470113
H5120	0.10470113
H5110	0.10470113
H5100	0.10470113
H5090	0.10470113
H5080	0.10352229
H5070	0.10352229
H5060	0.10352229
H5050	0.10200388
H5040	0.10200388
H5030	0.10200388
H5020	0.10200388
H5010	0.10200388
H5180	0.10922611
H5170	0.10922611
H5160	0.11278211
H5150	0.11268467
H5220	0.10200388
H5230	0.10922611
CC5000	0.14612281
CC5010	0.14612281
CC5020	0.14612281
CC5040	0.14612281
CC5240	0.14612281
CC5050	0.16202489
CC5060	0.16202489
CC5070	0.16202489
CC5080	0.16202489
CC5090	0.16202489
CC5100	0.16202489
CC5110	0.16202489
CC5120	0.16237136
CC5140	0.16612678
CC5150	0.16612678
CC5160	0.16612678
CC5170	0.16612678
CC5180	0.16576464
CC5190	0.16576464
CC5230	0.16202489
CC5250	0.16576464
CC5260	0.16576464
CC5270	0.16576464
SM5460	0.14844405
SM5470	0.14844405
SM5480	0.14844405
SM5530	0.14844405
SY5000	0.12240953
SY5010	0.12240953
SY5020	0.12240953
SY5030	0.12240953
SY5080	0.12040312
SY5090	0.12040312
SY5100	0.12040312
SY5110	0.12240953
SM5300	0.15110128
SM5310	0.15110128
SM5320	0.15110128
MW5110	0.19250624
MW5120	0.19304606
MW5130	0.19304606
MW5240	0.18260686
MW5250	0.18260686
MW5260	0.18260686
MW5270	0.18260686
MW5280	0.18260686
HH5070	0.20617368
HH5080	0.20617368
HH5090	0.20617368
HH5140	0.20617368
SM5350	0.12259815
SM5360	0.12259815
SM5370	0.12259815
SM5380	0.12259815
SM5420	0.12179477
SM5430	0.12179477
SM5440	0.12179477
SY5040	0.12396339
SY5050	0.12396339
SY5060	0.12396339
SY5070	0.12396339
SM5080	0.15301543
SM5090	0.15301543
SM5100	0.15301543
SM5110	0.15301543
SM5120	0.15301543
SM5130	0.15301543
SM5140	0.15301543
SM5190	0.15026827
SM5200	0.15026827
SM5210	0.15026827
SM5220	0.15026827
CC5200	0.18941534
CC5210	0.18941534
CC5220	0.18941534
MW5000	0.18941534
MW5010	0.18941534
MW5020	0.18941534
MW5030	0.18520914
MW5040	0.18520914
MW5050	0.18518738
MW5060	0.18518738
MW5140	0.18788143
MW5150	0.18788143
MW5160	0.18788143
HP5180	0.18946047
HP5190	0.18788143
HP5200	0.18788143
MW5070	0.19530808
MW5080	0.19530808
MW5090	0.19530808
MW5100	0.19530808
MW5190	0.19318867
MW5200	0.19208646
HP5140	0.18812674
HP5150	0.18864405
HP5160	0.18812674
HP5170	0.18812674
HH5000	0.18450109
HH5010	0.18450109
HH5020	0.18450109
HH5030	0.18450109
HH5040	0.18450109
HH5050	0.18450109
HH5060	0.18450109
HH5130	0.18761757
HH5150	0.18761757
MW5170	0.21861144
MW5180	0.2189157
CC5280	0.2189157
CC5290	0.2189157
SM5230	0.13431052
SM5240	0.13431052
SM5250	0.13431052
SM5330	0.12973995
SM5340	0.12973995
HH5100	0.18121238
HH5110	0.18121238
HH5120	0.1810692
SM5000	0.17704131
SM5010	0.17704131
SM5020	0.17704131
SM5490	0.17704131
SM5260	0.14223186
SM5270	0.1390142
SM5280	0.1390142
SM5290	0.1390142
SM5450	0.1390142
MW5210	0.20234538
MW5220	0.20234538
MW5230	0.20234538
HP5050	0.20234538
HP5060	0.20234538
HP5000	0.19744481
HP5010	0.19744481
SM5070	0.17397138
SM5150	0.16987257
SM5160	0.16987257
SM5170	0.16987257
SM5180	0.16987257
SM5390	0.17206589
SM5400	0.17206589
SM5410	0.17206589
EH5350	0.17206589
EH5360	0.17206589
EH5370	0.17206589
SM5030	0.16680047
SM5040	0.16680047
SM5050	0.16680047
SM5060	0.16680047
EH5000	0.16964174
EH5010	0.16964174
EH5020	0.16964174
EH5030	0.16964174
EH5040	0.16964174
EH5050	0.16964174
EH5060	0.16964174
EH5210	0.16836985
SM5500	0.16680047
SM5510	0.16680047
EH5070	0.15952633
EH5080	0.15952633
EH5090	0.15952633
EH5100	0.15952633
EH5110	0.15952633
EH5120	0.15952633
EH5130	0.15952633
EH5140	0.15952633
EH5520	0.15952633
HP5090	0.20712402
HP5100	0.20712402
HP5110	0.20712402
HP5120	0.20712402
HP5130	0.20712402
EH5150	0.16474299
EH5160	0.16474299
EH5180	0.16474299
EH5220	0.16451226
EH5230	0.16451226
EH5240	0.16368456
EH5250	0.16368456
HP5070	0.20340331
HP5080	0.20340331
GH5000	0.16212473
GH5010	0.16212473
GH5020	0.16212473
GH5030	0.16212473
GH5040	0.16212473
HP5020	0.20282922
HP5030	0.20282922
HP5040	0.20282922
HP5210	0.20282922
GH5050	0.16286845
GH5060	0.16286845
GH5070	0.17094475
GH5090	0.17094475
GH5100	0.17094475
GH5110	0.17094475
GH5180	0.17094475
ST5060	0.18051342
ST5070	0.18007713
ST5080	0.18007713
ST5090	0.18007713
ST5000	0.2136822
ST5010	0.2136822
ST5020	0.2136822
ST5030	0.2136822
FH5160	0.2266635
FH5170	0.2266635
FH5180	0.2266635
EH5310	0.19091446
EH5320	0.19091446
EH5330	0.19091446
EH5340	0.19091446
EH5280	0.19434274
EH5290	0.19434274
EH5300	0.19434274
VF7830	0.22270672
VF7840	0.22211392
VF5930	0.21228104
VF5940	0.21228104
VF5950	0.21228104
ST5100	0.23930521
ST5110	0.23930521
ST5120	0.23930521
ST5130	0.23930521
ST5140	0.23930521
ST5150	0.23930521
ST5160	0.24441247
ST5170	0.24441247
ST5180	0.24257461
ST5190	0.24257461
ST5200	0.24496531
ST5210	0.24496531
ST5220	0.24496531
ST5230	0.24496531
ST5240	0.24109752
ST5250	0.23930521
ST5260	0.24109752
ST5270	0.24028291
ST5280	0.24028291
ST5320	0.23930521
ST5330	0.24257461
VF7940	0.21421896
VF7950	0.21421896
VF7960	0.21521136
VF7970	0.21552275
VF7980	0.21552275
VF7990	0.21621555
VF8000	0.21665776
VF9000	0.21754217
VF9010	0.21754217
VF9020	0.21754217
VF9030	0.21824689
VF9040	0.21552275
VF9050	0.21552275
VF9060	0.21552275
VF9070	0.21552275
VF9080	0.21552275
VF9090	0.21552275
VF9100	0.21552275
VF9110	0.21552275
FH5120	0.23616268
FH5130	0.23616268
ST5040	0.25597553
ST5050	0.25597553
VF5000	0.20865163
VF5960	0.20865163
VF5970	0.2093244
VF5980	0.2093244
VF9120	0.2093244
VF9130	0.2093244
VF5060	0.2325906
VF5071	0.23181901
VF5080	0.23323362
VF5090	0.23162556
VF5100	0.23234127
VF5120	0.23234127
VF5130	0.23234127
VF5170	0.235764
VF5190	0.235764
VF5200	0.23434
VF5210	0.23434
VF5220	0.23361895
VF5240	0.23430972
VF5900	0.23311977
VF5910	0.2337657
VF5920	0.2337657
VF7260	0.23055081
VF7270	0.23131418
VF7280	0.23272269
VF7290	0.23208191
VF7300	0.23247173
VF7310	0.23428035
VF7370	0.21133899
VF7380	0.21133899
VF7390	0.21164143
VF7400	0.21061789
VF7410	0.2395474
VF7420	0.23988659
VF7430	0.23988659
VF7440	0.23914214
VF7450	0.23907161
VF7460	0.23907161
VF7470	0.23907161
VF7480	0.23833171
VF7490	0.23826132
VF7500	0.23826132
VF7510	0.2371232
VF7520	0.23311977
VF7530	0.23311977
VF7540	0.23638282
VF7550	0.23704586
VF7560	0.23454881
VF7570	0.23479874
VF7580	0.23545341
VF7590	0.23545341
VF7620	0.23585885
VF7630	0.23441482
VF7640	0.23506727
VF7650	0.23441482
VF7660	0.23441482
VF7670	0.23506727
VF7930	0.21353795
VF9140	0.23585885
VF9150	0.23441482
VF9160	0.23441482
VF9170	0.23506727
VF9180	0.23611143
VF9190	0.23565773
VF9200	0.23572323
VF9220	0.23506727
VF7800	0.20639833
VF7790	0.20639833
VF7780	0.20639833
VF7770	0.20639833
VF7750	0.20639833
VF7740	0.20566018
VF7730	0.20633563
VF7720	0.20566018
VF7710	0.20633563
VF7700	0.20566018
VF7690	0.20633563
VF7680	0.20496086
ST5300	0.20496086
ST5310	0.20600984
VF5010	0.22867227
VF5020	0.22942379
VF5030	0.22992146
VF5040	0.23068078
VF5050	0.22942379
VF5990	0.22691774
VF7000	0.22691774
VF7010	0.22691774
VF7020	0.22691774
VF7030	0.22691774
VF7040	0.22691774
VF7050	0.22691774
VF7060	0.22691774
VF7070	0.22691774
VF7080	0.22691774
VF7090	0.22691774
VF7100	0.22691774
VF7110	0.22691774
VF7120	0.22691774
VF7130	0.22691774
VF7140	0.22691774
VF7150	0.22691774
VF7160	0.22691774
VF7170	0.22691774
VF7180	0.22691774
VF7190	0.22691774
VF7200	0.22756662
VF7210	0.22756662
VF7220	0.22828758
VF7230	0.22903733
VF7240	0.2304203
VF7250	0.22979181
VF7320	0.22779601
VF7330	0.22717626
VF7340	0.22656064
VF7350	0.22760371
VF7360	0.22990973
VF7600	0.2274488
VF7610	0.2274488
VF7810	0.22413538
VF7820	0.22473702
VF7850	0.23196728
VF7860	0.23196728
VF7870	0.23260787
VF7880	0.23196728
VF7890	0.23120058
VF7900	0.23056703
VF7910	0.22868645
VF7920	0.22868645
VF9210	0.22993677
VF9230	0.23120058
VF9240	0.23260787
VF9250	0.23120058
GH5130	0.24953341
GH5140	0.24953341
GH5150	0.24953341
GH5160	0.24953341
GH5170	0.24953341
FH5090	0.24807335
FH5100	0.24807335
FH5110	0.24807335
FH5190	0.24807335
FH5140	0.24501767
FH5150	0.24501767
FH5040	0.2763682
FH5050	0.2763682
FH5060	0.2763682
FH5070	0.2763682
FH5080	0.2763682
