Scenario 18	
ID	PGA_Soil_g
H4050	0.10436904
H4040	0.10436904
H4030	0.10252148
H4020	0.10216496
H4090	0.10922611
H4010	0.10811896
H4160	0.10811896
CC4040	0.14546967
SY4010	0.1390277
WS4010	0.15546246
SM4030	0.12069696
SM4040	0.12425726
SM4090	0.12230688
SM4100	0.12230688
SM4230	0.12318527
SM4050	0.14839409
VF4140	0.15301543
SM4070	0.15453461
SM4080	0.15453461
SM4160	0.15293677
HH4000	0.13351408
EH4010	0.13564067
SY4040	0.12534889
SY4050	0.12452447
SY4060	0.1217646
SM4060	0.13085478
SM4110	0.135747
SM4120	0.135747
SM4150	0.14223186
SM4220	0.13147682
SM4280	0.13467346
HH4010	0.18761757
HH4050	0.18752857
HH4060	0.18292863
HH4090	0.18909866
MW4070	0.18518738
MW4080	0.18520914
SM4000	0.18137521
SM4010	0.17140723
SM4020	0.16663558
SM4140	0.16397726
EH4000	0.16680047
EH4040	0.16749897
EH4080	0.16805643
CC4750	0.18839759
HH4170	0.19057984
HH4180	0.1855284
HH4190	0.1855284
MW4000	0.18812674
HP4040	0.20278193
HP4140	0.19744481
HP4150	0.19744481
MW4130	0.19530808
MW4140	0.19530808
MW4150	0.20712402
HP4010	0.20784947
HP4020	0.20061144
HP4050	0.1983826
HP4070	0.15602247
GH4000	0.16212473
GH4070	0.1637645
GH4080	0.1637645
EH4050	0.15789943
EH4060	0.16474299
EH4070	0.16474299
ST4020	0.18157229
ST4040	0.1803329
ST4060	0.17840794
VF4270	0.2337657
VF5540	0.21552275
ST4010	0.24496531
ST4030	0.24458243
ST4050	0.24441247
ST4080	0.25113078
VF5070	0.20639833
GH4060	0.12704775
ST4070	0.19044517
GH4020	0.1898457
FH4030	0.25086897
FH4040	0.24999042
FH4010	0.27855872
FH4020	0.27855872
SY4000	0.12265186
CC4250	0.14322512
SY4030	0.12245828
CC4220	0.18681285
CC4230	0.18423317
CC4240	0.18311759
HH4110	0.18812019
MW4100	0.1801756
WS4020	0.16464644
WS4030	0.16718125
VF5550	0.16836985
CC4280	0.17910384
HP4030	0.20901797
HP4060	0.15602247
FH4000	0.21438505
GH4150	0.1761557
FH4050	0.24894019
VF4180	0.000010000
VF4010	0.000010000
HH8000	0.000010000
HH8010	0.000010000
