Scenario 398	
ID	PGA_Soil_g
H4050	0.268336107
H4040	0.268336107
H4030	0.254948805
H4020	0.255734204
H4090	0.298915081
H4010	0.289698213
H4160	0.289698213
CC4040	0.312109675
SY4010	0.189385217
WS4010	0.224361695
SM4030	0.195038602
SM4040	0.189225435
SM4090	0.191222653
SM4100	0.191222653
SM4230	0.196558788
SM4050	0.223050696
VF4140	0.232933903
SM4070	0.241660166
SM4080	0.241660166
SM4160	0.238106132
HH4000	0.250218928
EH4010	0.150196999
SY4040	0.162249112
SY4050	0.161473131
SY4060	0.163284159
SM4060	0.181750989
SM4110	0.19148199
SM4120	0.19148199
SM4150	0.213269967
SM4220	0.181274378
SM4280	0.178905576
HH4010	0.281723641
HH4050	0.295649916
HH4060	0.29764584
HH4090	0.297282799
MW4070	0.367684431
MW4080	0.386280178
SM4000	0.255114393
SM4010	0.213656883
SM4020	0.215133399
SM4140	0.198898432
EH4000	0.20225296
EH4040	0.208914787
EH4080	0.185599062
CC4750	0.334051575
HH4170	0.305312501
HH4180	0.284056436
HH4190	0.284056436
MW4000	0.460463852
HP4040	0.466611314
HP4140	0.468380451
HP4150	0.468380451
MW4130	0.405747521
MW4140	0.405747521
MW4150	0.446505421
HP4010	0.39324616
HP4020	0.372139205
HP4050	0.413822378
HP4070	0.374862432
GH4000	0.140210611
GH4070	0.139710411
GH4080	0.139710411
EH4050	0.160680893
EH4060	0.169573359
EH4070	0.169573359
ST4020	0.211194187
ST4040	0.207932279
ST4060	0.185514048
VF4270	0.24239926
VF5540	0.218698493
ST4010	0.266144957
ST4030	0.248279117
ST4050	0.253410552
ST4080	0.24558547
VF5070	0.147394976
GH4060	0.099380881
ST4070	0.209315419
GH4020	0.128485349
FH4030	0.187095571
FH4040	0.186016148
FH4010	0.213537765
FH4020	0.213537765
SY4000	0.173974442
CC4250	0.218940926
SY4030	0.155216503
CC4220	0.344494526
CC4230	0.358408922
CC4240	0.405733001
HH4110	0.284466317
MW4100	0.399926846
WS4020	0.210573636
WS4030	0.208741304
VF5550	0.189944997
CC4280	0.460442603
HP4030	0.448530293
HP4060	0.374862432
FH4000	0.213909888
GH4150	0.128748447
FH4050	0.187880969
VF4010	0.00001
VF4180	0.00001
HH8000	0.00001
HH8010	0.00001
