Scenario 370	
ID	PGA_Soil_g
H5000	0.214535514
H5140	0.199263385
H5130	0.199263385
H5120	0.199263385
H5110	0.199263385
H5100	0.199263385
H5090	0.199263385
H5080	0.200233993
H5070	0.200233993
H5060	0.200233993
H5050	0.194370165
H5040	0.194370165
H5030	0.194370165
H5020	0.194370165
H5010	0.194370165
H5180	0.201699489
H5170	0.201699489
H5160	0.203052841
H5150	0.203338532
H5220	0.194370165
H5230	0.201699489
CC5000	0.335437664
CC5010	0.335437664
CC5020	0.335437664
CC5040	0.335437664
CC5240	0.335437664
CC5050	0.296231496
CC5060	0.296231496
CC5070	0.296231496
CC5080	0.296231496
CC5090	0.296231496
CC5100	0.296231496
CC5110	0.296231496
CC5120	0.294752136
CC5140	0.300088727
CC5150	0.300088727
CC5160	0.300088727
CC5170	0.300088727
CC5180	0.301637471
CC5190	0.301637471
CC5230	0.296231496
CC5250	0.301637471
CC5260	0.301637471
CC5270	0.301637471
SM5460	0.430145641
SM5470	0.430145641
SM5480	0.430145641
SM5530	0.430145641
SY5000	0.377937913
SY5010	0.377937913
SY5020	0.377937913
SY5030	0.377937913
SY5080	0.365400374
SY5090	0.365400374
SY5100	0.365400374
SY5110	0.377937913
SM5300	0.443185951
SM5310	0.443185951
SM5320	0.443185951
MW5110	0.315099919
MW5120	0.312546125
MW5130	0.312546125
MW5240	0.312409617
MW5250	0.312409617
MW5260	0.312409617
MW5270	0.312409617
MW5280	0.312409617
HH5070	0.396316794
HH5080	0.396316794
HH5090	0.396316794
HH5140	0.396316794
SM5350	0.443498075
SM5360	0.443498075
SM5370	0.443498075
SM5380	0.443498075
SM5420	0.406702578
SM5430	0.406702578
SM5440	0.406702578
SY5040	0.390661627
SY5050	0.390661627
SY5060	0.390661627
SY5070	0.390661627
SM5080	0.464124143
SM5090	0.464124143
SM5100	0.464124143
SM5110	0.464124143
SM5120	0.464124143
SM5130	0.464124143
SM5140	0.464124143
SM5190	0.464012086
SM5200	0.464012086
SM5210	0.464012086
SM5220	0.464012086
CC5200	0.364874427
CC5210	0.364874427
CC5220	0.364874427
MW5000	0.364874427
MW5010	0.364874427
MW5020	0.364874427
MW5030	0.345060231
MW5040	0.345060231
MW5050	0.336939938
MW5060	0.336939938
MW5140	0.384121685
MW5150	0.384121685
MW5160	0.384121685
HP5180	0.384021711
HP5190	0.384121685
HP5200	0.384121685
MW5070	0.324351346
MW5080	0.324351346
MW5090	0.324351346
MW5100	0.324351346
MW5190	0.361213249
MW5200	0.358400902
HP5140	0.324624968
HP5150	0.322177668
HP5160	0.324624968
HP5170	0.324624968
HH5000	0.438306928
HH5010	0.438306928
HH5020	0.438306928
HH5030	0.438306928
HH5040	0.438306928
HH5050	0.438306928
HH5060	0.438306928
HH5130	0.452646469
HH5150	0.452646469
MW5170	0.378868729
MW5180	0.377230489
CC5280	0.377230489
CC5290	0.377230489
SM5230	0.441410869
SM5240	0.441410869
SM5250	0.441410869
SM5330	0.436848283
SM5340	0.436848283
HH5100	0.415243086
HH5110	0.415243086
HH5120	0.416289105
SM5000	0.516733289
SM5010	0.516733289
SM5020	0.516733289
SM5490	0.516733289
SM5260	0.462121814
SM5270	0.483535796
SM5280	0.483535796
SM5290	0.483535796
SM5450	0.483535796
MW5210	0.346873152
MW5220	0.346873152
MW5230	0.346873152
HP5050	0.346873152
HP5060	0.346873152
HP5000	0.324146336
HP5010	0.324146336
SM5070	0.526931167
SM5150	0.551974833
SM5160	0.551974833
SM5170	0.551974833
SM5180	0.551974833
SM5390	0.562510192
SM5400	0.562510192
SM5410	0.562510192
EH5350	0.562510192
EH5360	0.562510192
EH5370	0.562510192
SM5030	0.555174947
SM5040	0.555174947
SM5050	0.555174947
SM5060	0.555174947
EH5000	0.571481049
EH5010	0.571481049
EH5020	0.571481049
EH5030	0.571481049
EH5040	0.571481049
EH5050	0.571481049
EH5060	0.571481049
EH5210	0.563696086
SM5500	0.555174947
SM5510	0.555174947
EH5070	0.48944363
EH5080	0.48944363
EH5090	0.48944363
EH5100	0.48944363
EH5110	0.48944363
EH5120	0.48944363
EH5130	0.48944363
EH5140	0.48944363
EH5520	0.48944363
HP5090	0.308298782
HP5100	0.308298782
HP5110	0.308298782
HP5120	0.308298782
HP5130	0.308298782
EH5150	0.533708036
EH5160	0.533708036
EH5180	0.533708036
EH5220	0.534443438
EH5230	0.534443438
EH5240	0.528464496
EH5250	0.528464496
HP5070	0.302485828
HP5080	0.302485828
GH5000	0.501410246
GH5010	0.501410246
GH5020	0.501410246
GH5030	0.501410246
GH5040	0.501410246
HP5020	0.337795076
HP5030	0.337795076
HP5040	0.337795076
HP5210	0.337795076
GH5050	0.507941008
GH5060	0.507941008
GH5070	0.561639845
GH5090	0.561639845
GH5100	0.561639845
GH5110	0.561639845
GH5180	0.561639845
ST5060	0.517985463
ST5070	0.516995728
ST5080	0.516995728
ST5090	0.516995728
ST5000	0.735934854
ST5010	0.735934854
ST5020	0.735934854
ST5030	0.735934854
FH5160	0.863645852
FH5170	0.863645852
FH5180	0.863645852
EH5310	0.546262681
EH5320	0.546262681
EH5330	0.546262681
EH5340	0.546262681
EH5280	0.570392907
EH5290	0.570392907
EH5300	0.570392907
VF7830	0.485303342
VF7840	0.489859849
VF5930	0.534094334
VF5940	0.534094334
VF5950	0.534094334
ST5100	0.614013851
ST5110	0.614013851
ST5120	0.614013851
ST5130	0.614013851
ST5140	0.614013851
ST5150	0.614013851
ST5160	0.573606431
ST5170	0.573606431
ST5180	0.571542978
ST5190	0.571542978
ST5200	0.522340953
ST5210	0.522340953
ST5220	0.522340953
ST5230	0.522340953
ST5240	0.616544008
ST5250	0.614013851
ST5260	0.616544008
ST5270	0.627893209
ST5280	0.627893209
ST5320	0.614013851
ST5330	0.571542978
VF7940	0.816750258
VF7950	0.816750258
VF7960	0.82207191
VF7970	0.821833193
VF7980	0.821833193
VF7990	0.827557623
VF8000	0.829140544
VF9000	0.832306385
VF9010	0.832306385
VF9020	0.832306385
VF9030	0.838194162
VF9040	0.821833193
VF9050	0.821833193
VF9060	0.821833193
VF9070	0.821833193
VF9080	0.821833193
VF9090	0.821833193
VF9100	0.821833193
VF9110	0.821833193
FH5120	0.941505313
FH5130	0.941505313
ST5040	0.579329312
ST5050	0.579329312
VF5000	0.968305051
VF5960	0.968305051
VF5970	0.969084263
VF5980	0.969084263
VF9120	0.969084263
VF9130	0.969084263
VF5060	0.585333347
VF5071	0.571774662
VF5080	0.579606593
VF5090	0.478960401
VF5100	0.489202982
VF5120	0.489202982
VF5130	0.489202982
VF5170	0.449641258
VF5190	0.449641258
VF5200	0.445282719
VF5210	0.445282719
VF5220	0.436547381
VF5240	0.432122096
VF5900	0.66554594
VF5910	0.660290539
VF5920	0.660290539
VF7260	0.58284831
VF7270	0.596403599
VF7280	0.604791641
VF7290	0.610192955
VF7300	0.61722073
VF7310	0.633576453
VF7370	0.772683561
VF7380	0.772683561
VF7390	0.77110225
VF7400	0.75812006
VF7410	0.744993329
VF7420	0.743093491
VF7430	0.743093491
VF7440	0.737554163
VF7450	0.727730811
VF7460	0.727730811
VF7470	0.727730811
VF7480	0.722279578
VF7490	0.712142587
VF7500	0.712142587
VF7510	0.698929638
VF7520	0.66554594
VF7530	0.66554594
VF7540	0.637645483
VF7550	0.631817281
VF7560	0.675627291
VF7570	0.607818544
VF7580	0.601976871
VF7590	0.601976871
VF7620	0.66484952
VF7630	0.654786825
VF7640	0.649110377
VF7650	0.654786825
VF7660	0.654786825
VF7670	0.649110377
VF7930	0.81118989
VF9140	0.66484952
VF9150	0.654786825
VF9160	0.654786825
VF9170	0.649110377
VF9180	0.595954776
VF9190	0.632868201
VF9200	0.643381834
VF9220	0.649110377
VF7800	0.963003457
VF7790	0.963003457
VF7780	0.963003457
VF7770	0.963003457
VF7750	0.963003457
VF7740	0.960470657
VF7730	0.962650687
VF7720	0.960470657
VF7710	0.962650687
VF7700	0.960470657
VF7690	0.962650687
VF7680	0.958339632
ST5300	0.958339632
ST5310	0.961536169
VF5010	0.598789573
VF5020	0.612403095
VF5030	0.588236451
VF5040	0.601771057
VF5050	0.612403095
VF5990	0.483272094
VF7000	0.483272094
VF7010	0.483272094
VF7020	0.483272094
VF7030	0.483272094
VF7040	0.483272094
VF7050	0.483272094
VF7060	0.483272094
VF7070	0.483272094
VF7080	0.483272094
VF7090	0.483272094
VF7100	0.483272094
VF7110	0.483272094
VF7120	0.483272094
VF7130	0.483272094
VF7140	0.483272094
VF7150	0.483272094
VF7160	0.483272094
VF7170	0.483272094
VF7180	0.483272094
VF7190	0.483272094
VF7200	0.478482333
VF7210	0.478482333
VF7220	0.544049025
VF7230	0.556641698
VF7240	0.564127743
VF7250	0.569580793
VF7320	0.478024423
VF7330	0.482853442
VF7340	0.487655997
VF7350	0.496056423
VF7360	0.494629294
VF7600	0.699268818
VF7610	0.699268818
VF7810	0.50677824
VF7820	0.501916587
VF7850	0.693613589
VF7860	0.693613589
VF7870	0.689609945
VF7880	0.693613589
VF7890	0.67951566
VF7900	0.683536232
VF7910	0.693893254
VF7920	0.693893254
VF9210	0.687257409
VF9230	0.67951566
VF9240	0.689609945
VF9250	0.67951566
GH5130	0.970602989
GH5140	0.970602989
GH5150	0.970602989
GH5160	0.970602989
GH5170	0.970602989
FH5090	0.910282135
FH5100	0.910282135
FH5110	0.910282135
FH5190	0.910282135
FH5140	0.929326057
FH5150	0.929326057
FH5040	0.857711911
FH5050	0.857711911
FH5060	0.857711911
FH5070	0.857711911
FH5080	0.857711911
