Scenario 370	
ID	PGA_Soil_g
H6060	0.230497694
H6050	0.230497694
CC6010	0.233812784
CC7180	0.233812784
CC7300	0.231460889
H6070	0.193669945
H6030	0.192267627
H6230	0.2240336
H6200	0.213533002
H6170	0.209083432
H6130	0.204918356
H6120	0.198580173
H6020	0.206872642
H6010	0.206872642
H6000	0.206872642
WS6220	0.31913268
WS6260	0.299306832
WS6510	0.311348809
WS6920	0.301870942
CC6070	0.235256697
CC6130	0.258031471
CC6160	0.248455437
CC6200	0.239650001
CC6540	0.271772593
WS6080	0.318760437
WS6490	0.324689572
WS7010	0.307394959
WS7120	0.307394959
WS6400	0.32544322
WS6470	0.330586588
WS6620	0.343896317
WS6630	0.343896317
WS6640	0.343896317
WS6780	0.317577016
CC6640	0.310703866
CC6650	0.333830619
WS6900	0.306412345
WS6130	0.358967635
WS6310	0.358967635
WS6360	0.364934336
WS6180	0.367043647
CC7090	0.30677385
CC6460	0.335804701
CC6420	0.341709734
WS6890	0.382202792
SY6000	0.400362955
SY6030	0.400014676
SY6040	0.400362955
SY6100	0.377828345
SY6180	0.400262673
SY6200	0.400262673
SY6310	0.381158298
WS7110	0.392492513
WS7150	0.392492513
WS6010	0.395795149
WS6540	0.426585062
WS6550	0.426585062
WS6560	0.426585062
WS6590	0.426585062
MW6140	0.310048991
CC6350	0.289970505
CC6390	0.302430362
CC6770	0.364289081
CC6780	0.364289081
CC7230	0.296231496
CC7240	0.296231496
CC7330	0.300088727
CC7340	0.300088727
CC7350	0.300088727
WS6250	0.342552209
WS6280	0.395035094
WS6340	0.385245305
WS6420	0.406424224
WS6660	0.399380457
WS7040	0.385540402
WS7050	0.385540402
WS7100	0.385540402
WS7070	0.385540402
WS7250	0.385540402
WS7260	0.440557993
WS6040	0.402685837
WS7160	0.410313307
SY6060	0.392606324
SY6150	0.402685837
SY6160	0.402685837
SY6170	0.402685837
SY6270	0.38571382
SY6280	0.395070603
SY6290	0.395070603
SY6320	0.402685837
SY6330	0.380798668
CC6280	0.304661214
CC6490	0.385569896
CC7290	0.387701941
WS6990	0.393000478
WS7000	0.393000478
WS6100	0.451823756
CC6790	0.395350234
CC6800	0.395350234
CC6830	0.399085201
CC6860	0.375419609
CC6990	0.385447249
CC7010	0.388185018
SY6120	0.379293501
SY6140	0.377495936
SY6240	0.375757641
WS6120	0.434734458
WS6190	0.422194827
WS6300	0.407598469
WS6450	0.436903118
WS6600	0.434132673
WS6680	0.442409304
WS6730	0.448865654
WS6810	0.427404642
WS6820	0.417300814
WS6840	0.436903118
WS7180	0.441016446
WS7190	0.443462553
WS7220	0.442409304
WS7230	0.442409304
WS7240	0.442409304
WS7270	0.442409304
WS7280	0.442409304
WS7290	0.442409304
WS7300	0.442409304
WS6690	0.436903118
CC6210	0.369135205
CC6250	0.329316668
CC6880	0.382706977
HH6200	0.374533699
HH6210	0.371299833
CC6030	0.382706977
CC6290	0.420004648
CC7220	0.322274855
MW6100	0.309549052
MW6110	0.309549052
MW6190	0.315933649
SM6150	0.442894243
MW6160	0.320646711
MW6350	0.333303642
SM6170	0.422353178
SM6340	0.416705936
CC7040	0.308098903
MW6410	0.311687069
MW6420	0.312409617
MW6430	0.312409617
CC6940	0.395377114
HH6220	0.399598163
HH6230	0.399598163
HH6240	0.399598163
HH6280	0.418126631
MW6060	0.418126631
MW6070	0.418126631
SM6130	0.448366553
SM6140	0.448366553
SM6320	0.490303546
EH6200	0.476055056
HH6130	0.399945498
HH6180	0.410196707
SM6190	0.42888397
SM6240	0.425903618
SM6270	0.410453647
CC7210	0.368287916
HH6120	0.401089536
HH6150	0.380888367
HH6160	0.380888367
HH6000	0.351948231
MW6020	0.360865656
MW6120	0.340740983
MW6210	0.343273425
MW6230	0.330212796
MW6270	0.321178725
MW6380	0.317258206
MW6050	0.322595434
MW6240	0.315352562
MW6320	0.290800081
HP6000	0.324191491
HP6010	0.324191491
HH6030	0.419384234
HH6050	0.423137824
CC7100	0.380506968
CC7110	0.380506968
CC7380	0.378868729
WS6030	0.438594729
HH6090	0.451448411
HH6100	0.452291988
HH6110	0.452291988
VF7102	0.516733289
VF7112	0.516733289
VF7122	0.516733289
VF7132	0.516733289
HH6320	0.416986451
WS7130	0.483535796
WS7170	0.483535796
CC7360	0.454972506
SM6210	0.438187957
SM6300	0.435468286
EH6230	0.440950722
HP6050	0.349975754
HP6110	0.349975754
WS6960	0.562510192
SM6000	0.495643914
SM6010	0.495643914
SM6020	0.495643914
EH6190	0.55855304
WS7210	0.519255068
SM6100	0.50510478
EH6120	0.483598173
EH6130	0.483598173
EH6030	0.483598173
HP6090	0.308298782
HP6060	0.288291752
HP6070	0.300575538
VF6130	0.48194465
VF6140	0.48194465
VF6460	0.529907227
VF6470	0.529907227
VF6560	0.592167318
ST6000	0.521771371
VF6190	0.920959592
VF6200	0.920959592
FH6080	0.750309527
FH6110	0.779923439
FH6130	0.828438997
VF6010	0.634226322
GH7230	0.743030071
VF6150	0.745358706
VF6170	0.745358706
VF6640	0.605811417
VF6540	0.6206761
GH7370	0.750824392
VF6660	0.77813983
GH7160	0.846557081
VF6610	0.718675137
GH7200	0.8964867
GH7220	0.8964867
GH7250	0.908984065
ST6030	0.659747064
ST6060	0.571542978
ST6080	0.556781411
ST6100	0.567598283
ST6110	0.567598283
ST6120	0.567598283
VF6040	0.956953287
VF6830	0.821833193
VF6840	0.969084263
VF6240	0.660630196
VF6250	0.660630196
VF6260	0.660630196
VF6270	0.66554594
VF6280	0.66554594
VF6290	0.66554594
VF6300	0.660290539
VF6310	0.660290539
VF6370	0.660290539
VF6380	0.660290539
VF6390	0.660290539
VF6400	0.660290539
VF6850	0.81118989
VF6910	0.772683561
VF6940	0.590931952
VF6960	0.66379414
VF6970	0.58284831
GH7100	0.912148297
GH7120	0.920625508
VF6730	0.736457109
GH7020	0.750824392
GH7040	0.750824392
GH7310	0.750824392
GH7320	0.750824392
GH7330	0.750824392
GH7360	0.750824392
VF6000	0.967377782
VF6110	0.693893254
VF6930	0.492429078
VF6050	0.599956512
VF6060	0.599956512
VF6070	0.599956512
VF6430	0.827186406
VF6580	0.713578999
VF6590	0.713578999
GH7050	0.83613658
