Scenario 562	
ID	PGA_Soil_g
H4000	0.3043082
H4180	0.303112543
H4060	0.270678723
H4130	0.331063752
H4080	0.298123018
H4070	0.298360649
CC4360	0.382980113
H4140	0.344482531
CC4060	0.502540827
CC4070	0.502540827
CC4080	0.502540827
CC4090	0.502540827
CC4100	0.502540827
CC4110	0.498579293
CC4140	0.672184348
CC4150	0.67204535
CC4160	0.67204535
CC4370	0.502540827
CC4380	0.478997976
CC4460	0.67204535
CC4470	0.67204535
CC4480	0.67204535
MW4210	0.455750991
MW4220	0.45240317
MW4190	0.488764909
MW4200	0.4852557
CC4760	0.488764909
HP4110	0.311497957
GH4010	0.350442171
GH4040	0.302343734
GH4050	0.302343734
VF5300	0.386212391
VF5310	0.386192819
VF4150	0.418655187
ST4090	0.278399315
ST4100	0.281441107
ST4110	0.281441107
ST4120	0.278417157
ST4130	0.278417157
VF5420	0.336266813
VF5430	0.340286389
VF5440	0.340286389
VF5450	0.340286389
VF5460	0.340286389
VF5470	0.340308502
VF5480	0.344412902
VF5490	0.344412902
VF5500	0.344412902
VF5510	0.344438019
VF5520	0.344438019
VF5580	0.344412902
VF4000	0.22753889
VF4280	0.22753889
VF4290	0.22752766
VF4300	0.22752766
VF5690	0.22752766
VF5700	0.22752766
VF4010	0.229887933
GH4140	0.212902263
VF4070	0.363370836
VF4080	0.368545139
VF4090	0.363344765
VF4100	0.408381522
VF4110	0.408385921
VF4120	0.408385921
VF4130	0.408385921
VF4200	0.413041842
VF4210	0.413041842
VF4220	0.419481575
VF4230	0.419481575
VF4250	0.389980122
VF4260	0.389273855
VF4610	0.348538256
VF4620	0.353349495
VF4630	0.358325279
VF4640	0.35832231
VF4650	0.363403702
VF4660	0.368591022
VF4760	0.310034251
VF4770	0.310034251
VF4780	0.310022843
VF4790	0.313960898
VF4800	0.317968762
VF4810	0.317968762
VF4820	0.317968762
VF4830	0.317968762
VF4840	0.322060812
VF4850	0.322060812
VF4860	0.322060812
VF4870	0.326260722
VF4880	0.326240802
VF4890	0.326240802
VF4900	0.330533767
VF4910	0.343988371
VF4920	0.343988371
VF4930	0.343846321
VF4940	0.343839848
VF4950	0.339391065
VF4960	0.353362083
VF4970	0.353345776
VF4980	0.353345776
VF5010	0.339331484
VF5020	0.343881977
VF5030	0.343881977
VF5040	0.343918204
VF5050	0.343918204
VF5060	0.343881977
VF5530	0.348633063
VF5570	0.310034251
VF5600	0.363390076
VF5620	0.343988371
VF5630	0.368591022
VF5750	0.339331484
VF5760	0.343918204
VF5770	0.343918204
VF5780	0.343881977
VF5790	0.353318417
VF5800	0.348539937
VF5810	0.343857086
VF5830	0.343881977
VF5870	0.343955576
VF4180	0.260424101
VF4020	0.368644738
VF4030	0.363456845
VF4040	0.368608367
VF4050	0.36341511
VF4060	0.363456845
VF4380	0.392290506
VF4390	0.392290506
VF4400	0.392290506
VF4410	0.392290506
VF4420	0.392290506
VF4430	0.392290506
VF4440	0.392290506
VF4450	0.392290506
VF4460	0.392290506
VF4470	0.392290506
VF4480	0.392290506
VF4490	0.392290506
VF4500	0.392290506
VF4510	0.392290506
VF4520	0.392290506
VF4530	0.392290506
VF4540	0.392290506
VF4550	0.392290506
VF4560	0.392290506
VF4570	0.392290506
VF4580	0.392290506
VF4590	0.392326894
VF4600	0.392326894
VF4670	0.373894322
VF4680	0.379319215
VF4690	0.379319215
VF4700	0.384868169
VF4710	0.396311116
VF4720	0.402318263
VF4730	0.408485556
VF4740	0.408481801
VF4750	0.408449113
VF4990	0.344196939
VF5000	0.344196939
VF5280	0.408417213
VF5290	0.40837369
VF5340	0.339464915
VF5350	0.339464915
VF5360	0.339450717
VF5370	0.339464915
VF5380	0.344045734
VF5390	0.344054532
VF5400	0.344126916
VF5410	0.344126916
VF5590	0.408462524
VF5610	0.386156103
VF5820	0.344066584
VF5840	0.344045734
VF5850	0.339450717
VF5860	0.344045734
GH4090	0.253112477
VF5100	0.253101233
CC4050	0.502540827
CC4130	0.672184348
VF5880	0.221100211
