Scenario 562	
ID	PGA_Soil_g
H6060	0.271229881
H6050	0.271229881
CC6010	0.345036137
CC7180	0.345036137
CC7300	0.344482531
H6070	0.226699798
H6030	0.224643996
H6230	0.313881868
H6200	0.320881481
H6170	0.286653341
H6130	0.295613652
H6120	0.279588126
H6020	0.280546163
H6010	0.280546163
H6000	0.280546163
WS6220	0.471119285
WS6260	0.570340812
WS6510	0.626200736
WS6920	0.569941223
CC6070	0.349928252
CC6130	0.408181666
CC6160	0.370403682
CC6200	0.365357226
CC6540	0.468857016
WS6080	0.517770112
WS6490	0.517882168
WS7010	0.518536747
WS7120	0.518536747
WS6400	0.580490053
WS6470	0.648312688
WS6620	0.68016535
WS6630	0.68016535
WS6640	0.68016535
WS6780	0.547492445
CC6640	0.691748857
CC6650	0.747708321
WS6900	0.659754753
WS6130	0.741378248
WS6310	0.741378248
WS6360	0.74869293
WS6180	0.751928151
CC7090	0.528100133
CC6460	0.708972871
CC6420	0.726474822
WS6890	0.751806259
SY6000	0.744938374
SY6030	0.727924824
SY6040	0.744938374
SY6100	0.702590048
SY6180	0.720907748
SY6200	0.720907748
SY6310	0.702695489
WS7110	0.691051781
WS7150	0.691051781
WS6010	0.701457977
WS6540	0.636203945
WS6550	0.636203945
WS6560	0.636203945
WS6590	0.636203945
MW6140	0.489393204
CC6350	0.482110471
CC6390	0.533018112
CC6770	0.755618811
CC6780	0.755618811
CC7230	0.502540827
CC7240	0.502540827
CC7330	0.672184348
CC7340	0.672184348
CC7350	0.672184348
WS6250	0.690905511
WS6280	0.718749642
WS6340	0.73348105
WS6420	0.751706123
WS6660	0.739326
WS7040	0.756497383
WS7050	0.756497383
WS7100	0.756497383
WS7070	0.756497383
WS7250	0.756497383
WS7260	0.606591475
WS6040	0.681826532
WS7160	0.670780301
SY6060	0.692439795
SY6150	0.681826532
SY6160	0.681826532
SY6170	0.681826532
SY6270	0.702680051
SY6280	0.692287028
SY6290	0.692287028
SY6320	0.681826532
SY6330	0.671335697
CC6280	0.724428892
CC6490	0.683337192
CC7290	0.718893945
WS6990	0.668947995
WS7000	0.668947995
WS6100	0.624812722
CC6790	0.63436079
CC6800	0.63436079
CC6830	0.62277168
CC6860	0.611580431
CC6990	0.623073936
CC7010	0.623321891
SY6120	0.72170037
SY6140	0.729245365
SY6240	0.721119463
WS6120	0.613783717
WS6190	0.636134863
WS6300	0.658658803
WS6450	0.601960599
WS6600	0.60170269
WS6680	0.591070533
WS6730	0.569333553
WS6810	0.612934887
WS6820	0.635770738
WS6840	0.601960599
WS7180	0.590923488
WS7190	0.588328227
WS7220	0.591070533
WS7230	0.591070533
WS7240	0.591070533
WS7270	0.591070533
WS7280	0.591070533
WS7290	0.591070533
WS7300	0.591070533
WS6690	0.601960599
CC6210	0.623286486
CC6250	0.683243692
CC6880	0.622660875
HH6200	0.622553587
HH6210	0.634247541
CC6030	0.622660875
CC6290	0.589900911
CC7220	0.48156628
MW6100	0.467240751
MW6110	0.467240751
MW6190	0.480652452
SM6150	0.603107989
MW6160	0.46378157
MW6350	0.466291098
SM6170	0.516545653
SM6340	0.516174853
CC7040	0.502406597
MW6410	0.492240002
MW6420	0.490191996
MW6430	0.490191996
CC6940	0.505473852
HH6220	0.487146199
HH6230	0.487146199
HH6240	0.487146199
HH6280	0.486194938
MW6060	0.486194938
MW6070	0.486194938
SM6130	0.487796515
SM6140	0.487796515
SM6320	0.453766555
EH6200	0.461944342
HH6130	0.486972839
HH6180	0.492206931
SM6190	0.496960402
SM6240	0.496688366
SM6270	0.45282799
CC7210	0.479816675
HH6120	0.45175501
HH6150	0.46797967
HH6160	0.46797967
HH6000	0.449476361
MW6020	0.441919984
MW6120	0.446548449
MW6210	0.440112595
MW6230	0.450125049
MW6270	0.414910792
MW6380	0.435929078
MW6050	0.443307553
MW6240	0.383923486
MW6320	0.460171627
HP6000	0.429008974
HP6010	0.429008974
HH6030	0.442128485
HH6050	0.44215668
CC7100	0.488764909
CC7110	0.488764909
CC7380	0.487010305
WS6030	0.570259929
HH6090	0.434982356
HH6100	0.450397919
HH6110	0.450397919
VF7102	0.420608394
VF7112	0.420608394
VF7122	0.420608394
VF7132	0.420608394
HH6320	0.452848017
WS7130	0.488795549
WS7170	0.488795549
CC7360	0.490980575
SM6210	0.506526411
SM6300	0.506704569
EH6230	0.516612649
HP6050	0.402228123
HP6110	0.402228123
WS6960	0.414236252
SM6000	0.453807414
SM6010	0.453807414
SM6020	0.453807414
EH6190	0.414161119
WS7210	0.463471757
SM6100	0.453992665
EH6120	0.383071737
EH6130	0.383071737
EH6030	0.383071737
HP6090	0.396796952
HP6060	0.311497957
HP6070	0.378100026
VF6130	0.411318791
VF6140	0.411318791
VF6460	0.360425091
VF6470	0.360425091
VF6560	0.307590473
ST6000	0.228152752
VF6190	0.300148496
VF6200	0.300148496
FH6080	0.335984597
FH6110	0.33208583
FH6130	0.332195562
VF6010	0.307245862
GH7230	0.288558507
VF6150	0.304290238
VF6170	0.304290238
VF6640	0.369936454
VF6540	0.323226678
GH7370	0.247309363
VF6660	0.304153886
GH7160	0.279442874
VF6610	0.302973676
GH7200	0.279292086
GH7220	0.279292086
GH7250	0.279257991
ST6030	0.264025752
ST6060	0.28121078
ST6080	0.287360556
ST6100	0.269291684
ST6110	0.269291684
ST6120	0.269291684
VF6040	0.290818781
VF6830	0.344412902
VF6840	0.22752766
VF6240	0.346343797
VF6250	0.346343797
VF6260	0.346343797
VF6270	0.343988371
VF6280	0.343988371
VF6290	0.343988371
VF6300	0.343955576
VF6310	0.343955576
VF6370	0.343955576
VF6380	0.343955576
VF6390	0.343955576
VF6400	0.343955576
VF6850	0.348633063
VF6910	0.310034251
VF6940	0.363390076
VF6960	0.343977439
VF6970	0.368591022
GH7100	0.227755684
GH7120	0.223374814
VF6730	0.252606583
GH7020	0.247309363
GH7040	0.247309363
GH7310	0.247309363
GH7320	0.247309363
GH7330	0.247309363
GH7360	0.247309363
VF6000	0.268080819
VF6110	0.344126916
VF6930	0.408462524
VF6050	0.393451139
VF6060	0.393451139
VF6070	0.393451139
VF6430	0.29436993
VF6580	0.30301609
VF6590	0.30301609
GH7050	0.291257188
