Scenario 371	
ID	PGA_Soil_g
H5000	0.154124928
H5140	0.12700104
H5130	0.12700104
H5120	0.12700104
H5110	0.12700104
H5100	0.12700104
H5090	0.12700104
H5080	0.128036423
H5070	0.128036423
H5060	0.128036423
H5050	0.12474667
H5040	0.12474667
H5030	0.12474667
H5020	0.12474667
H5010	0.12474667
H5180	0.136846611
H5170	0.136846611
H5160	0.136603682
H5150	0.136819313
H5220	0.12474667
H5230	0.136846611
CC5000	0.214110874
CC5010	0.214110874
CC5020	0.214110874
CC5040	0.214110874
CC5240	0.214110874
CC5050	0.197788036
CC5060	0.197788036
CC5070	0.197788036
CC5080	0.197788036
CC5090	0.197788036
CC5100	0.197788036
CC5110	0.197788036
CC5120	0.19682858
CC5140	0.228683376
CC5150	0.228683376
CC5160	0.228683376
CC5170	0.228683376
CC5180	0.22989409
CC5190	0.22989409
CC5230	0.197788036
CC5250	0.22989409
CC5260	0.22989409
CC5270	0.22989409
SM5460	0.317728923
SM5470	0.317728923
SM5480	0.317728923
SM5530	0.317728923
SY5000	0.292356396
SY5010	0.292356396
SY5020	0.292356396
SY5030	0.292356396
SY5080	0.295782548
SY5090	0.295782548
SY5100	0.295782548
SY5110	0.292356396
SM5300	0.317567462
SM5310	0.317567462
SM5320	0.317567462
MW5110	0.207200691
MW5120	0.205805883
MW5130	0.205805883
MW5240	0.206839743
MW5250	0.206839743
MW5260	0.206839743
MW5270	0.206839743
MW5280	0.206839743
HH5070	0.261195064
HH5080	0.261195064
HH5090	0.261195064
HH5140	0.261195064
SM5350	0.227521241
SM5360	0.227521241
SM5370	0.227521241
SM5380	0.227521241
SM5420	0.210661381
SM5430	0.210661381
SM5440	0.210661381
SY5040	0.292946252
SY5050	0.292946252
SY5060	0.292946252
SY5070	0.292946252
SM5080	0.279899812
SM5090	0.279899812
SM5100	0.279899812
SM5110	0.279899812
SM5120	0.279899812
SM5130	0.279899812
SM5140	0.279899812
SM5190	0.282128763
SM5200	0.282128763
SM5210	0.282128763
SM5220	0.282128763
CC5200	0.21677928
CC5210	0.21677928
CC5220	0.21677928
MW5000	0.21677928
MW5010	0.21677928
MW5020	0.21677928
MW5030	0.207862303
MW5040	0.207862303
MW5050	0.203892499
MW5060	0.203892499
MW5140	0.226192497
MW5150	0.226192497
MW5160	0.226192497
HP5180	0.225844565
HP5190	0.226192497
HP5200	0.226192497
MW5070	0.196643797
MW5080	0.196643797
MW5090	0.196643797
MW5100	0.196643797
MW5190	0.214479959
MW5200	0.213300118
HP5140	0.192629534
HP5150	0.191410527
HP5160	0.192629534
HP5170	0.192629534
HH5000	0.27269921
HH5010	0.27269921
HH5020	0.27269921
HH5030	0.27269921
HH5040	0.27269921
HH5050	0.27269921
HH5060	0.27269921
HH5130	0.27871819
HH5150	0.27871819
MW5170	0.232225557
MW5180	0.231380504
CC5280	0.231380504
CC5290	0.231380504
SM5230	0.2907857
SM5240	0.2907857
SM5250	0.2907857
SM5330	0.291468447
SM5340	0.291468447
HH5100	0.261909357
HH5110	0.261909357
HH5120	0.262525231
SM5000	0.298951939
SM5010	0.298951939
SM5020	0.298951939
SM5490	0.298951939
SM5260	0.289476782
SM5270	0.284895644
SM5280	0.284895644
SM5290	0.284895644
SM5450	0.284895644
MW5210	0.206707005
MW5220	0.206707005
MW5230	0.206707005
HP5050	0.206707005
HP5060	0.206707005
HP5000	0.191750425
HP5010	0.191750425
SM5070	0.308591264
SM5150	0.333855501
SM5160	0.333855501
SM5170	0.333855501
SM5180	0.333855501
SM5390	0.33821992
SM5400	0.33821992
SM5410	0.33821992
EH5350	0.33821992
EH5360	0.33821992
EH5370	0.33821992
SM5030	0.362872149
SM5040	0.362872149
SM5050	0.362872149
SM5060	0.362872149
EH5000	0.370166016
EH5010	0.370166016
EH5020	0.370166016
EH5030	0.370166016
EH5040	0.370166016
EH5050	0.370166016
EH5060	0.370166016
EH5210	0.368144305
SM5500	0.362872149
SM5510	0.362872149
EH5070	0.411389141
EH5080	0.411389141
EH5090	0.411389141
EH5100	0.411389141
EH5110	0.411389141
EH5120	0.411389141
EH5130	0.411389141
EH5140	0.411389141
EH5520	0.411389141
HP5090	0.202520344
HP5100	0.202520344
HP5110	0.202520344
HP5120	0.202520344
HP5130	0.202520344
EH5150	0.415744203
EH5160	0.415744203
EH5180	0.415744203
EH5220	0.389775078
EH5230	0.389775078
EH5240	0.384650691
EH5250	0.384650691
HP5070	0.199717459
HP5080	0.199717459
GH5000	0.429433832
GH5010	0.429433832
GH5020	0.429433832
GH5030	0.429433832
GH5040	0.429433832
HP5020	0.20136504
HP5030	0.20136504
HP5040	0.20136504
HP5210	0.20136504
GH5050	0.435360776
GH5060	0.435360776
GH5070	0.461427659
GH5090	0.461427659
GH5100	0.461427659
GH5110	0.461427659
GH5180	0.461427659
ST5060	0.235520879
ST5070	0.235132476
ST5080	0.235132476
ST5090	0.235132476
ST5000	0.335281545
ST5010	0.335281545
ST5020	0.335281545
ST5030	0.335281545
FH5160	0.402377272
FH5170	0.402377272
FH5180	0.402377272
EH5310	0.471104291
EH5320	0.471104291
EH5330	0.471104291
EH5340	0.471104291
EH5280	0.439549837
EH5290	0.439549837
EH5300	0.439549837
VF7830	0.32727249
VF7840	0.330225536
VF5930	0.312833226
VF5940	0.312833226
VF5950	0.312833226
ST5100	0.307516439
ST5110	0.307516439
ST5120	0.307516439
ST5130	0.307516439
ST5140	0.307516439
ST5150	0.307516439
ST5160	0.29391036
ST5170	0.29391036
ST5180	0.292592576
ST5190	0.292592576
ST5200	0.310174073
ST5210	0.310174073
ST5220	0.310174073
ST5230	0.310174073
ST5240	0.309030332
ST5250	0.307516439
ST5260	0.309030332
ST5270	0.313004625
ST5280	0.313004625
ST5320	0.307516439
ST5330	0.292592576
VF7940	0.413838004
VF7950	0.413838004
VF7960	0.41375885
VF7970	0.411192468
VF7980	0.411192468
VF7990	0.41364916
VF8000	0.412731674
VF9000	0.410896704
VF9010	0.410896704
VF9020	0.410896704
VF9030	0.4133055
VF9040	0.411192468
VF9050	0.411192468
VF9060	0.411192468
VF9070	0.411192468
VF9080	0.411192468
VF9090	0.411192468
VF9100	0.411192468
VF9110	0.411192468
FH5120	0.436420526
FH5130	0.436420526
ST5040	0.300967412
ST5050	0.300967412
VF5000	0.614151597
VF5960	0.614151597
VF5970	0.60304445
VF5980	0.60304445
VF9120	0.60304445
VF9130	0.60304445
VF5060	0.322712982
VF5071	0.316738021
VF5080	0.319490361
VF5090	0.296272802
VF5100	0.300996751
VF5120	0.300996751
VF5130	0.300996751
VF5170	0.281156093
VF5190	0.281156093
VF5200	0.279347369
VF5210	0.279347369
VF5220	0.275225154
VF5240	0.272919402
VF5900	0.363856924
VF5910	0.360016787
VF5920	0.360016787
VF7260	0.323091352
VF7270	0.329248774
VF7280	0.332226419
VF7290	0.335600531
VF7300	0.338854694
VF7310	0.345410621
VF7370	0.418116724
VF7380	0.418116724
VF7390	0.415719563
VF7400	0.408893466
VF7410	0.402258718
VF7420	0.399985135
VF7430	0.399985135
VF7440	0.397881246
VF7450	0.391375387
VF7460	0.391375387
VF7470	0.391375387
VF7480	0.389346635
VF7490	0.383055174
VF7500	0.383055174
VF7510	0.377079231
VF7520	0.363856924
VF7530	0.363856924
VF7540	0.34509573
VF7550	0.341501033
VF7560	0.367522609
VF7570	0.331852341
VF7580	0.328473508
VF7590	0.328473508
VF7620	0.35972414
VF7630	0.356210232
VF7640	0.352446198
VF7650	0.356210232
VF7660	0.356210232
VF7670	0.352446198
VF7930	0.411350775
VF9140	0.35972414
VF9150	0.356210232
VF9160	0.356210232
VF9170	0.352446198
VF9180	0.325122035
VF9190	0.343477714
VF9200	0.348739815
VF9220	0.352446198
VF7800	0.751064658
VF7790	0.751064658
VF7780	0.751064658
VF7770	0.751064658
VF7750	0.751064658
VF7740	0.740910292
VF7730	0.735640794
VF7720	0.740910292
VF7710	0.735640794
VF7700	0.740910292
VF7690	0.735640794
VF7680	0.741198719
ST5300	0.741198719
ST5310	0.740766078
VF5010	0.332877803
VF5020	0.339342284
VF5030	0.326316333
VF5040	0.33256731
VF5050	0.339342284
VF5990	0.299920687
VF7000	0.299920687
VF7010	0.299920687
VF7020	0.299920687
VF7030	0.299920687
VF7040	0.299920687
VF7050	0.299920687
VF7060	0.299920687
VF7070	0.299920687
VF7080	0.299920687
VF7090	0.299920687
VF7100	0.299920687
VF7110	0.299920687
VF7120	0.299920687
VF7130	0.299920687
VF7140	0.299920687
VF7150	0.299920687
VF7160	0.299920687
VF7170	0.299920687
VF7180	0.299920687
VF7190	0.299920687
VF7200	0.297323582
VF7210	0.297323582
VF7220	0.305738497
VF7230	0.311341882
VF7240	0.314022803
VF7250	0.317124009
VF7320	0.320570087
VF7330	0.323501083
VF7340	0.326460367
VF7350	0.330531013
VF7360	0.328528339
VF7600	0.400027299
VF7610	0.400027299
VF7810	0.338623321
VF7820	0.335517192
VF7850	0.383544946
VF7860	0.383544946
VF7870	0.379484725
VF7880	0.383544946
VF7890	0.375552607
VF7900	0.379513013
VF7910	0.391698039
VF7920	0.391698039
VF9210	0.383517265
VF9230	0.375552607
VF9240	0.379484725
VF9250	0.375552607
GH5130	0.786812782
GH5140	0.786812782
GH5150	0.786812782
GH5160	0.786812782
GH5170	0.786812782
FH5090	0.557967544
FH5100	0.557967544
FH5110	0.557967544
FH5190	0.557967544
FH5140	0.663582087
FH5150	0.663582087
FH5040	0.527040124
FH5050	0.527040124
FH5060	0.527040124
FH5070	0.527040124
FH5080	0.527040124
