Scenario 371	
ID	PGA_Soil_g
H4050	0.128922395
H4040	0.128922395
H4030	0.127454425
H4020	0.124443926
H4090	0.136846611
H4010	0.136296125
H4160	0.136296125
CC4040	0.212699988
SY4010	0.319338793
WS4010	0.30078387
SM4030	0.222074717
SM4040	0.235031962
SM4090	0.229283527
SM4100	0.229283527
SM4230	0.224029183
SM4050	0.286534846
VF4140	0.279899812
SM4070	0.270907456
SM4080	0.270907456
SM4160	0.273183632
HH4000	0.188335374
EH4010	0.38261362
SY4040	0.298709327
SY4050	0.296212411
SY4060	0.280515239
SM4060	0.28569285
SM4110	0.284026316
SM4120	0.284026316
SM4150	0.289476782
SM4220	0.288661015
SM4280	0.30423604
HH4010	0.27871819
HH4050	0.26584094
HH4060	0.26064401
HH4090	0.265522957
MW4070	0.203892499
MW4080	0.207862303
SM4000	0.303164648
SM4010	0.315480277
SM4020	0.302984975
SM4140	0.361800134
EH4000	0.362872149
EH4040	0.348977871
EH4080	0.37985381
CC4750	0.22452182
HH4170	0.237035505
HH4180	0.274680276
HH4190	0.274680276
MW4000	0.192629534
HP4040	0.197467262
HP4140	0.191750425
HP4150	0.191750425
MW4130	0.196643797
MW4140	0.196643797
MW4150	0.202520344
HP4010	0.201373196
HP4020	0.215604901
HP4050	0.196149068
HP4070	0.154896185
GH4000	0.429433832
GH4070	0.440110436
GH4080	0.440110436
EH4050	0.396086356
EH4060	0.415744203
EH4070	0.415744203
ST4020	0.233263671
ST4040	0.238602713
ST4060	0.281888634
VF4270	0.360016787
VF5540	0.411192468
ST4010	0.310174073
ST4030	0.302690504
ST4050	0.29391036
ST4080	0.302629088
VF5070	0.751064658
GH4060	0.495215654
ST4070	0.230452523
GH4020	0.751136065
FH4030	0.547907591
FH4040	0.559482694
FH4010	0.527191877
FH4020	0.527191877
SY4000	0.292522073
CC4250	0.283135289
SY4030	0.296666023
CC4220	0.220297998
CC4230	0.214992994
CC4240	0.209277341
HH4110	0.276407343
MW4100	0.20988892
WS4020	0.306659965
WS4030	0.315853164
VF5550	0.368144305
CC4280	0.191148859
HP4030	0.202067667
HP4060	0.154896185
FH4000	0.330785581
GH4150	0.643191278
FH4050	0.546488166
VF4010	0.00001
VF4180	0.00001
HH8000	0.00001
HH8010	0.00001
