Scenario 560	
ID	PGA_Soil_g
H4050	0.205631596
H4040	0.205631596
H4030	0.198838937
H4020	0.208989012
H4090	0.230835228
H4010	0.226580237
H4160	0.226580237
CC4040	0.538183391
SY4010	0.716269553
WS4010	0.757596731
SM4030	0.709613264
SM4040	0.647566915
SM4090	0.680449903
SM4100	0.680449903
SM4230	0.6804685
SM4050	0.647665262
VF4140	0.612336218
SM4070	0.612814903
SM4080	0.612814903
SM4160	0.624228716
HH4000	0.646227837
EH4010	0.592480302
SY4040	0.75538522
SY4050	0.757151425
SY4060	0.745303869
SM4060	0.749139488
SM4110	0.726754367
SM4120	0.726754367
SM4150	0.700769007
SM4220	0.744662702
SM4280	0.711089969
HH4010	0.578808129
HH4050	0.599872231
HH4060	0.646534026
HH4090	0.588563859
MW4070	0.738918304
MW4080	0.73276633
SM4000	0.590048015
SM4010	0.601581693
SM4020	0.659596443
SM4140	0.602898657
EH4000	0.580738127
EH4040	0.591884434
EH4080	0.518769026
CC4750	0.679222167
HH4170	0.634598494
HH4180	0.601003349
HH4190	0.601003349
MW4000	0.683524728
HP4040	0.598722875
HP4140	0.61582911
HP4150	0.61582911
MW4130	0.682589412
MW4140	0.682589412
MW4150	0.577457666
HP4010	0.581002414
HP4020	0.611368656
HP4050	0.539153397
HP4070	0.508429766
GH4000	0.438679433
GH4070	0.423748371
GH4080	0.423748371
EH4050	0.540325284
EH4060	0.499885291
EH4070	0.499885291
ST4020	0.298293978
ST4040	0.298307955
ST4060	0.282559842
VF4270	0.426166195
VF5540	0.385434437
ST4010	0.320456532
ST4030	0.308251143
ST4050	0.312222899
ST4080	0.296706496
VF5070	0.272429556
GH4060	0.322817743
ST4070	0.278602839
GH4020	0.275910223
FH4030	0.27301669
FH4040	0.273028952
FH4010	0.284849373
FH4020	0.284849373
SY4000	0.732666612
CC4250	0.701182544
SY4030	0.757559299
CC4220	0.699361265
CC4230	0.725111127
CC4240	0.752394795
HH4110	0.578731775
MW4100	0.759298921
WS4020	0.670703232
WS4030	0.63713944
VF5550	0.52882719
CC4280	0.699264467
HP4030	0.56225723
HP4060	0.508429766
FH4000	0.30279282
GH4150	0.285196063
FH4050	0.275954437
VF4010	0.00001
VF4180	0.00001
HH8000	0.00001
HH8010	0.00001
