Scenario 161	
ID	PGA_Soil_g
H6060	0.42244131
H6050	0.42244131
CC6010	0.65087032
CC7180	0.65087032
CC7300	0.69301742
H6070	0.33554048
H6030	0.33591978
H6230	0.58506572
H6200	0.50615567
H6170	0.62058496
H6130	0.47123045
H6120	0.44988716
H6020	0.60037607
H6010	0.60037607
H6000	0.60037607
WS6220	0.31822072
WS6260	0.34350045
WS6510	0.33127528
WS6920	0.32904053
CC6070	0.65863585
CC6130	0.69350004
CC6160	0.72891802
CC6200	0.67806917
CC6540	0.60198063
WS6080	0.39535702
WS6490	0.35940509
WS7010	0.42476753
WS7120	0.42476753
WS6400	0.34188935
WS6470	0.33843069
WS6620	0.31236366
WS6630	0.31236366
WS6640	0.31236366
WS6780	0.34395336
CC6640	0.3615069
CC6650	0.31974016
WS6900	0.36679068
WS6130	0.29271471
WS6310	0.29271471
WS6360	0.28113606
WS6180	0.28449443
CC7090	0.31977183
CC6460	0.31751264
CC6420	0.29540845
WS6890	0.28733144
SY6000	0.21134462
SY6030	0.20712354
SY6040	0.21134462
SY6100	0.20534716
SY6180	0.2026412
SY6200	0.2026412
SY6310	0.2086947
WS7110	0.24997895
WS7150	0.24997895
WS6010	0.23434926
WS6540	0.21800156
WS6550	0.21800156
WS6560	0.21800156
WS6590	0.21800156
MW6140	0.29271808
CC6350	0.5383541
CC6390	0.47782651
CC6770	0.31197835
CC6780	0.31197835
CC7230	0.52518773
CC7240	0.52518773
CC7330	0.40201948
CC7340	0.40201948
CC7350	0.40201948
WS6250	0.32412246
WS6280	0.28152806
WS6340	0.289487
WS6420	0.29286449
WS6660	0.31811384
WS7040	0.32217708
WS7050	0.32217708
WS7100	0.32217708
WS7070	0.32217708
WS7250	0.32217708
WS7260	0.21513064
WS6040	0.20751086
WS7160	0.21279284
SY6060	0.20058869
SY6150	0.20751086
SY6160	0.20751086
SY6170	0.20751086
SY6270	0.19857829
SY6280	0.20387677
SY6290	0.20387677
SY6320	0.20751086
SY6330	0.18137582
CC6280	0.3954055
CC6490	0.30128294
CC7290	0.33224404
WS6990	0.29470691
WS7000	0.29470691
WS6100	0.23644894
CC6790	0.28173714
CC6800	0.28173714
CC6830	0.27823522
CC6860	0.27070406
CC6990	0.28467518
CC7010	0.28346803
SY6120	0.17089174
SY6140	0.17319594
SY6240	0.16815838
WS6120	0.22264817
WS6190	0.22988707
WS6300	0.24122816
WS6450	0.22556875
WS6600	0.22878938
WS6680	0.22359914
WS6730	0.22421048
WS6810	0.23252123
WS6820	0.23682693
WS6840	0.22556875
WS7180	0.2251686
WS7190	0.22350407
WS7220	0.22359914
WS7230	0.22359914
WS7240	0.22359914
WS7270	0.22359914
WS7280	0.22359914
WS7290	0.22359914
WS7300	0.22359914
WS6690	0.22556875
CC6210	0.29106799
CC6250	0.29062556
CC6880	0.28583865
HH6200	0.28909994
HH6210	0.29300456
CC6030	0.28583865
CC6290	0.27413858
CC7220	0.30896229
MW6100	0.31886175
MW6110	0.31886175
MW6190	0.31679063
SM6150	0.20670588
MW6160	0.26217819
MW6350	0.2567972
SM6170	0.17778546
SM6340	0.17966849
CC7040	0.29237501
MW6410	0.2858124
MW6420	0.28451897
MW6430	0.28451897
CC6940	0.27086799
HH6220	0.26516991
HH6230	0.26516991
HH6240	0.26516991
HH6280	0.26804719
MW6060	0.26804719
MW6070	0.26804719
SM6130	0.20266639
SM6140	0.20266639
SM6320	0.18803453
EH6200	0.19283538
HH6130	0.18213354
HH6180	0.18009675
SM6190	0.17509982
SM6240	0.17598303
SM6270	0.21073295
CC7210	0.25463164
HH6120	0.23361678
HH6150	0.24812775
HH6160	0.24812775
HH6000	0.1833823
MW6020	0.23955082
MW6120	0.24749783
MW6210	0.24453032
MW6230	0.25295085
MW6270	0.24466381
MW6380	0.2542326
MW6050	0.27998115
MW6240	0.25605205
MW6320	0.28237858
HP6000	0.27193336
HP6010	0.27193336
HH6030	0.22363461
HH6050	0.22309672
CC7100	0.264494
CC7110	0.264494
CC7380	0.26446944
WS6030	0.18654177
HH6090	0.21278179
HH6100	0.21955049
HH6110	0.21955049
VF7102	0.19616257
VF7112	0.19616257
VF7122	0.19616257
VF7132	0.19616257
HH6320	0.23127657
WS7130	0.1858123
WS7170	0.1858123
CC7360	0.19999875
SM6210	0.2066494
SM6300	0.20779685
EH6230	0.20511666
HP6050	0.23006151
HP6110	0.23006151
WS6960	0.19553735
SM6000	0.20148352
SM6010	0.20148352
SM6020	0.20148352
EH6190	0.19756306
WS7210	0.20705519
SM6100	0.19700579
EH6120	0.14715653
EH6130	0.14715653
EH6030	0.14715653
HP6090	0.22896708
HP6060	0.15872177
HP6070	0.23951302
VF6130	0.15796179
VF6140	0.15796179
VF6460	0.14989933
VF6470	0.14989933
VF6560	0.14172156
ST6000	0.11619873
VF6190	0.16952972
VF6200	0.16952972
FH6080	0.1862606
FH6110	0.18405926
FH6130	0.18163182
VF6010	0.15271527
GH7230	0.1371973
VF6150	0.14614314
VF6170	0.14614314
VF6640	0.17719225
VF6540	0.15742881
GH7370	0.10364973
VF6660	0.15043421
GH7160	0.14370669
VF6610	0.1686578
GH7200	0.1483202
GH7220	0.1483202
GH7250	0.14951581
ST6030	0.14816499
ST6060	0.1559821
ST6080	0.15855768
ST6100	0.15132387
ST6110	0.15132387
ST6120	0.15132387
VF6040	0.16220969
VF6830	0.18195865
VF6840	0.11216558
VF6240	0.20491945
VF6250	0.20491945
VF6260	0.20491945
VF6270	0.2040689
VF6280	0.2040689
VF6290	0.2040689
VF6300	0.20467103
VF6310	0.20467103
VF6370	0.20467103
VF6380	0.20467103
VF6390	0.20467103
VF6400	0.20467103
VF6850	0.18279411
VF6910	0.188644
VF6940	0.21541457
VF6960	0.20426961
VF6970	0.21732323
GH7100	0.10609615
GH7120	0.10427758
VF6730	0.10472671
GH7020	0.10364973
GH7040	0.10364973
GH7310	0.10364973
GH7320	0.10364973
GH7330	0.10364973
GH7360	0.10364973
VF6000	0.15049704
VF6110	0.19959401
VF6930	0.23674803
VF6050	0.21318479
VF6060	0.21318479
VF6070	0.21318479
VF6430	0.15037891
VF6580	0.16768194
VF6590	0.16768194
GH7050	0.14949391
