Scenario 23	
ID	PGA_Soil_g
H5000	0.14789491
H5140	0.12500408
H5130	0.12500408
H5120	0.12500408
H5110	0.12500408
H5100	0.12500408
H5090	0.12500408
H5080	0.12316197
H5070	0.12316197
H5060	0.12316197
H5050	0.12220353
H5040	0.12220353
H5030	0.12220353
H5020	0.12220353
H5010	0.12220353
H5180	0.12766677
H5170	0.12766677
H5160	0.13203748
H5150	0.13185387
H5220	0.12220353
H5230	0.12766677
CC5000	0.14008752
CC5010	0.14008752
CC5020	0.14008752
CC5040	0.14008752
CC5240	0.14008752
CC5050	0.17204336
CC5060	0.17204336
CC5070	0.17204336
CC5080	0.17204336
CC5090	0.17204336
CC5100	0.17204336
CC5110	0.17204336
CC5120	0.1726423
CC5140	0.1670055
CC5150	0.1670055
CC5160	0.1670055
CC5170	0.1670055
CC5180	0.16642396
CC5190	0.16642396
CC5230	0.17204336
CC5250	0.16642396
CC5260	0.16642396
CC5270	0.16642396
SM5460	0.12559049
SM5470	0.12559049
SM5480	0.12559049
SM5530	0.12559049
SY5000	0.10088614
SY5010	0.10088614
SY5020	0.10088614
SY5030	0.10088614
SY5080	0.10195211
SY5090	0.10195211
SY5100	0.10195211
SY5110	0.10088614
SM5300	0.12744877
SM5310	0.12744877
SM5320	0.12744877
MW5110	0.17467835
MW5120	0.17542929
MW5130	0.17542929
MW5240	0.16932832
MW5250	0.16932832
MW5260	0.16932832
MW5270	0.16932832
MW5280	0.16932832
HH5070	0.17721362
HH5080	0.17721362
HH5090	0.17721362
HH5140	0.17721362
SM5350	0.10138891
SM5360	0.10138891
SM5370	0.10138891
SM5380	0.10138891
SM5420	0.10325013
SM5430	0.10325013
SM5440	0.10325013
SY5040	0.10220541
SY5050	0.10220541
SY5060	0.10220541
SY5070	0.10220541
SM5080	0.12364388
SM5090	0.12364388
SM5100	0.12364388
SM5110	0.12364388
SM5120	0.12364388
SM5130	0.12364388
SM5140	0.12364388
SM5190	0.12208562
SM5200	0.12208562
SM5210	0.12208562
SM5220	0.12208562
CC5200	0.16553909
CC5210	0.16553909
CC5220	0.16553909
MW5000	0.16553909
MW5010	0.16553909
MW5020	0.16553909
MW5030	0.1658722
MW5040	0.1658722
MW5050	0.16702549
MW5060	0.16702549
MW5140	0.16237143
MW5150	0.16237143
MW5160	0.16237143
HP5180	0.1632207
HP5190	0.16237143
HP5200	0.16237143
MW5070	0.17464991
MW5080	0.17464991
MW5090	0.17464991
MW5100	0.17464991
MW5190	0.16802232
MW5200	0.16781984
HP5140	0.17736638
HP5150	0.17813089
HP5160	0.17736638
HP5170	0.17736638
HH5000	0.15151464
HH5010	0.15151464
HH5020	0.15151464
HH5030	0.15151464
HH5040	0.15151464
HH5050	0.15151464
HH5060	0.15151464
HH5130	0.1519188
HH5150	0.1519188
MW5170	0.19059807
MW5180	0.19099476
CC5280	0.19099476
CC5290	0.19099476
SM5230	0.1125656
SM5240	0.1125656
SM5250	0.1125656
SM5330	0.10679924
SM5340	0.10679924
HH5100	0.15182254
HH5110	0.15182254
HH5120	0.15164709
SM5000	0.13941065
SM5010	0.13941065
SM5020	0.13941065
SM5490	0.13941065
SM5260	0.11720055
SM5270	0.11322245
SM5280	0.11322245
SM5290	0.11322245
SM5450	0.11322245
MW5210	0.17469882
MW5220	0.17469882
MW5230	0.17469882
HP5050	0.17469882
HP5060	0.17469882
HP5000	0.18300012
HP5010	0.18300012
SM5070	0.13684611
SM5150	0.1321633
SM5160	0.1321633
SM5170	0.1321633
SM5180	0.1321633
SM5390	0.13279597
SM5400	0.13279597
SM5410	0.13279597
EH5350	0.13279597
EH5360	0.13279597
EH5370	0.13279597
SM5030	0.12785655
SM5040	0.12785655
SM5050	0.12785655
SM5060	0.12785655
EH5000	0.12578118
EH5010	0.12578118
EH5020	0.12578118
EH5030	0.12578118
EH5040	0.12578118
EH5050	0.12578118
EH5060	0.12578118
EH5210	0.12530036
SM5500	0.12785655
SM5510	0.12785655
EH5070	0.11483523
EH5080	0.11483523
EH5090	0.11483523
EH5100	0.11483523
EH5110	0.11483523
EH5120	0.11483523
EH5130	0.11483523
EH5140	0.11483523
EH5520	0.11483523
HP5090	0.18377914
HP5100	0.18377914
HP5110	0.18377914
HP5120	0.18377914
HP5130	0.18377914
EH5150	0.11921622
EH5160	0.11921622
EH5180	0.11921622
EH5220	0.121318
EH5230	0.121318
EH5240	0.12125486
EH5250	0.12125486
HP5070	0.18300872
HP5080	0.18300872
GH5000	0.10963186
GH5010	0.10963186
GH5020	0.10963186
GH5030	0.10963186
GH5040	0.10963186
HP5020	0.18358894
HP5030	0.18358894
HP5040	0.18358894
HP5210	0.18358894
GH5050	0.11027632
GH5060	0.11027632
GH5070	0.11088486
GH5090	0.11088486
GH5100	0.11088486
GH5110	0.11088486
GH5180	0.11088486
ST5060	0.11916315
ST5070	0.11915011
ST5080	0.11915011
ST5090	0.11915011
ST5000	0.13284536
ST5010	0.13284536
ST5020	0.13284536
ST5030	0.13284536
FH5160	0.16549693
FH5170	0.16549693
FH5180	0.16549693
EH5310	0.13443329
EH5320	0.13443329
EH5330	0.13443329
EH5340	0.13443329
EH5280	0.1395015
EH5290	0.1395015
EH5300	0.1395015
VF7830	0.17271444
VF7840	0.17204521
VF5930	0.16355278
VF5940	0.16355278
VF5950	0.16355278
ST5100	0.16150816
ST5110	0.16150816
ST5120	0.16150816
ST5130	0.16150816
ST5140	0.16150816
ST5150	0.16150816
ST5160	0.16429779
ST5170	0.16429779
ST5180	0.16426499
ST5190	0.16426499
ST5200	0.16780325
ST5210	0.16780325
ST5220	0.16780325
ST5230	0.16780325
ST5240	0.16153911
ST5250	0.16150816
ST5260	0.16153911
ST5270	0.16086305
ST5280	0.16086305
ST5320	0.16150816
ST5330	0.16426499
VF7940	0.16096825
VF7950	0.16096825
VF7960	0.16129154
VF7970	0.16159011
VF7980	0.16159011
VF7990	0.16161405
VF8000	0.16182269
VF9000	0.16223997
VF9010	0.16223997
VF9020	0.16223997
VF9030	0.16226308
VF9040	0.16159011
VF9050	0.16159011
VF9060	0.16159011
VF9070	0.16159011
VF9080	0.16159011
VF9090	0.16159011
VF9100	0.16159011
VF9110	0.16159011
FH5120	0.14567688
FH5130	0.14567688
ST5040	0.16442777
ST5050	0.16442777
VF5000	0.11596848
VF5960	0.11596848
VF5970	0.11638412
VF5980	0.11638412
VF9120	0.11638412
VF9130	0.11638412
VF5060	0.16985215
VF5071	0.17041078
VF5080	0.1705092
VF5090	0.18128588
VF5100	0.18069292
VF5120	0.18069292
VF5130	0.18069292
VF5170	0.18580309
VF5190	0.18580309
VF5200	0.18564825
VF5210	0.18564825
VF5220	0.18626113
VF5240	0.18703736
VF5900	0.16509907
VF5910	0.16572275
VF5920	0.16572275
VF7260	0.16910352
VF7270	0.16855209
VF7280	0.16864498
VF7290	0.16800081
VF7300	0.16772586
VF7310	0.1675364
VF7370	0.16258028
VF7380	0.16258028
VF7390	0.16288425
VF7400	0.16312834
VF7410	0.16337172
VF7420	0.16367717
VF7430	0.16367717
VF7440	0.16364468
VF7450	0.16422671
VF7460	0.16422671
VF7470	0.16422671
VF7480	0.16419274
VF7490	0.16477696
VF7500	0.16477696
VF7510	0.16501693
VF7520	0.16509907
VF7530	0.16509907
VF7540	0.16826334
VF7550	0.16891036
VF7560	0.16517756
VF7570	0.16938546
VF7580	0.1700399
VF7590	0.1700399
VF7620	0.16643125
VF7630	0.16635089
VF7640	0.1669836
VF7650	0.16635089
VF7660	0.16635089
VF7670	0.1669836
VF7930	0.16094353
VF9140	0.16643125
VF9150	0.16635089
VF9160	0.16635089
VF9170	0.1669836
VF9180	0.17069901
VF9190	0.16822063
VF9200	0.16762105
VF9220	0.1669836
VF7800	0.11195346
VF7790	0.11195346
VF7780	0.11195346
VF7770	0.11195346
VF7750	0.11195346
VF7740	0.1120862
VF7730	0.11234415
VF7720	0.1120862
VF7710	0.11234415
VF7700	0.1120862
VF7690	0.11234415
VF7680	0.1119585
ST5300	0.1119585
ST5310	0.11215005
VF5010	0.16717769
VF5020	0.16663706
VF5030	0.16845691
VF5040	0.16790905
VF5050	0.16663706
VF5990	0.17882015
VF7000	0.17882015
VF7010	0.17882015
VF7020	0.17882015
VF7030	0.17882015
VF7040	0.17882015
VF7050	0.17882015
VF7060	0.17882015
VF7070	0.17882015
VF7080	0.17882015
VF7090	0.17882015
VF7100	0.17882015
VF7110	0.17882015
VF7120	0.17882015
VF7130	0.17882015
VF7140	0.17882015
VF7150	0.17882015
VF7160	0.17882015
VF7170	0.17882015
VF7180	0.17882015
VF7190	0.17882015
VF7200	0.17953939
VF7210	0.17953939
VF7220	0.17075839
VF7230	0.1702067
VF7240	0.17030995
VF7250	0.16965505
VF7320	0.17570181
VF7330	0.1750101
VF7340	0.1743233
VF7350	0.17410603
VF7360	0.17525922
VF7600	0.15967968
VF7610	0.15967968
VF7810	0.17162539
VF7820	0.17229208
VF7850	0.16272293
VF7860	0.16272293
VF7870	0.1633301
VF7880	0.16272293
VF7890	0.16325412
VF7900	0.16264771
VF7910	0.1608543
VF7920	0.1608543
VF9210	0.1620456
VF9230	0.16325412
VF9240	0.1633301
VF9250	0.16325412
GH5130	0.14921147
GH5140	0.14921147
GH5150	0.14921147
GH5160	0.14921147
GH5170	0.14921147
FH5090	0.13917532
FH5100	0.13917532
FH5110	0.13917532
FH5190	0.13917532
FH5140	0.13516916
FH5150	0.13516916
FH5040	0.16074862
FH5050	0.16074862
FH5060	0.16074862
FH5070	0.16074862
FH5080	0.16074862
