Scenario 168	
ID	PGA_Soil_g
H4000	0.21309571
H4180	0.21989407
H4060	0.17840549
H4130	0.20082889
H4080	0.19460678
H4070	0.19407814
CC4360	0.23026673
H4140	0.20966188
CC4060	0.31518593
CC4070	0.31518593
CC4080	0.31518593
CC4090	0.31518593
CC4100	0.31518593
CC4110	0.3159928
CC4140	0.34319337
CC4150	0.34151095
CC4160	0.34151095
CC4370	0.31518593
CC4380	0.32884172
CC4460	0.34151095
CC4470	0.34151095
CC4480	0.34151095
MW4210	0.53036475
MW4220	0.53566724
MW4190	0.51617777
MW4200	0.52129847
CC4760	0.51617777
HP4110	0.80371416
GH4010	0.2319838
GH4040	0.24104483
GH4050	0.24104483
VF5300	0.57277483
VF5310	0.56635439
VF4150	0.50728434
ST4090	1.04229093
ST4100	1.03823507
ST4110	1.03823507
ST4120	1.0254519
ST4130	1.0254519
VF5420	0.57510352
VF5430	0.57151192
VF5440	0.57151192
VF5450	0.57151192
VF5460	0.57151192
VF5470	0.56065428
VF5480	0.55701095
VF5490	0.55701095
VF5500	0.55701095
VF5510	0.54675537
VF5520	0.54675537
VF5580	0.55701095
VF4000	0.44957244
VF4280	0.44957244
VF4290	0.45731044
VF4300	0.45731044
VF5690	0.45731044
VF5700	0.45731044
VF4010	0.39151806
GH4140	0.2092929
VF4070	0.62448502
VF4080	0.6259672
VF4090	0.63439226
VF4100	0.68078887
VF4110	0.67485934
VF4120	0.67485934
VF4130	0.67485934
VF4200	0.70573312
VF4210	0.70573312
VF4220	0.68951362
VF4230	0.68951362
VF4250	0.68065649
VF4260	0.68896276
VF4610	0.60513669
VF4620	0.59772968
VF4630	0.60156536
VF4640	0.61193663
VF4650	0.60458046
VF4660	0.60678333
VF4760	0.56143767
VF4770	0.56143767
VF4780	0.57225853
VF4790	0.56800282
VF4800	0.5741877
VF4810	0.5741877
VF4820	0.5741877
VF4830	0.5741877
VF4840	0.57998532
VF4850	0.57998532
VF4860	0.57998532
VF4870	0.57484573
VF4880	0.58540303
VF4890	0.58540303
VF4900	0.57988685
VF4910	0.5724597
VF4920	0.5724597
VF4930	0.62389845
VF4940	0.63516742
VF4950	0.57850152
VF4960	0.63020587
VF4970	0.64086473
VF4980	0.64086473
VF5010	0.59895182
VF5020	0.60229838
VF5030	0.60229838
VF5040	0.59214801
VF5050	0.59214801
VF5060	0.60229838
VF5530	0.54317009
VF5570	0.56143767
VF5600	0.61453587
VF5620	0.5724597
VF5630	0.60678333
VF5750	0.59895182
VF5760	0.59214801
VF5770	0.59214801
VF5780	0.60229838
VF5790	0.65139109
VF5800	0.61609143
VF5810	0.61287051
VF5830	0.60229838
VF5870	0.58223563
VF4180	0.43458708
VF4020	0.5784803
VF4030	0.5756613
VF4040	0.59723294
VF4050	0.59469461
VF4060	0.5756613
VF4380	0.61546421
VF4390	0.61546421
VF4400	0.61546421
VF4410	0.61546421
VF4420	0.61546421
VF4430	0.61546421
VF4440	0.61546421
VF4450	0.61546421
VF4460	0.61546421
VF4470	0.61546421
VF4480	0.61546421
VF4490	0.61546421
VF4500	0.61546421
VF4510	0.61546421
VF4520	0.61546421
VF4530	0.61546421
VF4540	0.61546421
VF4550	0.61546421
VF4560	0.61546421
VF4570	0.61546421
VF4580	0.61546421
VF4590	0.62108195
VF4600	0.62108195
VF4670	0.60819465
VF4680	0.60882777
VF4690	0.60882777
VF4700	0.60867953
VF4710	0.64598584
VF4720	0.625687
VF4730	0.61286205
VF4740	0.62009382
VF4750	0.62750083
VF4990	0.4922792
VF5000	0.4922792
VF5280	0.58441019
VF5290	0.59205979
VF5340	0.53959852
VF5350	0.53959852
VF5360	0.54905742
VF5370	0.53959852
VF5380	0.54374415
VF5390	0.53443038
VF5400	0.50835109
VF5410	0.50835109
VF5590	0.60581619
VF5610	0.64901066
VF5820	0.525365
VF5840	0.54374415
VF5850	0.54905742
VF5860	0.54374415
GH4090	0.3914713
VF5100	0.39890839
CC4050	0.31518593
CC4130	0.34319337
VF5880	0.37946129
