Scenario 561	
ID	PGA_Soil_g
H5000	0.185398066
H5140	0.148965473
H5130	0.148965473
H5120	0.148965473
H5110	0.148965473
H5100	0.148965473
H5090	0.148965473
H5080	0.148621559
H5070	0.148621559
H5060	0.148621559
H5050	0.14417941
H5040	0.14417941
H5030	0.14417941
H5020	0.14417941
H5010	0.14417941
H5180	0.162995689
H5170	0.162995689
H5160	0.166917977
H5150	0.16702265
H5220	0.14417941
H5230	0.162995689
CC5000	0.313024494
CC5010	0.313024494
CC5020	0.313024494
CC5040	0.313024494
CC5240	0.313024494
CC5050	0.250681201
CC5060	0.250681201
CC5070	0.250681201
CC5080	0.250681201
CC5090	0.250681201
CC5100	0.250681201
CC5110	0.250681201
CC5120	0.249874356
CC5140	0.296717864
CC5150	0.296717864
CC5160	0.296717864
CC5170	0.296717864
CC5180	0.297451401
CC5190	0.297451401
CC5230	0.250681201
CC5250	0.297451401
CC5260	0.297451401
CC5270	0.297451401
SM5460	0.370226379
SM5470	0.370226379
SM5480	0.370226379
SM5530	0.370226379
SY5000	0.358706057
SY5010	0.358706057
SY5020	0.358706057
SY5030	0.358706057
SY5080	0.329225066
SY5090	0.329225066
SY5100	0.329225066
SY5110	0.358706057
SM5300	0.381618409
SM5310	0.381618409
SM5320	0.381618409
MW5110	0.310785504
MW5120	0.307777734
MW5130	0.307777734
MW5240	0.305103506
MW5250	0.305103506
MW5260	0.305103506
MW5270	0.305103506
MW5280	0.305103506
HH5070	0.402489093
HH5080	0.402489093
HH5090	0.402489093
HH5140	0.402489093
SM5350	0.410944104
SM5360	0.410944104
SM5370	0.410944104
SM5380	0.410944104
SM5420	0.382540077
SM5430	0.382540077
SM5440	0.382540077
SY5040	0.364323118
SY5050	0.364323118
SY5060	0.364323118
SY5070	0.364323118
SM5080	0.456178784
SM5090	0.456178784
SM5100	0.456178784
SM5110	0.456178784
SM5120	0.456178784
SM5130	0.456178784
SM5140	0.456178784
SM5190	0.440913618
SM5200	0.440913618
SM5210	0.440913618
SM5220	0.440913618
CC5200	0.370765282
CC5210	0.370765282
CC5220	0.370765282
MW5000	0.370765282
MW5010	0.370765282
MW5020	0.370765282
MW5030	0.344646937
MW5040	0.344646937
MW5050	0.334971796
MW5060	0.334971796
MW5140	0.393765911
MW5150	0.393765911
MW5160	0.393765911
HP5180	0.394629
HP5190	0.393765911
HP5200	0.393765911
MW5070	0.322097164
MW5080	0.322097164
MW5090	0.322097164
MW5100	0.322097164
MW5190	0.367399397
MW5200	0.363634339
HP5140	0.313647288
HP5150	0.310912128
HP5160	0.313647288
HP5170	0.313647288
HH5000	0.459301619
HH5010	0.459301619
HH5020	0.459301619
HH5030	0.459301619
HH5040	0.459301619
HH5050	0.459301619
HH5060	0.459301619
HH5130	0.460052967
HH5150	0.460052967
MW5170	0.385293049
MW5180	0.383338809
CC5280	0.383338809
CC5290	0.383338809
SM5230	0.353218317
SM5240	0.353218317
SM5250	0.353218317
SM5330	0.352655292
SM5340	0.352655292
HH5100	0.42628564
HH5110	0.42628564
HH5120	0.427054805
SM5000	0.482253462
SM5010	0.482253462
SM5020	0.482253462
SM5490	0.482253462
SM5260	0.396347076
SM5270	0.395882338
SM5280	0.395882338
SM5290	0.395882338
SM5450	0.395882338
MW5210	0.349251881
MW5220	0.349251881
MW5230	0.349251881
HP5050	0.349251881
HP5060	0.349251881
HP5000	0.313536793
HP5010	0.313536793
SM5070	0.473206908
SM5150	0.472499698
SM5160	0.472499698
SM5170	0.472499698
SM5180	0.472499698
SM5390	0.490827441
SM5400	0.490827441
SM5410	0.490827441
EH5350	0.490827441
EH5360	0.490827441
EH5370	0.490827441
SM5030	0.480810344
SM5040	0.480810344
SM5050	0.480810344
SM5060	0.480810344
EH5000	0.538711011
EH5010	0.538711011
EH5020	0.538711011
EH5030	0.538711011
EH5040	0.538711011
EH5050	0.538711011
EH5060	0.538711011
EH5210	0.528517425
SM5500	0.480810344
SM5510	0.480810344
EH5070	0.54714638
EH5080	0.54714638
EH5090	0.54714638
EH5100	0.54714638
EH5110	0.54714638
EH5120	0.54714638
EH5130	0.54714638
EH5140	0.54714638
EH5520	0.54714638
HP5090	0.30122031
HP5100	0.30122031
HP5110	0.30122031
HP5120	0.30122031
HP5130	0.30122031
EH5150	0.558380544
EH5160	0.558380544
EH5180	0.558380544
EH5220	0.527882457
EH5230	0.527882457
EH5240	0.517956316
EH5250	0.517956316
HP5070	0.295131701
HP5080	0.295131701
GH5000	0.668639898
GH5010	0.668639898
GH5020	0.668639898
GH5030	0.668639898
GH5040	0.668639898
HP5020	0.332122743
HP5030	0.332122743
HP5040	0.332122743
HP5210	0.332122743
GH5050	0.668691278
GH5060	0.668691278
GH5070	0.744660199
GH5090	0.744660199
GH5100	0.744660199
GH5110	0.744660199
GH5180	0.744660199
ST5060	0.485345771
ST5070	0.486080984
ST5080	0.486080984
ST5090	0.486080984
ST5000	0.614626944
ST5010	0.614626944
ST5020	0.614626944
ST5030	0.614626944
FH5160	0.724539042
FH5170	0.724539042
FH5180	0.724539042
EH5310	0.613727212
EH5320	0.613727212
EH5330	0.613727212
EH5340	0.613727212
EH5280	0.591873705
EH5290	0.591873705
EH5300	0.591873705
VF7830	0.539721429
VF7840	0.543490827
VF5930	0.541984677
VF5940	0.541984677
VF5950	0.541984677
ST5100	0.53259933
ST5110	0.53259933
ST5120	0.53259933
ST5130	0.53259933
ST5140	0.53259933
ST5150	0.53259933
ST5160	0.494296938
ST5170	0.494296938
ST5180	0.49874565
ST5190	0.49874565
ST5200	0.462275654
ST5210	0.462275654
ST5220	0.462275654
ST5230	0.462275654
ST5240	0.527103186
ST5250	0.53259933
ST5260	0.527103186
ST5270	0.535383999
ST5280	0.535383999
ST5320	0.53259933
ST5330	0.49874565
VF7940	0.754962713
VF7950	0.754962713
VF7960	0.753602833
VF7970	0.753799498
VF7980	0.753799498
VF7990	0.75164628
VF8000	0.75102224
VF9000	0.749774158
VF9010	0.749774158
VF9020	0.749774158
VF9030	0.74713555
VF9040	0.753799498
VF9050	0.753799498
VF9060	0.753799498
VF9070	0.753799498
VF9080	0.753799498
VF9090	0.753799498
VF9100	0.753799498
VF9110	0.753799498
FH5120	0.555894911
FH5130	0.555894911
ST5040	0.46384725
ST5050	0.46384725
VF5000	0.52533406
VF5960	0.52533406
VF5970	0.52529788
VF5980	0.52529788
VF9120	0.52529788
VF9130	0.52529788
VF5060	0.662875712
VF5071	0.649433434
VF5080	0.659530282
VF5090	0.482463807
VF5100	0.495355994
VF5120	0.495355994
VF5130	0.495355994
VF5170	0.488735798
VF5190	0.488735798
VF5200	0.483301696
VF5210	0.483301696
VF5220	0.471487454
VF5240	0.465164223
VF5900	0.713559866
VF5910	0.713363349
VF5920	0.713363349
VF7260	0.65552032
VF7270	0.668561101
VF7280	0.678722441
VF7290	0.681269407
VF7300	0.687227577
VF7310	0.702458918
VF7370	0.759662569
VF7380	0.759662569
VF7390	0.759540141
VF7400	0.756733358
VF7410	0.752964616
VF7420	0.752977252
VF7430	0.752977252
VF7440	0.75064826
VF7450	0.748355865
VF7460	0.748355865
VF7470	0.748355865
VF7480	0.745596021
VF7490	0.742802858
VF7500	0.742802858
VF7510	0.736402482
VF7520	0.713559866
VF7530	0.713559866
VF7540	0.708263755
VF7550	0.705485284
VF7560	0.721743703
VF7570	0.685281456
VF7580	0.681962311
VF7590	0.681962311
VF7620	0.720804572
VF7630	0.712893844
VF7640	0.71200943
VF7650	0.712893844
VF7660	0.712893844
VF7670	0.71200943
VF7930	0.756519258
VF9140	0.720804572
VF9150	0.712893844
VF9160	0.712893844
VF9170	0.71200943
VF9180	0.678365946
VF9190	0.704173326
VF9200	0.710491478
VF9220	0.71200943
VF7800	0.496651977
VF7790	0.496651977
VF7780	0.496651977
VF7770	0.496651977
VF7750	0.496651977
VF7740	0.503030548
VF7730	0.501423284
VF7720	0.503030548
VF7710	0.501423284
VF7700	0.503030548
VF7690	0.501423284
VF7680	0.506223083
ST5300	0.506223083
ST5310	0.501434281
VF5010	0.661780119
VF5020	0.673932552
VF5030	0.658011198
VF5040	0.670856655
VF5050	0.673932552
VF5990	0.486717761
VF7000	0.486717761
VF7010	0.486717761
VF7020	0.486717761
VF7030	0.486717761
VF7040	0.486717761
VF7050	0.486717761
VF7060	0.486717761
VF7070	0.486717761
VF7080	0.486717761
VF7090	0.486717761
VF7100	0.486717761
VF7110	0.486717761
VF7120	0.486717761
VF7130	0.486717761
VF7140	0.486717761
VF7150	0.486717761
VF7160	0.486717761
VF7170	0.486717761
VF7180	0.486717761
VF7190	0.486717761
VF7200	0.481130511
VF7210	0.481130511
VF7220	0.614614069
VF7230	0.628496408
VF7240	0.639054179
VF7250	0.642155588
VF7320	0.538466811
VF7330	0.543967068
VF7340	0.549190223
VF7350	0.560843229
VF7360	0.561620533
VF7600	0.711843669
VF7610	0.711843669
VF7810	0.566646755
VF7820	0.562920272
VF7850	0.721308231
VF7860	0.721308231
VF7870	0.721559405
VF7880	0.721308231
VF7890	0.713182867
VF7900	0.712884128
VF7910	0.712128282
VF7920	0.712128282
VF9210	0.712577879
VF9230	0.713182867
VF9240	0.721559405
VF9250	0.713182867
GH5130	0.452391535
GH5140	0.452391535
GH5150	0.452391535
GH5160	0.452391535
GH5170	0.452391535
FH5090	0.465756342
FH5100	0.465756342
FH5110	0.465756342
FH5190	0.465756342
FH5140	0.449889041
FH5150	0.449889041
FH5040	0.462726283
FH5050	0.462726283
FH5060	0.462726283
FH5070	0.462726283
FH5080	0.462726283
