Scenario 561	
ID	PGA_Soil_g
H4000	0.185398066
H4180	0.199970031
H4060	0.159327151
H4130	0.191825882
H4080	0.166813304
H4070	0.16702265
CC4360	0.201174057
H4140	0.1939928
CC4060	0.250681201
CC4070	0.250681201
CC4080	0.250681201
CC4090	0.250681201
CC4100	0.250681201
CC4110	0.249874356
CC4140	0.296717864
CC4150	0.297451401
CC4160	0.297451401
CC4370	0.250681201
CC4380	0.247983855
CC4460	0.297451401
CC4470	0.297451401
CC4480	0.297451401
MW4210	0.371247944
MW4220	0.367399397
MW4190	0.387247288
MW4200	0.383338809
CC4760	0.387247288
HP4110	0.281834185
GH4010	0.668639898
GH4040	0.753691971
GH4050	0.753691971
VF5300	0.539721429
VF5310	0.543490827
VF4150	0.491006404
ST4090	0.527103186
ST4100	0.53259933
ST4110	0.53259933
ST4120	0.535383999
ST4130	0.535383999
VF5420	0.744496942
VF5430	0.749774158
VF5440	0.749774158
VF5450	0.749774158
VF5460	0.749774158
VF5470	0.749493062
VF5480	0.753799498
VF5490	0.753799498
VF5500	0.753799498
VF5510	0.753406167
VF5520	0.753406167
VF5580	0.753799498
VF4000	0.52533406
VF4280	0.52533406
VF4290	0.52529788
VF4300	0.52529788
VF5690	0.52529788
VF5700	0.52529788
VF4010	0.535878122
GH4140	0.649197519
VF4070	0.662875712
VF4080	0.649433434
VF4090	0.659530282
VF4100	0.488845289
VF4110	0.495355994
VF4120	0.495355994
VF4130	0.495355994
VF4200	0.488735798
VF4210	0.488735798
VF4220	0.483301696
VF4230	0.483301696
VF4250	0.471487454
VF4260	0.465164223
VF4610	0.702458918
VF4620	0.693627238
VF4630	0.681269407
VF4640	0.678722441
VF4650	0.668561101
VF4660	0.65552032
VF4760	0.759662569
VF4770	0.759662569
VF4780	0.759417713
VF4790	0.756733358
VF4800	0.752977252
VF4810	0.752977252
VF4820	0.752977252
VF4830	0.752977252
VF4840	0.748355865
VF4850	0.748355865
VF4860	0.748355865
VF4870	0.742836177
VF4880	0.742802858
VF4890	0.742802858
VF4900	0.736496329
VF4910	0.713559866
VF4920	0.713559866
VF4930	0.708263755
VF4940	0.705485284
VF4950	0.721743703
VF4960	0.685281456
VF4970	0.681962311
VF4980	0.681962311
VF5010	0.720804572
VF5020	0.71200943
VF5030	0.71200943
VF5040	0.712893844
VF5050	0.712893844
VF5060	0.71200943
VF5530	0.756519258
VF5570	0.759662569
VF5600	0.665886879
VF5620	0.713559866
VF5630	0.65552032
VF5750	0.720804572
VF5760	0.712893844
VF5770	0.712893844
VF5780	0.71200943
VF5790	0.678365946
VF5800	0.700082898
VF5810	0.710491478
VF5830	0.71200943
VF5870	0.713363349
VF4180	0.506095588
VF4020	0.661780119
VF4030	0.673932552
VF4040	0.658011198
VF4050	0.670856655
VF4060	0.673932552
VF4380	0.486717761
VF4390	0.486717761
VF4400	0.486717761
VF4410	0.486717761
VF4420	0.486717761
VF4430	0.486717761
VF4440	0.486717761
VF4450	0.486717761
VF4460	0.486717761
VF4470	0.486717761
VF4480	0.486717761
VF4490	0.486717761
VF4500	0.486717761
VF4510	0.486717761
VF4520	0.486717761
VF4530	0.486717761
VF4540	0.486717761
VF4550	0.486717761
VF4560	0.486717761
VF4570	0.486717761
VF4580	0.486717761
VF4590	0.481130511
VF4600	0.481130511
VF4670	0.642155588
VF4680	0.628496408
VF4690	0.628496408
VF4700	0.614614069
VF4710	0.561620533
VF4720	0.558264375
VF4730	0.549190223
VF4740	0.543967068
VF4750	0.538466811
VF4990	0.711843669
VF5000	0.711843669
VF5280	0.566646755
VF5290	0.562920272
VF5340	0.721308231
VF5350	0.721308231
VF5360	0.721559405
VF5370	0.721308231
VF5380	0.713182867
VF5390	0.712884128
VF5400	0.712128282
VF5410	0.712128282
VF5590	0.554110706
VF5610	0.47607708
VF5820	0.712577879
VF5840	0.713182867
VF5850	0.721559405
VF5860	0.713182867
GH4090	0.477934748
VF5100	0.47802189
CC4050	0.250681201
CC4130	0.296717864
VF5880	0.49664548
