Scenario 561	
ID	PGA_Soil_g
H4050	0.150327373
H4040	0.150327373
H4030	0.147030161
H4020	0.144083498
H4090	0.162995689
H4010	0.161157425
H4160	0.161157425
CC4040	0.309355743
SY4010	0.339342247
WS4010	0.38783458
SM4030	0.39032957
SM4040	0.433201879
SM4090	0.410984576
SM4100	0.410984576
SM4230	0.41067028
SM4050	0.433096588
VF4140	0.456178784
SM4070	0.453944206
SM4080	0.453944206
SM4160	0.44728139
HH4000	0.383497834
EH4010	0.470576555
SY4040	0.375641197
SY4050	0.369889989
SY4060	0.343491149
SM4060	0.35278821
SM4110	0.376272142
SM4120	0.376272142
SM4150	0.396347076
SM4220	0.35838443
SM4280	0.388654292
HH4010	0.460052967
HH4050	0.453440796
HH4060	0.429000838
HH4090	0.456786051
MW4070	0.334971796
MW4080	0.344646937
SM4000	0.472335726
SM4010	0.463686854
SM4020	0.445578195
SM4140	0.462900609
EH4000	0.480810344
EH4040	0.472249627
EH4080	0.53825295
CC4750	0.389992559
HH4170	0.388981564
HH4180	0.467048532
HH4190	0.467048532
MW4000	0.313647288
HP4040	0.2900966
HP4140	0.313536793
HP4150	0.313536793
MW4130	0.322097164
MW4140	0.322097164
MW4150	0.30122031
HP4010	0.334864831
HP4020	0.373148775
HP4050	0.32026954
HP4070	0.288802385
GH4000	0.668639898
GH4070	0.689155221
GH4080	0.689155221
EH4050	0.517050445
EH4060	0.558380544
EH4070	0.558380544
ST4020	0.476003021
ST4040	0.493394941
ST4060	0.58818233
VF4270	0.713363349
VF5540	0.753799498
ST4010	0.462275654
ST4030	0.50542444
ST4050	0.494296938
ST4080	0.481712759
VF5070	0.496651977
GH4060	0.755165875
ST4070	0.439479232
GH4020	0.507693648
FH4030	0.457565171
FH4040	0.457564169
FH4010	0.454716817
FH4020	0.454716817
SY4000	0.334071606
CC4250	0.396359921
SY4030	0.364125833
CC4220	0.377302691
CC4230	0.361122701
CC4240	0.310703626
HH4110	0.456766129
MW4100	0.309718733
WS4020	0.437736654
WS4030	0.461493216
VF5550	0.528517425
CC4280	0.30573298
HP4030	0.29993553
HP4060	0.288802385
FH4000	0.607154071
GH4150	0.614081919
FH4050	0.465775524
VF4010	0.00001
VF4180	0.00001
HH8000	0.00001
HH8010	0.00001
