Scenario 399	
ID	PGA_Soil_g
H5000	0.315041721
H5140	0.288794126
H5130	0.288794126
H5120	0.288794126
H5110	0.288794126
H5100	0.288794126
H5090	0.288794126
H5080	0.277874134
H5070	0.277874134
H5060	0.277874134
H5050	0.267312787
H5040	0.267312787
H5030	0.267312787
H5020	0.267312787
H5010	0.267312787
H5180	0.288009909
H5170	0.288009909
H5160	0.337319851
H5150	0.335503536
H5220	0.267312787
H5230	0.288009909
CC5000	0.676100492
CC5010	0.676100492
CC5020	0.676100492
CC5040	0.676100492
CC5240	0.676100492
CC5050	0.717729986
CC5060	0.717729986
CC5070	0.717729986
CC5080	0.717729986
CC5090	0.717729986
CC5100	0.717729986
CC5110	0.717729986
CC5120	0.726122618
CC5140	0.725637674
CC5150	0.725637674
CC5160	0.725637674
CC5170	0.725637674
CC5180	0.716089427
CC5190	0.716089427
CC5230	0.717729986
CC5250	0.716089427
CC5260	0.716089427
CC5270	0.716089427
SM5460	0.382383084
SM5470	0.382383084
SM5480	0.382383084
SM5530	0.382383084
SY5000	0.296080238
SY5010	0.296080238
SY5020	0.296080238
SY5030	0.296080238
SY5080	0.295762372
SY5090	0.295762372
SY5100	0.295762372
SY5110	0.296080238
SM5300	0.410696232
SM5310	0.410696232
SM5320	0.410696232
MW5110	0.830519736
MW5120	0.826669157
MW5130	0.826669157
MW5240	0.872694433
MW5250	0.872694433
MW5260	0.872694433
MW5270	0.872694433
MW5280	0.872694433
HH5070	0.820819497
HH5080	0.820819497
HH5090	0.820819497
HH5140	0.820819497
SM5350	0.591885448
SM5360	0.591885448
SM5370	0.591885448
SM5380	0.591885448
SM5420	0.686136007
SM5430	0.686136007
SM5440	0.686136007
SY5040	0.289423209
SY5050	0.289423209
SY5060	0.289423209
SY5070	0.289423209
SM5080	0.573801756
SM5090	0.573801756
SM5100	0.573801756
SM5110	0.573801756
SM5120	0.573801756
SM5130	0.573801756
SM5140	0.573801756
SM5190	0.564030349
SM5200	0.564030349
SM5210	0.564030349
SM5220	0.564030349
CC5200	0.852141619
CC5210	0.852141619
CC5220	0.852141619
MW5000	0.852141619
MW5010	0.852141619
MW5020	0.852141619
MW5030	0.873925805
MW5040	0.873925805
MW5050	0.872334599
MW5060	0.872334599
MW5140	0.842675745
MW5150	0.842675745
MW5160	0.842675745
HP5180	0.836779416
HP5190	0.842675745
HP5200	0.842675745
MW5070	0.821152866
MW5080	0.821152866
MW5090	0.821152866
MW5100	0.821152866
MW5190	0.836712599
MW5200	0.842335939
HP5140	0.838845909
HP5150	0.835720539
HP5160	0.838845909
HP5170	0.838845909
HH5000	0.679406583
HH5010	0.679406583
HH5020	0.679406583
HH5030	0.679406583
HH5040	0.679406583
HH5050	0.679406583
HH5060	0.679406583
HH5130	0.647423208
HH5150	0.647423208
MW5170	0.844516516
MW5180	0.843911111
CC5280	0.843911111
CC5290	0.843911111
SM5230	0.445362657
SM5240	0.445362657
SM5250	0.445362657
SM5330	0.366380453
SM5340	0.366380453
HH5100	0.735708028
HH5110	0.735708028
HH5120	0.733493829
SM5000	0.479216963
SM5010	0.479216963
SM5020	0.479216963
SM5490	0.479216963
SM5260	0.50829196
SM5270	0.431183428
SM5280	0.431183428
SM5290	0.431183428
SM5450	0.431183428
MW5210	0.794315219
MW5220	0.794315219
MW5230	0.794315219
HP5050	0.794315219
HP5060	0.794315219
HP5000	0.790429592
HP5010	0.790429592
SM5070	0.451243132
SM5150	0.408532172
SM5160	0.408532172
SM5170	0.408532172
SM5180	0.408532172
SM5390	0.407318839
SM5400	0.407318839
SM5410	0.407318839
EH5350	0.407318839
EH5360	0.407318839
EH5370	0.407318839
SM5030	0.372790557
SM5040	0.372790557
SM5050	0.372790557
SM5060	0.372790557
EH5000	0.319779372
EH5010	0.319779372
EH5020	0.319779372
EH5030	0.319779372
EH5040	0.319779372
EH5050	0.319779372
EH5060	0.319779372
EH5210	0.317263141
SM5500	0.372790557
SM5510	0.372790557
EH5070	0.25684022
EH5080	0.25684022
EH5090	0.25684022
EH5100	0.25684022
EH5110	0.25684022
EH5120	0.25684022
EH5130	0.25684022
EH5140	0.25684022
EH5520	0.25684022
HP5090	0.75427407
HP5100	0.75427407
HP5110	0.75427407
HP5120	0.75427407
HP5130	0.75427407
EH5150	0.288029745
EH5160	0.288029745
EH5180	0.288029745
EH5220	0.31192735
EH5230	0.31192735
EH5240	0.313599499
EH5250	0.313599499
HP5070	0.769006371
HP5080	0.769006371
GH5000	0.212970066
GH5010	0.212970066
GH5020	0.212970066
GH5030	0.212970066
GH5040	0.212970066
HP5020	0.720400035
HP5030	0.720400035
HP5040	0.720400035
HP5210	0.720400035
GH5050	0.21646951
GH5060	0.21646951
GH5070	0.211105539
GH5090	0.211105539
GH5100	0.211105539
GH5110	0.211105539
GH5180	0.211105539
ST5060	0.441859176
ST5070	0.443660835
ST5080	0.443660835
ST5090	0.443660835
ST5000	0.376081073
ST5010	0.376081073
ST5020	0.376081073
ST5030	0.376081073
FH5160	0.366135728
FH5170	0.366135728
FH5180	0.366135728
EH5310	0.288785189
EH5320	0.288785189
EH5330	0.288785189
EH5340	0.288785189
EH5280	0.328278375
EH5290	0.328278375
EH5300	0.328278375
VF7830	0.55185914
VF7840	0.545497656
VF5930	0.481691778
VF5940	0.481691778
VF5950	0.481691778
ST5100	0.398794842
ST5110	0.398794842
ST5120	0.398794842
ST5130	0.398794842
ST5140	0.398794842
ST5150	0.398794842
ST5160	0.408130722
ST5170	0.408130722
ST5180	0.41385777
ST5190	0.41385777
ST5200	0.437066026
ST5210	0.437066026
ST5220	0.437066026
ST5230	0.437066026
ST5240	0.393200755
ST5250	0.398794842
ST5260	0.393200755
ST5270	0.389404795
ST5280	0.389404795
ST5320	0.398794842
ST5330	0.41385777
VF7940	0.36180768
VF7950	0.36180768
VF7960	0.361595213
VF7970	0.363841009
VF7980	0.363841009
VF7990	0.361404115
VF8000	0.362092745
VF9000	0.363470006
VF9010	0.363470006
VF9020	0.363470006
VF9030	0.361037689
VF9040	0.363841009
VF9050	0.363841009
VF9060	0.363841009
VF9070	0.363841009
VF9080	0.363841009
VF9090	0.363841009
VF9100	0.363841009
VF9110	0.363841009
FH5120	0.290676871
FH5130	0.290676871
ST5040	0.374632323
ST5050	0.374632323
VF5000	0.252512026
VF5960	0.252512026
VF5970	0.254345512
VF5980	0.254345512
VF9120	0.254345512
VF9130	0.254345512
VF5060	0.450626433
VF5071	0.461380929
VF5080	0.45536682
VF5090	0.616021097
VF5100	0.600819588
VF5120	0.600819588
VF5130	0.600819588
VF5170	0.648006916
VF5190	0.648006916
VF5200	0.6583606
VF5210	0.6583606
VF5220	0.674292922
VF5240	0.679382622
VF5900	0.4310545
VF5910	0.436005321
VF5920	0.436005321
VF7260	0.451701432
VF7270	0.485285762
VF7280	0.479078746
VF7290	0.473979387
VF7300	0.468399058
VF7310	0.456904101
VF7370	0.394498158
VF7380	0.394498158
VF7390	0.397080177
VF7400	0.405555439
VF7410	0.414172393
VF7420	0.416804266
VF7430	0.416804266
VF7440	0.419846749
VF7450	0.392514706
VF7460	0.392514706
VF7470	0.392514706
VF7480	0.395342611
VF7490	0.403058559
VF7500	0.403058559
VF7510	0.411226644
VF7520	0.4310545
VF7530	0.4310545
VF7540	0.455901742
VF7550	0.460859317
VF7560	0.425238711
VF7570	0.477976531
VF7580	0.483011013
VF7590	0.483011013
VF7620	0.435117012
VF7630	0.440976861
VF7640	0.445959383
VF7650	0.440976861
VF7660	0.440976861
VF7670	0.445959383
VF7930	0.364265943
VF9140	0.435117012
VF9150	0.440976861
VF9160	0.440976861
VF9170	0.445959383
VF9180	0.488038546
VF9190	0.458894511
VF9200	0.450937021
VF9220	0.445959383
VF7800	0.230215752
VF7790	0.230215752
VF7780	0.230215752
VF7770	0.230215752
VF7750	0.230215752
VF7740	0.231818342
VF7730	0.232632476
VF7720	0.231818342
VF7710	0.232632476
VF7700	0.231818342
VF7690	0.232632476
VF7680	0.231816888
ST5300	0.231816888
ST5310	0.231819069
VF5010	0.481018719
VF5020	0.469746864
VF5030	0.491570899
VF5040	0.480098742
VF5050	0.469746864
VF5990	0.617358267
VF7000	0.617358267
VF7010	0.617358267
VF7020	0.617358267
VF7030	0.617358267
VF7040	0.617358267
VF7050	0.617358267
VF7060	0.617358267
VF7070	0.617358267
VF7080	0.617358267
VF7090	0.617358267
VF7100	0.617358267
VF7110	0.617358267
VF7120	0.617358267
VF7130	0.617358267
VF7140	0.617358267
VF7150	0.617358267
VF7160	0.617358267
VF7170	0.617358267
VF7180	0.617358267
VF7190	0.617358267
VF7200	0.623616397
VF7210	0.623616397
VF7220	0.485251456
VF7230	0.473711938
VF7240	0.467496067
VF7250	0.462536007
VF7320	0.559835911
VF7330	0.553912044
VF7340	0.547886908
VF7350	0.536970466
VF7360	0.537966788
VF7600	0.385608339
VF7610	0.385608339
VF7810	0.523636997
VF7820	0.529427588
VF7850	0.405620286
VF7860	0.405620286
VF7870	0.410529998
VF7880	0.405620286
VF7890	0.416341722
VF7900	0.411451319
VF7910	0.39617573
VF7920	0.39617573
VF9210	0.406498072
VF9230	0.416341722
VF9240	0.410529998
VF9250	0.416341722
GH5130	0.259585756
GH5140	0.259585756
GH5150	0.259585756
GH5160	0.259585756
GH5170	0.259585756
FH5090	0.270837763
FH5100	0.270837763
FH5110	0.270837763
FH5190	0.270837763
FH5140	0.252636196
FH5150	0.252636196
FH5040	0.291204116
FH5050	0.291204116
FH5060	0.291204116
FH5070	0.291204116
FH5080	0.291204116
