Scenario 170	
ID	PGA_Soil_g
H5000	0.12914048
H5140	0.10469245
H5130	0.10469245
H5120	0.10469245
H5110	0.10469245
H5100	0.10469245
H5090	0.10469245
H5080	0.10403692
H5070	0.10403692
H5060	0.10403692
H5050	0.10140788
H5040	0.10140788
H5030	0.10140788
H5020	0.10140788
H5010	0.10140788
H5180	0.11289175
H5170	0.11289175
H5160	0.11629066
H5150	0.11629004
H5220	0.10140788
H5230	0.11289175
CC5000	0.19866338
CC5010	0.19866338
CC5020	0.19866338
CC5040	0.19866338
CC5240	0.19866338
CC5050	0.19249694
CC5060	0.19249694
CC5070	0.19249694
CC5080	0.19249694
CC5090	0.19249694
CC5100	0.19249694
CC5110	0.19249694
CC5120	0.19242289
CC5140	0.21410191
CC5150	0.21410191
CC5160	0.21410191
CC5170	0.21410191
CC5180	0.21395724
CC5190	0.21395724
CC5230	0.19249694
CC5250	0.21395724
CC5260	0.21395724
CC5270	0.21395724
SM5460	0.20792678
SM5470	0.20792678
SM5480	0.20792678
SM5530	0.20792678
SY5000	0.16713025
SY5010	0.16713025
SY5020	0.16713025
SY5030	0.16713025
SY5080	0.16207781
SY5090	0.16207781
SY5100	0.16207781
SY5110	0.16713025
SM5300	0.19949406
SM5310	0.19949406
SM5320	0.19949406
MW5110	0.25770219
MW5120	0.25690634
MW5130	0.25690634
MW5240	0.24096945
MW5250	0.24096945
MW5260	0.24096945
MW5270	0.24096945
MW5280	0.24096945
HH5070	0.29571457
HH5080	0.29571457
HH5090	0.29571457
HH5140	0.29571457
SM5350	0.20010886
SM5360	0.20010886
SM5370	0.20010886
SM5380	0.20010886
SM5420	0.19643041
SM5430	0.19643041
SM5440	0.19643041
SY5040	0.17106881
SY5050	0.17106881
SY5060	0.17106881
SY5070	0.17106881
SM5080	0.26109706
SM5090	0.26109706
SM5100	0.26109706
SM5110	0.26109706
SM5120	0.26109706
SM5130	0.26109706
SM5140	0.26109706
SM5190	0.25112636
SM5200	0.25112636
SM5210	0.25112636
SM5220	0.25112636
CC5200	0.27880511
CC5210	0.27880511
CC5220	0.27880511
MW5000	0.27880511
MW5010	0.27880511
MW5020	0.27880511
MW5030	0.26143838
MW5040	0.26143838
MW5050	0.25758378
MW5060	0.25758378
MW5140	0.2834737
MW5150	0.2834737
MW5160	0.2834737
HP5180	0.2870516
HP5190	0.2834737
HP5200	0.2834737
MW5070	0.26778534
MW5080	0.26778534
MW5090	0.26778534
MW5100	0.26778534
MW5190	0.28479867
MW5200	0.28117955
HP5140	0.23400501
HP5150	0.23323154
HP5160	0.23400501
HP5170	0.23400501
HH5000	0.29873452
HH5010	0.29873452
HH5020	0.29873452
HH5030	0.29873452
HH5040	0.29873452
HH5050	0.29873452
HH5060	0.29873452
HH5130	0.31086228
HH5150	0.31086228
MW5170	0.30350979
MW5180	0.30329272
CC5280	0.30329272
CC5290	0.30329272
SM5230	0.19789882
SM5240	0.19789882
SM5250	0.19789882
SM5330	0.18556727
SM5340	0.18556727
HH5100	0.28497665
HH5110	0.28497665
HH5120	0.28474825
SM5000	0.27598489
SM5010	0.27598489
SM5020	0.27598489
SM5490	0.27598489
SM5260	0.22309737
SM5270	0.2110756
SM5280	0.2110756
SM5290	0.2110756
SM5450	0.2110756
MW5210	0.29393941
MW5220	0.29393941
MW5230	0.29393941
HP5050	0.29393941
HP5060	0.29393941
HP5000	0.24485667
HP5010	0.24485667
SM5070	0.26408782
SM5150	0.25088687
SM5160	0.25088687
SM5170	0.25088687
SM5180	0.25088687
SM5390	0.25753742
SM5400	0.25753742
SM5410	0.25753742
EH5350	0.25753742
EH5360	0.25753742
EH5370	0.25753742
SM5030	0.24395365
SM5040	0.24395365
SM5050	0.24395365
SM5060	0.24395365
EH5000	0.25316116
EH5010	0.25316116
EH5020	0.25316116
EH5030	0.25316116
EH5040	0.25316116
EH5050	0.25316116
EH5060	0.25316116
EH5210	0.24925631
SM5500	0.24395365
SM5510	0.24395365
EH5070	0.22240283
EH5080	0.22240283
EH5090	0.22240283
EH5100	0.22240283
EH5110	0.22240283
EH5120	0.22240283
EH5130	0.22240283
EH5140	0.22240283
EH5520	0.22240283
HP5090	0.27311855
HP5100	0.27311855
HP5110	0.27311855
HP5120	0.27311855
HP5130	0.27311855
EH5150	0.23814838
EH5160	0.23814838
EH5180	0.23814838
EH5220	0.23760299
EH5230	0.23760299
EH5240	0.23520714
EH5250	0.23520714
HP5070	0.26388324
HP5080	0.26388324
GH5000	0.22392502
GH5010	0.22392502
GH5020	0.22392502
GH5030	0.22392502
GH5040	0.22392502
HP5020	0.31333732
HP5030	0.31333732
HP5040	0.31333732
HP5210	0.31333732
GH5050	0.22645651
GH5060	0.22645651
GH5070	0.24822736
GH5090	0.24822736
GH5100	0.24822736
GH5110	0.24822736
GH5180	0.24822736
ST5060	0.49838894
ST5070	0.49459426
ST5080	0.49459426
ST5090	0.49459426
ST5000	0.49581972
ST5010	0.49581972
ST5020	0.49581972
ST5030	0.49581972
FH5160	0.41136071
FH5170	0.41136071
FH5180	0.41136071
EH5310	0.26333945
EH5320	0.26333945
EH5330	0.26333945
EH5340	0.26333945
EH5280	0.27377515
EH5290	0.27377515
EH5300	0.27377515
VF7830	0.31657408
VF7840	0.31500635
VF5930	0.3309642
VF5940	0.3309642
VF5950	0.3309642
ST5100	0.55852014
ST5110	0.55852014
ST5120	0.55852014
ST5130	0.55852014
ST5140	0.55852014
ST5150	0.55852014
ST5160	0.58776152
ST5170	0.58776152
ST5180	0.57375693
ST5190	0.57375693
ST5200	0.56529349
ST5210	0.56529349
ST5220	0.56529349
ST5230	0.56529349
ST5240	0.57121646
ST5250	0.55852014
ST5260	0.57121646
ST5270	0.56576884
ST5280	0.56576884
ST5320	0.55852014
ST5330	0.57375693
VF7940	0.39125837
VF7950	0.39125837
VF7960	0.39563958
VF7970	0.39671491
VF7980	0.39671491
VF7990	0.40014923
VF8000	0.40205581
VF9000	0.40586897
VF9010	0.40586897
VF9020	0.40586897
VF9030	0.40942022
VF9040	0.39671491
VF9050	0.39671491
VF9060	0.39671491
VF9070	0.39671491
VF9080	0.39671491
VF9090	0.39671491
VF9100	0.39671491
VF9110	0.39671491
FH5120	0.52302176
FH5130	0.52302176
ST5040	0.67909229
ST5050	0.67909229
VF5000	0.47138605
VF5960	0.47138605
VF5970	0.47588125
VF5980	0.47588125
VF9120	0.47588125
VF9130	0.47588125
VF5060	0.35167776
VF5071	0.34931113
VF5080	0.35438544
VF5090	0.33538814
VF5100	0.33986174
VF5120	0.33986174
VF5130	0.33986174
VF5170	0.33808318
VF5190	0.33808318
VF5200	0.33284168
VF5210	0.33284168
VF5220	0.32788596
VF5240	0.32793778
VF5900	0.34683112
VF5910	0.35001068
VF5920	0.35001068
VF7260	0.34406812
VF7270	0.34618928
VF7280	0.35107241
VF7290	0.34822301
VF7300	0.34921846
VF7310	0.35494401
VF7370	0.37560593
VF7380	0.37560593
VF7390	0.3768379
VF7400	0.37227345
VF7410	0.36790617
VF7420	0.36918204
VF7430	0.36918204
VF7440	0.36642471
VF7450	0.36636529
VF7460	0.36636529
VF7470	0.36636529
VF7480	0.36368068
VF7490	0.36385553
VF7500	0.36385553
VF7510	0.36015031
VF7520	0.34683112
VF7530	0.34683112
VF7540	0.36289462
VF7550	0.36606442
VF7560	0.3516538
VF7570	0.35895277
VF7580	0.36188904
VF7590	0.36188904
VF7620	0.3580488
VF7630	0.35323877
VF7640	0.35648829
VF7650	0.35323877
VF7660	0.35323877
VF7670	0.35648829
VF7930	0.38795249
VF9140	0.3580488
VF9150	0.35323877
VF9160	0.35323877
VF9170	0.35648829
VF9180	0.36481991
VF9190	0.36043974
VF9200	0.35971287
VF9220	0.35648829
VF7800	0.45586085
VF7790	0.45586085
VF7780	0.45586085
VF7770	0.45586085
VF7750	0.45586085
VF7740	0.45137194
VF7730	0.45569396
VF7720	0.45137194
VF7710	0.45569396
VF7700	0.45137194
VF7690	0.45569396
VF7680	0.44694558
ST5300	0.44694558
ST5310	0.45358512
VF5010	0.33593405
VF5020	0.3376717
VF5030	0.34139657
VF5040	0.34340415
VF5050	0.3376717
VF5990	0.322909
VF7000	0.322909
VF7010	0.322909
VF7020	0.322909
VF7030	0.322909
VF7040	0.322909
VF7050	0.322909
VF7060	0.322909
VF7070	0.322909
VF7080	0.322909
VF7090	0.322909
VF7100	0.322909
VF7110	0.322909
VF7120	0.322909
VF7130	0.322909
VF7140	0.322909
VF7150	0.322909
VF7160	0.322909
VF7170	0.322909
VF7180	0.322909
VF7190	0.322909
VF7200	0.32377117
VF7210	0.32377117
VF7220	0.33697815
VF7230	0.33947375
VF7240	0.34433942
VF7250	0.34183488
VF7320	0.33191754
VF7330	0.33048141
VF7340	0.32897319
VF7350	0.3330449
VF7360	0.34053172
VF7600	0.32503363
VF7610	0.32503363
VF7810	0.32228733
VF7820	0.32405051
VF7850	0.33995755
VF7860	0.33995755
VF7870	0.34268106
VF7880	0.33995755
VF7890	0.33771096
VF7900	0.33488767
VF7910	0.32824595
VF7920	0.32824595
VF9210	0.33230217
VF9230	0.33771096
VF9240	0.34268106
VF9250	0.33771096
GH5130	0.50482976
GH5140	0.50482976
GH5150	0.50482976
GH5160	0.50482976
GH5170	0.50482976
FH5090	0.62196851
FH5100	0.62196851
FH5110	0.62196851
FH5190	0.62196851
FH5140	0.5988152
FH5150	0.5988152
FH5040	0.68750578
FH5050	0.68750578
FH5060	0.68750578
FH5070	0.68750578
FH5080	0.68750578
