Scenario 145	
ID	PGA_Soil_g
H5000	0.19510777
H5140	0.17991231
H5130	0.17991231
H5120	0.17991231
H5110	0.17991231
H5100	0.17991231
H5090	0.17991231
H5080	0.17819548
H5070	0.17819548
H5060	0.17819548
H5050	0.18239221
H5040	0.18239221
H5030	0.18239221
H5020	0.18239221
H5010	0.18239221
H5180	0.16865696
H5170	0.16865696
H5160	0.16864961
H5150	0.16845729
H5220	0.18239221
H5230	0.16865696
CC5000	0.12240873
CC5010	0.12240873
CC5020	0.12240873
CC5040	0.12240873
CC5240	0.12240873
CC5050	0.15784106
CC5060	0.15784106
CC5070	0.15784106
CC5080	0.15784106
CC5090	0.15784106
CC5100	0.15784106
CC5110	0.15784106
CC5120	0.15807277
CC5140	0.14755496
CC5150	0.14755496
CC5160	0.14755496
CC5170	0.14755496
CC5180	0.14733489
CC5190	0.14733489
CC5230	0.15784106
CC5250	0.14733489
CC5260	0.14733489
CC5270	0.14733489
SM5460	0.10793087
SM5470	0.10793087
SM5480	0.10793087
SM5530	0.10793087
SY5000	0.08920729
SY5010	0.08920729
SY5020	0.08920729
SY5030	0.08920729
SY5080	0.09132254
SY5090	0.09132254
SY5100	0.09132254
SY5110	0.08920729
SM5300	0.10802386
SM5310	0.10802386
SM5320	0.10802386
MW5110	0.11691716
MW5120	0.11702356
MW5130	0.11702356
MW5240	0.11901734
MW5250	0.11901734
MW5260	0.11901734
MW5270	0.11901734
MW5280	0.11901734
HH5070	0.12834295
HH5080	0.12834295
HH5090	0.12834295
HH5140	0.12834295
SM5350	0.07744955
SM5360	0.07744955
SM5370	0.07744955
SM5380	0.07744955
SM5420	0.07894707
SM5430	0.07894707
SM5440	0.07894707
SY5040	0.0895667
SY5050	0.0895667
SY5060	0.0895667
SY5070	0.0895667
SM5080	0.09172743
SM5090	0.09172743
SM5100	0.09172743
SM5110	0.09172743
SM5120	0.09172743
SM5130	0.09172743
SM5140	0.09172743
SM5190	0.09189908
SM5200	0.09189908
SM5210	0.09189908
SM5220	0.09189908
CC5200	0.11390527
CC5210	0.11390527
CC5220	0.11390527
MW5000	0.11390527
MW5010	0.11390527
MW5020	0.11390527
MW5030	0.11593258
MW5040	0.11593258
MW5050	0.11653659
MW5060	0.11653659
MW5140	0.11297292
MW5150	0.11297292
MW5160	0.11297292
HP5180	0.11274523
HP5190	0.11297292
HP5200	0.11297292
MW5070	0.11569698
MW5080	0.11569698
MW5090	0.11569698
MW5100	0.11569698
MW5190	0.11353987
MW5200	0.11389241
HP5140	0.12026558
HP5150	0.12037278
HP5160	0.12026558
HP5170	0.12026558
HH5000	0.10868274
HH5010	0.10868274
HH5020	0.10868274
HH5030	0.10868274
HH5040	0.10868274
HH5050	0.10868274
HH5060	0.10868274
HH5130	0.10774623
HH5150	0.10774623
MW5170	0.12997013
MW5180	0.13003465
CC5280	0.13003465
CC5290	0.13003465
SM5230	0.09270101
SM5240	0.09270101
SM5250	0.09270101
SM5330	0.09049509
SM5340	0.09049509
HH5100	0.11014687
HH5110	0.11014687
HH5120	0.11010846
SM5000	0.10481142
SM5010	0.10481142
SM5020	0.10481142
SM5490	0.10481142
SM5260	0.09222963
SM5270	0.09095756
SM5280	0.09095756
SM5290	0.09095756
SM5450	0.09095756
MW5210	0.11297782
MW5220	0.11297782
MW5230	0.11297782
HP5050	0.11297782
HP5060	0.11297782
HP5000	0.11841857
HP5010	0.11841857
SM5070	0.104422
SM5150	0.10304351
SM5160	0.10304351
SM5170	0.10304351
SM5180	0.10304351
SM5390	0.10264063
SM5400	0.10264063
SM5410	0.10264063
EH5350	0.10264063
EH5360	0.10264063
EH5370	0.10264063
SM5030	0.10137399
SM5040	0.10137399
SM5050	0.10137399
SM5060	0.10137399
EH5000	0.09902235
EH5010	0.09902235
EH5020	0.09902235
EH5030	0.09902235
EH5040	0.09902235
EH5050	0.09902235
EH5060	0.09902235
EH5210	0.09913191
SM5500	0.10137399
SM5510	0.10137399
EH5070	0.09477428
EH5080	0.09477428
EH5090	0.09477428
EH5100	0.09477428
EH5110	0.09477428
EH5120	0.09477428
EH5130	0.09477428
EH5140	0.09477428
EH5520	0.09477428
HP5090	0.11484029
HP5100	0.11484029
HP5110	0.11484029
HP5120	0.11484029
HP5130	0.11484029
EH5150	0.09621629
EH5160	0.09621629
EH5180	0.09621629
EH5220	0.09774487
EH5230	0.09774487
EH5240	0.09798213
EH5250	0.09798213
HP5070	0.11594733
HP5080	0.11594733
GH5000	0.09019932
GH5010	0.09019932
GH5020	0.09019932
GH5030	0.09019932
GH5040	0.09019932
HP5020	0.11103781
HP5030	0.11103781
HP5040	0.11103781
HP5210	0.11103781
GH5050	0.09046377
GH5060	0.09046377
GH5070	0.08884403
GH5090	0.08884403
GH5100	0.08884403
GH5110	0.08884403
GH5180	0.08884403
ST5060	0.0702256
ST5070	0.07028901
ST5080	0.07028901
ST5090	0.07028901
ST5000	0.08159819
ST5010	0.08159819
ST5020	0.08159819
ST5030	0.08159819
FH5160	0.10870295
FH5170	0.10870295
FH5180	0.10870295
EH5310	0.10790778
EH5320	0.10790778
EH5330	0.10790778
EH5340	0.10790778
EH5280	0.11025668
EH5290	0.11025668
EH5300	0.11025668
VF7830	0.11997205
VF7840	0.11983999
VF5930	0.11871322
VF5940	0.11871322
VF5950	0.11871322
ST5100	0.09602793
ST5110	0.09602793
ST5120	0.09602793
ST5130	0.09602793
ST5140	0.09602793
ST5150	0.09602793
ST5160	0.09609131
ST5170	0.09609131
ST5180	0.09634645
ST5190	0.09634645
ST5200	0.09699137
ST5210	0.09699137
ST5220	0.09699137
ST5230	0.09699137
ST5240	0.09577537
ST5250	0.09602793
ST5260	0.09577537
ST5270	0.09569523
ST5280	0.09569523
ST5320	0.09602793
ST5330	0.09634645
VF7940	0.10942563
VF7950	0.10942563
VF7960	0.10934568
VF7970	0.10940461
VF7980	0.10940461
VF7990	0.10926592
VF8000	0.10925852
VF9000	0.10924373
VF9010	0.10924373
VF9020	0.10924373
VF9030	0.10910529
VF9040	0.10940461
VF9050	0.10940461
VF9060	0.10940461
VF9070	0.10940461
VF9080	0.10940461
VF9090	0.10940461
VF9100	0.10940461
VF9110	0.10940461
FH5120	0.09146832
FH5130	0.09146832
ST5040	0.09459009
ST5050	0.09459009
VF5000	0.07632796
VF5960	0.07632796
VF5970	0.07640535
VF5980	0.07640535
VF9120	0.07640535
VF9130	0.07640535
VF5060	0.11595
VF5071	0.11639053
VF5080	0.11607481
VF5090	0.1211596
VF5100	0.12069099
VF5120	0.12069099
VF5130	0.12069099
VF5170	0.12188455
VF5190	0.12188455
VF5200	0.12223873
VF5210	0.12223873
VF5220	0.12271477
VF5240	0.12283403
VF5900	0.11371969
VF5910	0.11384487
VF5920	0.11384487
VF7260	0.11613842
VF7270	0.11569896
VF7280	0.1153878
VF7290	0.11526263
VF7300	0.11504542
VF7310	0.11452283
VF7370	0.1107681
VF7380	0.1107681
VF7390	0.11082792
VF7400	0.11117361
VF7410	0.11152143
VF7420	0.11158203
VF7430	0.11158203
VF7440	0.11172685
VF7450	0.11199337
VF7460	0.11199337
VF7470	0.11199337
VF7480	0.1121394
VF7490	0.11240762
VF7500	0.11240762
VF7510	0.11276341
VF7520	0.11371969
VF7530	0.11371969
VF7540	0.11434036
VF7550	0.1144627
VF7560	0.11341993
VF7570	0.11520177
VF7580	0.11532506
VF7590	0.11532506
VF7620	0.11366783
VF7630	0.11396962
VF7640	0.11409386
VF7650	0.11396962
VF7660	0.11396962
VF7670	0.11409386
VF7930	0.10956452
VF9140	0.11366783
VF9150	0.11396962
VF9160	0.11396962
VF9170	0.11409386
VF9180	0.11544794
VF9190	0.11449344
VF9200	0.11421746
VF9220	0.11409386
VF7800	0.07501994
VF7790	0.07501994
VF7780	0.07501994
VF7770	0.07501994
VF7750	0.07501994
VF7740	0.07516097
VF7730	0.0751845
VF7720	0.07516097
VF7710	0.0751845
VF7700	0.07516097
VF7690	0.0751845
VF7680	0.07519251
ST5300	0.07519251
ST5310	0.07514521
VF5010	0.11575639
VF5020	0.11531833
VF5030	0.11601162
VF5040	0.11557269
VF5050	0.11531833
VF5990	0.12147996
VF7000	0.12147996
VF7010	0.12147996
VF7020	0.12147996
VF7030	0.12147996
VF7040	0.12147996
VF7050	0.12147996
VF7060	0.12147996
VF7070	0.12147996
VF7080	0.12147996
VF7090	0.12147996
VF7100	0.12147996
VF7110	0.12147996
VF7120	0.12147996
VF7130	0.12147996
VF7140	0.12147996
VF7150	0.12147996
VF7160	0.12147996
VF7170	0.12147996
VF7180	0.12147996
VF7190	0.12147996
VF7200	0.12160659
VF7210	0.12160659
VF7220	0.11747558
VF7230	0.11702673
VF7240	0.11670783
VF7250	0.11658102
VF7320	0.11981624
VF7330	0.11968864
VF7340	0.11956049
VF7350	0.11916223
VF7360	0.1190194
VF7600	0.11257287
VF7610	0.11257287
VF7810	0.119042
VF7820	0.11917276
VF7850	0.112919
VF7860	0.112919
VF7870	0.11304488
VF7880	0.112919
VF7890	0.11334181
VF7900	0.11321505
VF7910	0.11283128
VF7920	0.11283128
VF9210	0.11308777
VF9230	0.11334181
VF9240	0.11304488
VF9250	0.11334181
GH5130	0.09888751
GH5140	0.09888751
GH5150	0.09888751
GH5160	0.09888751
GH5170	0.09888751
FH5090	0.08786436
FH5100	0.08786436
FH5110	0.08786436
FH5190	0.08786436
FH5140	0.08678919
FH5150	0.08678919
FH5040	0.09998636
FH5050	0.09998636
FH5060	0.09998636
FH5070	0.09998636
FH5080	0.09998636
