Scenario 145	
ID	PGA_Soil_g
H6060	0.20415025
H6050	0.20415025
CC6010	0.15345835
CC7180	0.15345835
CC7300	0.15437682
H6070	0.18175614
H6030	0.18303183
H6230	0.15762388
H6200	0.16261457
H6170	0.17447796
H6130	0.16718936
H6120	0.17099972
H6020	0.1759917
H6010	0.1759917
H6000	0.1759917
WS6220	0.12877682
WS6260	0.12718274
WS6510	0.12542786
WS6920	0.12650037
CC6070	0.15287754
CC6130	0.14457374
CC6160	0.14781089
CC6200	0.15115769
CC6540	0.14043929
WS6080	0.13062131
WS6490	0.129205
WS7010	0.13294052
WS7120	0.13294052
WS6400	0.14125959
WS6470	0.14245636
WS6620	0.14018903
WS6630	0.14018903
WS6640	0.14018903
WS6780	0.1422649
CC6640	0.12583639
CC6650	0.12259582
WS6900	0.12654893
WS6130	0.11871007
WS6310	0.11871007
WS6360	0.11776887
WS6180	0.1178194
CC7090	0.1264803
CC6460	0.13920251
CC6420	0.12040909
WS6890	0.11707756
SY6000	0.11045806
SY6030	0.10791783
SY6040	0.11045806
SY6100	0.10727077
SY6180	0.10727308
SY6200	0.10727308
SY6310	0.1076329
WS7110	0.11300881
WS7150	0.11300881
WS6010	0.11175372
WS6540	0.1094096
WS6550	0.1094096
WS6560	0.1094096
WS6590	0.1094096
MW6140	0.12472844
CC6350	0.159111
CC6390	0.15581356
CC6770	0.13794012
CC6780	0.13794012
CC7230	0.15784106
CC7240	0.15784106
CC7330	0.14755496
CC7340	0.14755496
CC7350	0.14755496
WS6250	0.14070407
WS6280	0.13066783
WS6340	0.13162901
WS6420	0.13253634
WS6660	0.1340457
WS7040	0.1352111
WS7050	0.1352111
WS7100	0.1352111
WS7070	0.1352111
WS7250	0.1352111
WS7260	0.10880471
WS6040	0.10885426
WS7160	0.10926557
SY6060	0.10825146
SY6150	0.10885426
SY6160	0.10885426
SY6170	0.10885426
SY6270	0.10817532
SY6280	0.10860915
SY6290	0.10860915
SY6320	0.10885426
SY6330	0.0921508
CC6280	0.14529167
CC6490	0.13198207
CC7290	0.13496602
WS6990	0.13127412
WS7000	0.13127412
WS6100	0.1250826
CC6790	0.11556721
CC6800	0.11556721
CC6830	0.11521862
CC6860	0.11441916
CC6990	0.11596705
CC7010	0.1158186
SY6120	0.09163312
SY6140	0.09202492
SY6240	0.09131708
WS6120	0.10964483
WS6190	0.11058682
WS6300	0.11188164
WS6450	0.10983349
WS6600	0.11015853
WS6680	0.1095294
WS6730	0.10940082
WS6810	0.11062984
WS6820	0.11125283
WS6840	0.10983349
WS7180	0.10969079
WS7190	0.10949408
WS7220	0.1095294
WS7230	0.1095294
WS7240	0.1095294
WS7270	0.1095294
WS7280	0.1095294
WS7290	0.1095294
WS7300	0.1095294
WS6690	0.10983349
CC6210	0.11684312
CC6250	0.12062918
CC6880	0.11611487
HH6200	0.11655402
HH6210	0.1169145
CC6030	0.11611487
CC6290	0.12877817
CC7220	0.12252098
MW6100	0.12413005
MW6110	0.12413005
MW6190	0.12346827
SM6150	0.10785767
MW6160	0.11696576
MW6350	0.11589173
SM6170	0.07845367
SM6340	0.07866196
CC7040	0.1197941
MW6410	0.11914641
MW6420	0.11901734
MW6430	0.11901734
CC6940	0.12881824
HH6220	0.12819606
HH6230	0.12819606
HH6240	0.12819606
HH6280	0.12892295
MW6060	0.12892295
MW6070	0.12892295
SM6130	0.09285347
SM6140	0.09285347
SM6320	0.09097424
EH6200	0.09159172
HH6130	0.07898466
HH6180	0.07870544
SM6190	0.07811136
SM6240	0.07821365
SM6270	0.0939126
CC7210	0.11425894
HH6120	0.11149273
HH6150	0.11331924
HH6160	0.11331924
HH6000	0.07986866
MW6020	0.11329865
MW6120	0.11479993
MW6210	0.11444029
MW6230	0.1157444
MW6270	0.11553626
MW6380	0.11654305
MW6050	0.1206647
MW6240	0.1193938
MW6320	0.1203894
HP6000	0.1199751
HP6010	0.1199751
HH6030	0.10929887
HH6050	0.10917691
CC7100	0.12990562
CC7110	0.12990562
CC7380	0.12997013
WS6030	0.09171096
HH6090	0.10736185
HH6100	0.10836244
HH6110	0.10836244
VF7102	0.10481142
VF7112	0.10481142
VF7122	0.10481142
VF7132	0.10481142
HH6320	0.11008285
WS7130	0.09095756
WS7170	0.09095756
CC7360	0.09256632
SM6210	0.09337668
SM6300	0.09350223
EH6230	0.09325771
HP6050	0.11287742
HP6110	0.11287742
WS6960	0.10264063
SM6000	0.10585049
SM6010	0.10585049
SM6020	0.10585049
EH6190	0.10291415
WS7210	0.104544
SM6100	0.10527382
EH6120	0.09499211
EH6130	0.09499211
EH6030	0.09499211
HP6090	0.11484029
HP6060	0.07943354
HP6070	0.11632095
VF6130	0.1063159
VF6140	0.1063159
VF6460	0.10391207
VF6470	0.10391207
VF6560	0.10122607
ST6000	0.06997297
VF6190	0.1069028
VF6200	0.1069028
FH6080	0.11064528
FH6110	0.11014138
FH6130	0.10948187
VF6010	0.1035462
GH7230	0.09900531
VF6150	0.10132799
VF6170	0.10132799
VF6640	0.10912102
VF6540	0.10476478
GH7370	0.07443364
VF6660	0.10229517
GH7160	0.10044378
VF6610	0.10667065
GH7200	0.10156946
GH7220	0.10156946
GH7250	0.10186303
ST6030	0.09430002
ST6060	0.09634645
ST6080	0.09694061
ST6100	0.09541036
ST6110	0.09541036
ST6120	0.09541036
VF6040	0.10505834
VF6830	0.10940461
VF6840	0.07640535
VF6240	0.11387026
VF6250	0.11387026
VF6260	0.11387026
VF6270	0.11371969
VF6280	0.11371969
VF6290	0.11371969
VF6300	0.11384487
VF6310	0.11384487
VF6370	0.11384487
VF6380	0.11384487
VF6390	0.11384487
VF6400	0.11384487
VF6850	0.10956452
VF6910	0.1107681
VF6940	0.11582471
VF6960	0.11376142
VF6970	0.11613842
GH7100	0.07481243
GH7120	0.07431277
VF6730	0.07476157
GH7020	0.07443364
GH7040	0.07443364
GH7310	0.07443364
GH7320	0.07443364
GH7330	0.07443364
GH7360	0.07443364
VF6000	0.1021154
VF6110	0.11283128
VF6930	0.11943182
VF6050	0.11547867
VF6060	0.11547867
VF6070	0.11547867
VF6430	0.10217732
VF6580	0.10647655
VF6590	0.10647655
GH7050	0.10194144
