Scenario 220	
ID	PGA_Soil_g
H4050	0.214139718
H4040	0.214139718
H4030	0.213821541
H4020	0.206437315
H4090	0.225135703
H4010	0.226011935
H4160	0.226011935
CC4040	0.316729741
SY4010	0.560189366
WS4010	0.348476976
SM4030	0.245412767
SM4040	0.242235109
SM4090	0.24500981
SM4100	0.24500981
SM4230	0.238357291
SM4050	0.296061981
VF4140	0.277298695
SM4070	0.267868692
SM4080	0.267868692
SM4160	0.273511595
HH4000	0.191651776
EH4010	0.447226197
SY4040	0.498086482
SY4050	0.50947994
SY4060	0.528746903
SM4060	0.375178903
SM4110	0.349995536
SM4120	0.349995536
SM4150	0.296048597
SM4220	0.372217417
SM4280	0.357413441
HH4010	0.266648228
HH4050	0.259989737
HH4060	0.265316224
HH4090	0.257163414
MW4070	0.224531332
MW4080	0.227399148
SM4000	0.293046637
SM4010	0.315461153
SM4020	0.32587792
SM4140	0.395855927
EH4000	0.373137328
EH4040	0.356790258
EH4080	0.370623855
CC4750	0.234623559
HH4170	0.239269854
HH4180	0.268403287
HH4190	0.268403287
MW4000	0.202385667
HP4040	0.208953026
HP4140	0.209215403
HP4150	0.209215403
MW4130	0.208922389
MW4140	0.208922389
MW4150	0.208847716
HP4010	0.201249819
HP4020	0.215526912
HP4050	0.20907467
HP4070	0.149004146
GH4000	0.504006863
GH4070	0.491955221
GH4080	0.491955221
EH4050	0.49309811
EH4060	0.435095322
EH4070	0.435095322
ST4020	0.158933997
ST4040	0.160889626
ST4060	0.171000332
VF4270	0.299110442
VF5540	0.30083766
ST4010	0.203301707
ST4030	0.209908767
ST4050	0.208100708
ST4080	0.206526385
VF5070	0.262289429
GH4060	0.392081857
ST4070	0.153631493
GH4020	0.281871191
FH4030	0.243951774
FH4040	0.245394292
FH4010	0.255970395
FH4020	0.255970395
SY4000	0.472108245
CC4250	0.28752628
SY4030	0.561855495
CC4220	0.233972114
CC4230	0.233744441
CC4240	0.219613525
HH4110	0.264535707
MW4100	0.223476204
WS4020	0.337666245
WS4030	0.332740679
VF5550	0.393016197
CC4280	0.2096735
HP4030	0.207165185
HP4060	0.149004146
FH4000	0.208913469
GH4150	0.311227313
FH4050	0.245134753
VF4010	0.00001
VF4180	0.00001
HH8000	0.00001
HH8010	0.00001
