Scenario 198	
ID	PGA_Soil_g
H4050	0.132957347
H4040	0.132957347
H4030	0.130948654
H4020	0.128282674
H4090	0.141814119
H4010	0.140836
H4160	0.140836
CC4040	0.232645941
SY4010	0.312297966
WS4010	0.290038028
SM4030	0.257650554
SM4040	0.276594311
SM4090	0.267702669
SM4100	0.267702669
SM4230	0.262650639
SM4050	0.308256787
VF4140	0.305717123
SM4070	0.296346426
SM4080	0.296346426
SM4160	0.297986144
HH4000	0.225773335
EH4010	0.352039069
SY4040	0.298514631
SY4050	0.294686973
SY4060	0.277188694
SM4060	0.300755417
SM4110	0.308808649
SM4120	0.308808649
SM4150	0.302881989
SM4220	0.304572421
SM4280	0.325062075
HH4010	0.296706599
HH4050	0.319784105
HH4060	0.311317709
HH4090	0.319990876
MW4070	0.242617948
MW4080	0.247475432
SM4000	0.320808135
SM4010	0.365613312
SM4020	0.343985303
SM4140	0.394208166
EH4000	0.401299593
EH4040	0.389848442
EH4080	0.412388684
CC4750	0.268908884
HH4170	0.285189185
HH4180	0.291670127
HH4190	0.291670127
MW4000	0.212651289
HP4040	0.219943964
HP4140	0.212853372
HP4150	0.212853372
MW4130	0.235825212
MW4140	0.235825212
MW4150	0.226125239
HP4010	0.243125501
HP4020	0.260543162
HP4050	0.236675021
HP4070	0.187246621
GH4000	0.457161903
GH4070	0.47310096
GH4080	0.47310096
EH4050	0.379767913
EH4060	0.425990568
EH4070	0.425990568
ST4020	0.303300619
ST4040	0.313934594
ST4060	0.402569681
VF4270	0.469030663
VF5540	0.552177131
ST4010	0.36196598
ST4030	0.383821285
ST4050	0.402176733
ST4080	0.384474702
VF5070	1.056763411
GH4060	0.630139589
ST4070	0.298783451
GH4020	1.092900038
FH4030	0.828824997
FH4040	0.840367138
FH4010	0.811840713
FH4020	0.811840713
SY4000	0.29477511
CC4250	0.298205918
SY4030	0.289565617
CC4220	0.263206705
CC4230	0.255881253
CC4240	0.230426489
HH4110	0.294367352
MW4100	0.23028006
WS4020	0.343858837
WS4030	0.357667844
VF5550	0.403115045
CC4280	0.209144832
HP4030	0.22568014
HP4060	0.187246621
FH4000	0.434320271
GH4150	0.91375041
FH4050	0.825672388
VF4010	0.00001
VF4180	0.00001
HH8000	0.00001
HH8010	0.00001
