Scenario 198	
ID	PGA_Soil_g
H6060	0.151963317
H6050	0.151963317
CC6010	0.162517801
CC7180	0.162517801
CC7300	0.161344115
H6070	0.127959381
H6030	0.127172554
H6230	0.15620161
H6200	0.149486034
H6170	0.138306862
H6130	0.144018702
H6120	0.140064955
H6020	0.13695941
H6010	0.13695941
H6000	0.13695941
WS6220	0.197979133
WS6260	0.209538384
WS6510	0.217572214
WS6920	0.211005814
CC6070	0.163457346
CC6130	0.178792518
CC6160	0.172443512
CC6200	0.166328719
CC6540	0.187890336
WS6080	0.198714243
WS6490	0.201530454
WS7010	0.208246839
WS7120	0.208246839
WS6400	0.234519219
WS6470	0.238171569
WS6620	0.246815917
WS6630	0.246815917
WS6640	0.246815917
WS6780	0.229238433
CC6640	0.218931919
CC6650	0.233687218
WS6900	0.215719
WS6130	0.248162559
WS6310	0.248162559
WS6360	0.252290995
WS6180	0.25341801
CC7090	0.200301079
CC6460	0.247839868
CC6420	0.241467513
WS6890	0.263004951
SY6000	0.288247094
SY6030	0.298842379
SY6040	0.288247094
SY6100	0.309126191
SY6180	0.302018513
SY6200	0.302018513
SY6310	0.309076871
WS7110	0.293174702
WS7150	0.293174702
WS6010	0.297872409
WS6540	0.320838244
WS6550	0.320838244
WS6560	0.320838244
WS6590	0.320838244
MW6140	0.203075002
CC6350	0.215507603
CC6390	0.223866677
CC6770	0.262345812
CC6780	0.262345812
CC7230	0.219305587
CC7240	0.219305587
CC7330	0.221566465
CC7340	0.221566465
CC7350	0.221566465
WS6250	0.246231604
WS6280	0.304182947
WS6340	0.297223404
WS6420	0.288297236
WS6660	0.284236625
WS7040	0.274546754
WS7050	0.274546754
WS7100	0.274546754
WS7070	0.274546754
WS7250	0.274546754
WS7260	0.291638747
WS6040	0.313444875
WS7160	0.314710261
SY6060	0.311776368
SY6150	0.313444875
SY6160	0.313444875
SY6170	0.313444875
SY6270	0.308699708
SY6280	0.311145613
SY6290	0.311145613
SY6320	0.313444875
SY6330	0.29477511
CC6280	0.226368728
CC6490	0.298672223
CC7290	0.278396872
WS6990	0.303845301
WS7000	0.303845301
WS6100	0.347543001
CC6790	0.274299568
CC6800	0.274299568
CC6830	0.276716939
CC6860	0.283895729
CC6990	0.26892318
CC7010	0.270481579
SY6120	0.278491491
SY6140	0.275578827
SY6240	0.278045368
WS6120	0.323575129
WS6190	0.31441161
WS6300	0.303654088
WS6450	0.324149242
WS6600	0.321922196
WS6680	0.290038028
WS6730	0.293559991
WS6810	0.31721862
WS6820	0.31031103
WS6840	0.324149242
WS7180	0.289035758
WS7190	0.29062691
WS7220	0.290038028
WS7230	0.290038028
WS7240	0.290038028
WS7270	0.290038028
WS7280	0.290038028
WS7290	0.290038028
WS7300	0.290038028
WS6690	0.324149242
CC6210	0.259528269
CC6250	0.235086267
CC6880	0.267366524
HH6200	0.262672342
HH6210	0.260575803
CC6030	0.267366524
CC6290	0.323564148
CC7220	0.21034544
MW6100	0.203203706
MW6110	0.203203706
MW6190	0.20668961
SM6150	0.297145461
MW6160	0.233278149
MW6350	0.240999188
SM6170	0.253702879
SM6340	0.25081712
CC7040	0.224700968
MW6410	0.227078866
MW6420	0.227556328
MW6430	0.227556328
CC6940	0.30926002
HH6220	0.31225166
HH6230	0.31225166
HH6240	0.31225166
HH6280	0.301520899
MW6060	0.301520899
MW6070	0.301520899
SM6130	0.29494625
SM6140	0.29494625
SM6320	0.321118498
EH6200	0.312207085
HH6130	0.242502287
HH6180	0.247858047
SM6190	0.257650554
SM6240	0.256114215
SM6270	0.297759712
CC7210	0.26131717
HH6120	0.281005849
HH6150	0.268803076
HH6160	0.268803076
HH6000	0.21759063
MW6020	0.257611787
MW6120	0.245618363
MW6210	0.247172965
MW6230	0.239251529
MW6270	0.233973916
MW6380	0.23146207
MW6050	0.211459747
MW6240	0.20795854
MW6320	0.214715333
HP6000	0.212520938
HP6010	0.212520938
HH6030	0.314680293
HH6050	0.317069362
CC7100	0.279610997
CC7110	0.279610997
CC7380	0.278631116
WS6030	0.29473913
HH6090	0.310368165
HH6100	0.297875674
HH6110	0.297875674
VF7102	0.35407929
VF7112	0.35407929
VF7122	0.35407929
VF7132	0.35407929
HH6320	0.313210887
WS7130	0.316413578
WS7170	0.316413578
CC7360	0.298644876
SM6210	0.288425669
SM6300	0.286859319
EH6230	0.289641935
HP6050	0.251300104
HP6110	0.251300104
WS6960	0.388446827
SM6000	0.339169067
SM6010	0.339169067
SM6020	0.339169067
EH6190	0.384674434
WS7210	0.355664376
SM6100	0.345487234
EH6120	0.387755433
EH6130	0.387755433
EH6030	0.387755433
HP6090	0.226125239
HP6060	0.184346557
HP6070	0.22144915
VF6130	0.440854156
VF6140	0.440854156
VF6460	0.480771065
VF6470	0.480771065
VF6560	0.604124606
ST6000	0.310874045
VF6190	0.57669431
VF6200	0.57669431
FH6080	0.453241855
FH6110	0.470825434
FH6130	0.513018548
VF6010	0.687045932
GH7230	0.902697444
VF6150	0.907264173
VF6170	0.907264173
VF6640	0.530661821
VF6540	0.648797274
GH7370	0.91375041
VF6660	0.920247734
GH7160	1.038205028
VF6610	0.71777302
GH7200	0.975867391
GH7220	0.975867391
GH7250	0.952511867
ST6030	0.430777435
ST6060	0.399136336
ST6080	0.385530154
ST6100	0.368169026
ST6110	0.368169026
ST6120	0.368169026
VF6040	0.705982983
VF6830	0.552177131
VF6840	0.877209783
VF6240	0.470655023
VF6250	0.470655023
VF6260	0.470655023
VF6270	0.474385136
VF6280	0.474385136
VF6290	0.474385136
VF6300	0.469030663
VF6310	0.469030663
VF6370	0.469030663
VF6380	0.469030663
VF6390	0.469030663
VF6400	0.469030663
VF6850	0.552018225
VF6910	0.508049548
VF6940	0.406068456
VF6960	0.472600312
VF6970	0.398223361
GH7100	1.086126685
GH7120	1.11381948
VF6730	0.893620074
GH7020	0.91375041
GH7040	0.91375041
GH7310	0.91375041
GH7320	0.91375041
GH7330	0.91375041
GH7360	0.91375041
VF6000	0.868500769
VF6110	0.468015999
VF6930	0.349101055
VF6050	0.406854844
VF6060	0.406854844
VF6070	0.406854844
VF6430	0.949584544
VF6580	0.724809408
VF6590	0.724809408
GH7050	0.963209212
