Scenario 175	
ID	PGA_Soil_g
H6060	0.22806188
H6050	0.22806188
CC6010	0.28386136
CC7180	0.28386136
CC7300	0.28666909
H6070	0.20726367
H6030	0.20631735
H6230	0.26693992
H6200	0.2496513
H6170	0.24238288
H6130	0.23606164
H6120	0.2276301
H6020	0.23844316
H6010	0.23844316
H6000	0.23844316
WS6220	0.30628712
WS6260	0.31570867
WS6510	0.33310133
WS6920	0.30899661
CC6070	0.28645137
CC6130	0.29796434
CC6160	0.31708757
CC6200	0.29447678
CC6540	0.32427279
WS6080	0.31350329
WS6490	0.30173951
WS7010	0.33208278
WS7120	0.33208278
WS6400	0.30095694
WS6470	0.35418123
WS6620	0.35263685
WS6630	0.35263685
WS6640	0.35263685
WS6780	0.34039312
CC6640	0.39354833
CC6650	0.38039589
WS6900	0.37342693
WS6130	0.34417857
WS6310	0.34417857
WS6360	0.34286496
WS6180	0.34968331
CC7090	0.5514791
CC6460	0.53065753
CC6420	0.48921612
WS6890	0.38780161
SY6000	0.33665273
SY6030	0.32574025
SY6040	0.33665273
SY6100	0.33870824
SY6180	0.32381913
SY6200	0.32381913
SY6310	0.34476682
WS7110	0.40729058
WS7150	0.40729058
WS6010	0.3776103
WS6540	0.41919779
WS6550	0.41919779
WS6560	0.41919779
WS6590	0.41919779
MW6140	0.63290817
CC6350	0.39311246
CC6390	0.41524433
CC6770	0.41869423
CC6780	0.41869423
CC7230	0.39283404
CC7240	0.39283404
CC7330	0.39916652
CC7340	0.39916652
CC7350	0.39916652
WS6250	0.36765457
WS6280	0.40177302
WS6340	0.38738066
WS6420	0.39186198
WS6660	0.40692497
WS7040	0.39433061
WS7050	0.39433061
WS7100	0.39433061
WS7070	0.39433061
WS7250	0.39433061
WS7260	0.44440305
WS6040	0.38823694
WS7160	0.37409879
SY6060	0.36540788
SY6150	0.38823694
SY6160	0.38823694
SY6170	0.38823694
SY6270	0.35407895
SY6280	0.37202446
SY6290	0.37202446
SY6320	0.38823694
SY6330	0.35606657
CC6280	0.46678191
CC6490	0.48137299
CC7290	0.48006157
WS6990	0.49277785
WS7000	0.49277785
WS6100	0.45572799
CC6790	0.53595066
CC6800	0.53595066
CC6830	0.54691231
CC6860	0.5385167
CC6990	0.58299321
CC7010	0.57492697
SY6120	0.30493024
SY6140	0.3045815
SY6240	0.30009396
WS6120	0.45466233
WS6190	0.44427111
WS6300	0.43574918
WS6450	0.45271662
WS6600	0.45937648
WS6680	0.4603228
WS6730	0.48525515
WS6810	0.45353487
WS6820	0.45662637
WS6840	0.45271662
WS7180	0.46383882
WS7190	0.46307907
WS7220	0.4603228
WS7230	0.4603228
WS7240	0.4603228
WS7270	0.4603228
WS7280	0.4603228
WS7290	0.4603228
WS7300	0.4603228
WS6690	0.45271662
CC6210	0.63125074
CC6250	0.57656693
CC6880	0.59147316
HH6200	0.61594886
HH6210	0.60284722
CC6030	0.59147316
CC6290	0.52292848
CC7220	0.73509163
MW6100	0.6781221
MW6110	0.6781221
MW6190	0.69454008
SM6150	0.42529272
MW6160	0.90274417
MW6350	0.91248405
SM6170	0.56984103
SM6340	0.57738048
CC7040	0.7952469
MW6410	0.82017213
MW6420	0.82494986
MW6430	0.82494986
CC6940	0.7220453
HH6220	0.75465739
HH6230	0.75465739
HH6240	0.75465739
HH6280	0.81050265
MW6060	0.81050265
MW6070	0.81050265
SM6130	0.58374053
SM6140	0.58374053
SM6320	0.59798086
EH6200	0.60021913
HH6130	0.65904456
HH6180	0.63242948
SM6190	0.59365839
SM6240	0.59746975
SM6270	0.7239579
CC7210	0.87903774
HH6120	0.90707427
HH6150	0.87892991
HH6160	0.87892991
HH6000	0.86876297
MW6020	0.96174312
MW6120	0.94750375
MW6210	0.95931476
MW6230	0.93147701
MW6270	0.97123146
MW6380	0.93196559
MW6050	0.84882504
MW6240	0.90908217
MW6320	0.85772154
HP6000	0.87123781
HP6010	0.87123781
HH6030	0.82947409
HH6050	0.82233703
CC7100	0.9263984
CC7110	0.9263984
CC7380	0.92910331
WS6030	0.42567939
HH6090	0.75902355
HH6100	0.75147796
HH6110	0.75147796
VF7102	0.70578003
VF7112	0.70578003
VF7122	0.70578003
VF7132	0.70578003
HH6320	0.75131327
WS7130	0.52509707
WS7170	0.52509707
CC7360	0.56903374
SM6210	0.56356144
SM6300	0.56769961
EH6230	0.54412556
HP6050	1.02984405
HP6110	1.02984405
WS6960	0.62293994
SM6000	0.58870429
SM6010	0.58870429
SM6020	0.58870429
EH6190	0.63837969
WS7210	0.57122679
SM6100	0.56855112
EH6120	0.38245528
EH6130	0.38245528
EH6030	0.38245528
HP6090	1.07096887
HP6060	1.15519869
HP6070	1.01367974
VF6130	0.39903495
VF6140	0.39903495
VF6460	0.41215274
VF6470	0.41215274
VF6560	0.40070739
ST6000	0.98622394
VF6190	1.12011027
VF6200	1.12011027
FH6080	1.15481448
FH6110	1.14888835
FH6130	1.14283061
VF6010	0.49502814
GH7230	0.48448899
VF6150	0.58251566
VF6170	0.58251566
VF6640	0.57018954
VF6540	0.5029422
GH7370	0.50103223
VF6660	0.68102294
GH7160	0.66102684
VF6610	0.79415134
GH7200	0.79839742
GH7220	0.79839742
GH7250	0.82528569
ST6030	0.93821442
ST6060	0.95871127
ST6080	0.96844995
ST6100	0.92703521
ST6110	0.92703521
ST6120	0.92703521
VF6040	1.08742261
VF6830	1.06761694
VF6840	0.89806557
VF6240	0.98771757
VF6250	0.98771757
VF6260	0.98771757
VF6270	0.99381429
VF6280	0.99381429
VF6290	0.99381429
VF6300	1.00027168
VF6310	1.00027168
VF6370	1.00027168
VF6380	1.00027168
VF6390	1.00027168
VF6400	1.00027168
VF6850	1.04628158
VF6910	1.03883433
VF6940	0.99176574
VF6960	0.99596675
VF6970	0.98020691
GH7100	0.6875307
GH7120	0.65106529
VF6730	0.50331539
GH7020	0.50103223
GH7040	0.50103223
GH7310	0.50103223
GH7320	0.50103223
GH7330	0.50103223
GH7360	0.50103223
VF6000	0.90858841
VF6110	0.94308138
VF6930	0.93337423
VF6050	0.68189943
VF6060	0.68189943
VF6070	0.68189943
VF6430	0.74616468
VF6580	0.77253515
VF6590	0.77253515
GH7050	0.74340934
