Scenario 196	
ID	PGA_Soil_g
H5000	0.099883491
H5140	0.083708864
H5130	0.083708864
H5120	0.083708864
H5110	0.083708864
H5100	0.083708864
H5090	0.083708864
H5080	0.084214711
H5070	0.084214711
H5060	0.084214711
H5050	0.082662851
H5040	0.082662851
H5030	0.082662851
H5020	0.082662851
H5010	0.082662851
H5180	0.088274926
H5170	0.088274926
H5160	0.088273674
H5150	0.088366435
H5220	0.082662851
H5230	0.088274926
CC5000	0.127127044
CC5010	0.127127044
CC5020	0.127127044
CC5040	0.127127044
CC5240	0.127127044
CC5050	0.12052716
CC5060	0.12052716
CC5070	0.12052716
CC5080	0.12052716
CC5090	0.12052716
CC5100	0.12052716
CC5110	0.12052716
CC5120	0.120162201
CC5140	0.132694006
CC5150	0.132694006
CC5160	0.132694006
CC5170	0.132694006
CC5180	0.133123958
CC5190	0.133123958
CC5230	0.12052716
CC5250	0.133123958
CC5260	0.133123958
CC5270	0.133123958
SM5460	0.1635974
SM5470	0.1635974
SM5480	0.1635974
SM5530	0.1635974
SY5000	0.151970387
SY5010	0.151970387
SY5020	0.151970387
SY5030	0.151970387
SY5080	0.143710086
SY5090	0.143710086
SY5100	0.143710086
SY5110	0.151970387
SM5300	0.163193926
SM5310	0.163193926
SM5320	0.163193926
MW5110	0.120530285
MW5120	0.120024119
MW5130	0.120024119
MW5240	0.120237607
MW5250	0.120237607
MW5260	0.120237607
MW5270	0.120237607
MW5280	0.120237607
HH5070	0.158653378
HH5080	0.158653378
HH5090	0.158653378
HH5140	0.158653378
SM5350	0.111457758
SM5360	0.111457758
SM5370	0.111457758
SM5380	0.111457758
SM5420	0.106455348
SM5430	0.106455348
SM5440	0.106455348
SY5040	0.150787961
SY5050	0.150787961
SY5060	0.150787961
SY5070	0.150787961
SM5080	0.135813367
SM5090	0.135813367
SM5100	0.135813367
SM5110	0.135813367
SM5120	0.135813367
SM5130	0.135813367
SM5140	0.135813367
SM5190	0.136412895
SM5200	0.136412895
SM5210	0.136412895
SM5220	0.136412895
CC5200	0.129795235
CC5210	0.129795235
CC5220	0.129795235
MW5000	0.129795235
MW5010	0.129795235
MW5020	0.129795235
MW5030	0.126402301
MW5040	0.126402301
MW5050	0.124891178
MW5060	0.124891178
MW5140	0.133194648
MW5150	0.133194648
MW5160	0.133194648
HP5180	0.133089036
HP5190	0.133194648
HP5200	0.133194648
MW5070	0.122223279
MW5080	0.122223279
MW5090	0.122223279
MW5100	0.122223279
MW5190	0.128982811
MW5200	0.128535329
HP5140	0.114997615
HP5150	0.114536072
HP5160	0.114997615
HP5170	0.114997615
HH5000	0.148929195
HH5010	0.148929195
HH5020	0.148929195
HH5030	0.148929195
HH5040	0.148929195
HH5050	0.148929195
HH5060	0.148929195
HH5130	0.150863318
HH5150	0.150863318
MW5170	0.147878116
MW5180	0.147549915
CC5280	0.147549915
CC5290	0.147549915
SM5230	0.138855627
SM5240	0.138855627
SM5250	0.138855627
SM5330	0.147601211
SM5340	0.147601211
HH5100	0.145371078
HH5110	0.145371078
HH5120	0.145571925
SM5000	0.168796921
SM5010	0.168796921
SM5020	0.168796921
SM5490	0.168796921
SM5260	0.138409102
SM5270	0.144514471
SM5280	0.144514471
SM5290	0.144514471
SM5450	0.144514471
MW5210	0.12612361
MW5220	0.12612361
MW5230	0.12612361
HP5050	0.12612361
HP5060	0.12612361
HP5000	0.114767011
HP5010	0.114767011
SM5070	0.172000067
SM5150	0.180361417
SM5160	0.180361417
SM5170	0.180361417
SM5180	0.180361417
SM5390	0.181648684
SM5400	0.181648684
SM5410	0.181648684
EH5350	0.181648684
EH5360	0.181648684
EH5370	0.181648684
SM5030	0.190095368
SM5040	0.190095368
SM5050	0.190095368
SM5060	0.190095368
EH5000	0.203483275
EH5010	0.203483275
EH5020	0.203483275
EH5030	0.203483275
EH5040	0.203483275
EH5050	0.203483275
EH5060	0.203483275
EH5210	0.203031245
SM5500	0.190095368
SM5510	0.190095368
EH5070	0.217129497
EH5080	0.217129497
EH5090	0.217129497
EH5100	0.217129497
EH5110	0.217129497
EH5120	0.217129497
EH5130	0.217129497
EH5140	0.217129497
EH5520	0.217129497
HP5090	0.11886923
HP5100	0.11886923
HP5110	0.11886923
HP5120	0.11886923
HP5130	0.11886923
EH5150	0.207370906
EH5160	0.207370906
EH5180	0.207370906
EH5220	0.197283269
EH5230	0.197283269
EH5240	0.195808303
EH5250	0.195808303
HP5070	0.117817627
HP5080	0.117817627
GH5000	0.25977388
GH5010	0.25977388
GH5020	0.25977388
GH5030	0.25977388
GH5040	0.25977388
HP5020	0.124064557
HP5030	0.124064557
HP5040	0.124064557
HP5210	0.124064557
GH5050	0.257199426
GH5060	0.257199426
GH5070	0.278991115
GH5090	0.278991115
GH5100	0.278991115
GH5110	0.278991115
GH5180	0.278991115
ST5060	0.113461902
ST5070	0.113344851
ST5080	0.113344851
ST5090	0.113344851
ST5000	0.155966359
ST5010	0.155966359
ST5020	0.155966359
ST5030	0.155966359
FH5160	0.227819443
FH5170	0.227819443
FH5180	0.227819443
EH5310	0.237949246
EH5320	0.237949246
EH5330	0.237949246
EH5340	0.237949246
EH5280	0.221326891
EH5290	0.221326891
EH5300	0.221326891
VF7830	0.181201339
VF7840	0.182145607
VF5930	0.193016553
VF5940	0.193016553
VF5950	0.193016553
ST5100	0.170343977
ST5110	0.170343977
ST5120	0.170343977
ST5130	0.170343977
ST5140	0.170343977
ST5150	0.170343977
ST5160	0.166537951
ST5170	0.166537951
ST5180	0.166033924
ST5190	0.166033924
ST5200	0.160426486
ST5210	0.160426486
ST5220	0.160426486
ST5230	0.160426486
ST5240	0.170885973
ST5250	0.170343977
ST5260	0.170885973
ST5270	0.1720028
ST5280	0.1720028
ST5320	0.170343977
ST5330	0.166033924
VF7940	0.232551479
VF7950	0.232551479
VF7960	0.23237164
VF7970	0.231596899
VF7980	0.231596899
VF7990	0.232181668
VF8000	0.231857363
VF9000	0.231208754
VF9010	0.231208754
VF9020	0.231208754
VF9030	0.231783557
VF9040	0.231596899
VF9050	0.231596899
VF9060	0.231596899
VF9070	0.231596899
VF9080	0.231596899
VF9090	0.231596899
VF9100	0.231596899
VF9110	0.231596899
FH5120	0.196920267
FH5130	0.196920267
ST5040	0.169501168
ST5050	0.169501168
VF5000	0.216910708
VF5960	0.216910708
VF5970	0.215055639
VF5980	0.215055639
VF9120	0.215055639
VF9130	0.215055639
VF5060	0.195682132
VF5071	0.193708229
VF5080	0.194578195
VF5090	0.171013939
VF5100	0.172570825
VF5120	0.172570825
VF5130	0.172570825
VF5170	0.165860772
VF5190	0.165860772
VF5200	0.165248454
VF5210	0.165248454
VF5220	0.163813996
VF5240	0.162997603
VF5900	0.208837986
VF5910	0.207605815
VF5920	0.207605815
VF7260	0.195896852
VF7270	0.197915375
VF7280	0.198829472
VF7290	0.199973619
VF7300	0.201015091
VF7310	0.203018117
VF7370	0.2240412
VF7380	0.2240412
VF7390	0.223325908
VF7400	0.221507525
VF7410	0.21971668
VF7420	0.219026852
VF7430	0.219026852
VF7440	0.218487155
VF7450	0.216597581
VF7460	0.216597581
VF7470	0.216597581
VF7480	0.216068339
VF7490	0.214218068
VF7500	0.214218068
VF7510	0.212533283
VF7520	0.208837986
VF7530	0.208837986
VF7540	0.202766967
VF7550	0.201578569
VF7560	0.209851933
VF7570	0.198594797
VF7580	0.19745388
VF7590	0.19745388
VF7620	0.207363582
VF7630	0.206383085
VF7640	0.205169439
VF7650	0.206383085
VF7660	0.206383085
VF7670	0.205169439
VF7930	0.231956577
VF9140	0.207363582
VF9150	0.206383085
VF9160	0.206383085
VF9170	0.205169439
VF9180	0.196322203
VF9190	0.202301145
VF9200	0.203964138
VF9220	0.205169439
VF7800	0.241006565
VF7790	0.241006565
VF7780	0.241006565
VF7770	0.241006565
VF7750	0.241006565
VF7740	0.239312541
VF7730	0.238107267
VF7720	0.239312541
VF7710	0.238107267
VF7700	0.239312541
VF7690	0.238107267
VF7680	0.239565629
ST5300	0.239565629
ST5310	0.239185998
VF5010	0.199239337
VF5020	0.201325297
VF5030	0.197003233
VF5040	0.199044394
VF5050	0.201325297
VF5990	0.172287476
VF7000	0.172287476
VF7010	0.172287476
VF7020	0.172287476
VF7030	0.172287476
VF7040	0.172287476
VF7050	0.172287476
VF7060	0.172287476
VF7070	0.172287476
VF7080	0.172287476
VF7090	0.172287476
VF7100	0.172287476
VF7110	0.172287476
VF7120	0.172287476
VF7130	0.172287476
VF7140	0.172287476
VF7150	0.172287476
VF7160	0.172287476
VF7170	0.172287476
VF7180	0.172287476
VF7190	0.172287476
VF7200	0.171413386
VF7210	0.171413386
VF7220	0.190067506
VF7230	0.191974008
VF7240	0.192840075
VF7250	0.193916786
VF7320	0.17897985
VF7330	0.179920757
VF7340	0.180868626
VF7350	0.182122391
VF7360	0.181441343
VF7600	0.220342946
VF7610	0.220342946
VF7810	0.184725392
VF7820	0.183753109
VF7850	0.214945221
VF7860	0.214945221
VF7870	0.213657451
VF7880	0.214945221
VF7890	0.212592363
VF7900	0.213862801
VF7910	0.217724895
VF7920	0.217724895
VF9210	0.215142059
VF9230	0.212592363
VF9240	0.213657451
VF9250	0.212592363
GH5130	0.289400524
GH5140	0.289400524
GH5150	0.289400524
GH5160	0.289400524
GH5170	0.289400524
FH5090	0.22839928
FH5100	0.22839928
FH5110	0.22839928
FH5190	0.22839928
FH5140	0.247911485
FH5150	0.247911485
FH5040	0.242293054
FH5050	0.242293054
FH5060	0.242293054
FH5070	0.242293054
FH5080	0.242293054
