Scenario 171	
ID	PGA_Soil_g
H5000	0.104131
H5140	0.08592201
H5130	0.08592201
H5120	0.08592201
H5110	0.08592201
H5100	0.08592201
H5090	0.08592201
H5080	0.08600609
H5070	0.08600609
H5060	0.08600609
H5050	0.08410858
H5040	0.08410858
H5030	0.08410858
H5020	0.08410858
H5010	0.08410858
H5180	0.0916643
H5170	0.0916643
H5160	0.09276023
H5150	0.09282375
H5220	0.08410858
H5230	0.0916643
CC5000	0.14768911
CC5010	0.14768911
CC5020	0.14768911
CC5040	0.14768911
CC5240	0.14768911
CC5050	0.1376906
CC5060	0.1376906
CC5070	0.1376906
CC5080	0.1376906
CC5090	0.1376906
CC5100	0.1376906
CC5110	0.1376906
CC5120	0.13735932
CC5140	0.15379703
CC5150	0.15379703
CC5160	0.15379703
CC5170	0.15379703
CC5180	0.15415263
CC5190	0.15415263
CC5230	0.1376906
CC5250	0.15415263
CC5260	0.15415263
CC5270	0.15415263
SM5460	0.18381051
SM5470	0.18381051
SM5480	0.18381051
SM5530	0.18381051
SY5000	0.15712765
SY5010	0.15712765
SY5020	0.15712765
SY5030	0.15712765
SY5080	0.15026287
SY5090	0.15026287
SY5100	0.15026287
SY5110	0.15712765
SM5300	0.18675346
SM5310	0.18675346
SM5320	0.18675346
MW5110	0.15618704
MW5120	0.15547317
MW5130	0.15547317
MW5240	0.15311273
MW5250	0.15311273
MW5260	0.15311273
MW5270	0.15311273
MW5280	0.15311273
HH5070	0.20734432
HH5080	0.20734432
HH5090	0.20734432
HH5140	0.20734432
SM5350	0.14299828
SM5360	0.14299828
SM5370	0.14299828
SM5380	0.14299828
SM5420	0.13583604
SM5430	0.13583604
SM5440	0.13583604
SY5040	0.15918607
SY5050	0.15918607
SY5060	0.15918607
SY5070	0.15918607
SM5080	0.17931882
SM5090	0.17931882
SM5100	0.17931882
SM5110	0.17931882
SM5120	0.17931882
SM5130	0.17931882
SM5140	0.17931882
SM5190	0.17779092
SM5200	0.17779092
SM5210	0.17779092
SM5220	0.17779092
CC5200	0.1706919
CC5210	0.1706919
CC5220	0.1706919
MW5000	0.1706919
MW5010	0.1706919
MW5020	0.1706919
MW5030	0.16373834
MW5040	0.16373834
MW5050	0.16129957
MW5060	0.16129957
MW5140	0.17574555
MW5150	0.17574555
MW5160	0.17574555
HP5180	0.17617637
HP5190	0.17574555
HP5200	0.17574555
MW5070	0.1597279
MW5080	0.1597279
MW5090	0.1597279
MW5100	0.1597279
MW5190	0.17058407
MW5200	0.16947622
HP5140	0.14610525
HP5150	0.14547182
HP5160	0.14610525
HP5170	0.14610525
HH5000	0.19944774
HH5010	0.19944774
HH5020	0.19944774
HH5030	0.19944774
HH5040	0.19944774
HH5050	0.19944774
HH5060	0.19944774
HH5130	0.20446189
HH5150	0.20446189
MW5170	0.19503387
MW5180	0.194585
CC5280	0.194585
CC5290	0.194585
SM5230	0.16473386
SM5240	0.16473386
SM5250	0.16473386
SM5330	0.1660728
SM5340	0.1660728
HH5100	0.19195068
HH5110	0.19195068
HH5120	0.19217448
SM5000	0.20579914
SM5010	0.20579914
SM5020	0.20579914
SM5490	0.20579914
SM5260	0.17266769
SM5270	0.17549407
SM5280	0.17549407
SM5290	0.17549407
SM5450	0.17549407
MW5210	0.16826807
MW5220	0.16826807
MW5230	0.16826807
HP5050	0.16826807
HP5060	0.16826807
HP5000	0.1476175
HP5010	0.1476175
SM5070	0.20630838
SM5150	0.20992638
SM5160	0.20992638
SM5170	0.20992638
SM5180	0.20992638
SM5390	0.21394161
SM5400	0.21394161
SM5410	0.21394161
EH5350	0.21394161
EH5360	0.21394161
EH5370	0.21394161
SM5030	0.2137413
SM5040	0.2137413
SM5050	0.2137413
SM5060	0.2137413
EH5000	0.22768542
EH5010	0.22768542
EH5020	0.22768542
EH5030	0.22768542
EH5040	0.22768542
EH5050	0.22768542
EH5060	0.22768542
EH5210	0.22514752
SM5500	0.2137413
SM5510	0.2137413
EH5070	0.21733352
EH5080	0.21733352
EH5090	0.21733352
EH5100	0.21733352
EH5110	0.21733352
EH5120	0.21733352
EH5130	0.21733352
EH5140	0.21733352
EH5520	0.21733352
HP5090	0.15652632
HP5100	0.15652632
HP5110	0.15652632
HP5120	0.15652632
HP5130	0.15652632
EH5150	0.22732614
EH5160	0.22732614
EH5180	0.22732614
EH5220	0.22282827
EH5230	0.22282827
EH5240	0.22050291
EH5250	0.22050291
HP5070	0.15396904
HP5080	0.15396904
GH5000	0.22377617
GH5010	0.22377617
GH5020	0.22377617
GH5030	0.22377617
GH5040	0.22377617
HP5020	0.16815964
HP5030	0.16815964
HP5040	0.16815964
HP5210	0.16815964
GH5050	0.22622272
GH5060	0.22622272
GH5070	0.2481496
GH5090	0.2481496
GH5100	0.2481496
GH5110	0.2481496
GH5180	0.2481496
ST5060	0.18046637
ST5070	0.1800179
ST5080	0.1800179
ST5090	0.1800179
ST5000	0.26650051
ST5010	0.26650051
ST5020	0.26650051
ST5030	0.26650051
FH5160	0.33210166
FH5170	0.33210166
FH5180	0.33210166
EH5310	0.25474384
EH5320	0.25474384
EH5330	0.25474384
EH5340	0.25474384
EH5280	0.2564833
EH5290	0.2564833
EH5300	0.2564833
VF7830	0.22193789
VF7840	0.22295322
VF5930	0.23059844
VF5940	0.23059844
VF5950	0.23059844
ST5100	0.2641223
ST5110	0.2641223
ST5120	0.2641223
ST5130	0.2641223
ST5140	0.2641223
ST5150	0.2641223
ST5160	0.25678885
ST5170	0.25678885
ST5180	0.25480474
ST5190	0.25480474
ST5200	0.24190238
ST5210	0.24190238
ST5220	0.24190238
ST5230	0.24190238
ST5240	0.26631738
ST5250	0.2641223
ST5260	0.26631738
ST5270	0.26875302
ST5280	0.26875302
ST5320	0.2641223
ST5330	0.25480474
VF7940	0.32279642
VF7950	0.32279642
VF7960	0.32402086
VF7970	0.32321052
VF7980	0.32321052
VF7990	0.325258
VF8000	0.32536831
VF9000	0.32558894
VF9010	0.32558894
VF9020	0.32558894
VF9030	0.32764577
VF9040	0.32321052
VF9050	0.32321052
VF9060	0.32321052
VF9070	0.32321052
VF9080	0.32321052
VF9090	0.32321052
VF9100	0.32321052
VF9110	0.32321052
FH5120	0.33092299
FH5130	0.33092299
ST5040	0.26877313
ST5050	0.26877313
VF5000	0.35430419
VF5960	0.35430419
VF5970	0.35220322
VF5980	0.35220322
VF9120	0.35220322
VF9130	0.35220322
VF5060	0.25079344
VF5071	0.24711808
VF5080	0.24953314
VF5090	0.21092568
VF5100	0.21375898
VF5120	0.21375898
VF5130	0.21375898
VF5170	0.23342361
VF5190	0.23342361
VF5200	0.23166499
VF5210	0.23166499
VF5220	0.22870207
VF5240	0.2274796
VF5900	0.27170121
VF5910	0.27042147
VF5920	0.27042147
VF7260	0.24955778
VF7270	0.25327309
VF7280	0.25582899
VF7290	0.2570809
VF7300	0.25901581
VF7310	0.26370157
VF7370	0.30471189
VF7380	0.30471189
VF7390	0.30396217
VF7400	0.29966638
VF7410	0.29546884
VF7420	0.29475124
VF7430	0.29475124
VF7440	0.29306545
VF7450	0.28996264
VF7460	0.28996264
VF7470	0.28996264
VF7480	0.28832914
VF7490	0.28529748
VF7500	0.28529748
VF7510	0.28144191
VF7520	0.27170121
VF7530	0.27170121
VF7540	0.26511657
VF7550	0.26375184
VF7560	0.27466625
VF7570	0.25712398
VF7580	0.25580638
VF7590	0.25580638
VF7620	0.27200858
VF7630	0.26912098
VF7640	0.26780175
VF7650	0.26912098
VF7660	0.26912098
VF7670	0.26780175
VF7930	0.32076164
VF9140	0.27200858
VF9150	0.26912098
VF9160	0.26912098
VF9170	0.26780175
VF9180	0.25447485
VF9190	0.26375441
VF9200	0.26646642
VF9220	0.26780175
VF7800	0.39015743
VF7790	0.39015743
VF7780	0.39015743
VF7770	0.39015743
VF7750	0.39015743
VF7740	0.38482886
VF7730	0.38557251
VF7720	0.38482886
VF7710	0.38557251
VF7700	0.38482886
VF7690	0.38557251
VF7680	0.38256913
ST5300	0.38256913
ST5310	0.38595872
VF5010	0.25311356
VF5020	0.25688434
VF5030	0.25075739
VF5040	0.25449137
VF5050	0.25688434
VF5990	0.21074637
VF7000	0.21074637
VF7010	0.21074637
VF7020	0.21074637
VF7030	0.21074637
VF7040	0.21074637
VF7050	0.21074637
VF7060	0.21074637
VF7070	0.21074637
VF7080	0.21074637
VF7090	0.21074637
VF7100	0.21074637
VF7110	0.21074637
VF7120	0.21074637
VF7130	0.21074637
VF7140	0.21074637
VF7150	0.21074637
VF7160	0.21074637
VF7170	0.21074637
VF7180	0.21074637
VF7190	0.21074637
VF7200	0.23965101
VF7210	0.23965101
VF7220	0.23894236
VF7230	0.2423949
VF7240	0.24473891
VF7250	0.24593253
VF7320	0.22158616
VF7330	0.22268415
VF7340	0.22377498
VF7350	0.22631639
VF7360	0.22662821
VF7600	0.2821252
VF7610	0.2821252
VF7810	0.22805979
VF7820	0.22699983
VF7850	0.27970769
VF7860	0.27970769
VF7870	0.27848416
VF7880	0.27970769
VF7890	0.27540241
VF7900	0.27658704
VF7910	0.27999302
VF7920	0.27999302
VF9210	0.27774689
VF9230	0.27540241
VF9240	0.27848416
VF9250	0.27540241
GH5130	0.47563586
GH5140	0.47563586
GH5150	0.47563586
GH5160	0.47563586
GH5170	0.47563586
FH5090	0.4071805
FH5100	0.4071805
FH5110	0.4071805
FH5190	0.4071805
FH5140	0.45718027
FH5150	0.45718027
FH5040	0.43211823
FH5050	0.43211823
FH5060	0.43211823
FH5070	0.43211823
FH5080	0.43211823
