Scenario 440	
ID	PGA_Soil_g
H4000	0.166241634
H4180	0.189853978
H4060	0.138709377
H4130	0.150033265
H4080	0.150148359
H4070	0.149521144
CC4360	0.158468205
H4140	0.15760251
CC4060	0.206159663
CC4070	0.206159663
CC4080	0.206159663
CC4090	0.206159663
CC4100	0.206159663
CC4110	0.20732584
CC4140	0.195298946
CC4150	0.194238186
CC4160	0.194238186
CC4370	0.206159663
CC4380	0.216925859
CC4460	0.194238186
CC4470	0.194238186
CC4480	0.194238186
MW4210	0.207760242
MW4220	0.20914925
MW4190	0.235512495
MW4200	0.237075782
CC4760	0.235512495
HP4110	0.17414628
GH4010	0.11196665
GH4040	0.11307144
GH4050	0.11307144
VF5300	0.202137709
VF5310	0.200969434
VF4150	0.202335191
ST4090	0.19232243
ST4100	0.192399555
ST4110	0.192399555
ST4120	0.191120571
ST4130	0.191120571
VF5420	0.18278867
VF5430	0.182789958
VF5440	0.182789958
VF5450	0.182789958
VF5460	0.182789958
VF5470	0.181808329
VF5480	0.181804514
VF5490	0.181804514
VF5500	0.181804514
VF5510	0.180832732
VF5520	0.180832732
VF5580	0.181804514
VF4000	0.126610342
VF4280	0.126610342
VF4290	0.127247277
VF4300	0.127247277
VF5690	0.127247277
VF5700	0.127247277
VF4010	0.121781945
GH4140	0.08438205
VF4070	0.196694183
VF4080	0.197710359
VF4090	0.197824132
VF4100	0.217609501
VF4110	0.216270185
VF4120	0.216270185
VF4130	0.216270185
VF4200	0.225748253
VF4210	0.225748253
VF4220	0.22552371
VF4230	0.22552371
VF4250	0.226740479
VF4260	0.228203535
VF4610	0.19256984
VF4620	0.192482126
VF4630	0.193474662
VF4640	0.194571638
VF4650	0.194469297
VF4660	0.195465887
VF4760	0.183710206
VF4770	0.183710206
VF4780	0.184710824
VF4790	0.184680986
VF4800	0.185655499
VF4810	0.185655499
VF4820	0.185655499
VF4830	0.185655499
VF4840	0.186633599
VF4850	0.186633599
VF4860	0.186633599
VF4870	0.186586404
VF4880	0.187615168
VF4890	0.187615168
VF4900	0.187561691
VF4910	0.188403416
VF4920	0.188403416
VF4930	0.193741727
VF4940	0.194843066
VF4950	0.188474548
VF4960	0.195778084
VF4970	0.1968997
VF4980	0.1968997
VF5010	0.190579295
VF5020	0.191573203
VF5030	0.191573203
VF5040	0.190505767
VF5050	0.190505767
VF5060	0.191573203
VF5530	0.180824053
VF5570	0.183710206
VF5600	0.195575964
VF5620	0.188403416
VF5630	0.195465887
VF5750	0.190579295
VF5760	0.190505767
VF5770	0.190505767
VF5780	0.191573203
VF5790	0.198033071
VF5800	0.193658519
VF5810	0.192651796
VF5830	0.191573203
VF5870	0.189449227
VF4180	0.162907064
VF4020	0.192185342
VF4030	0.191217279
VF4040	0.194361043
VF4050	0.193374038
VF4060	0.191217279
VF4380	0.213031936
VF4390	0.213031936
VF4400	0.213031936
VF4410	0.213031936
VF4420	0.213031936
VF4430	0.213031936
VF4440	0.213031936
VF4450	0.213031936
VF4460	0.213031936
VF4470	0.213031936
VF4480	0.213031936
VF4490	0.213031936
VF4500	0.213031936
VF4510	0.213031936
VF4520	0.213031936
VF4530	0.213031936
VF4540	0.213031936
VF4550	0.213031936
VF4560	0.213031936
VF4570	0.213031936
VF4580	0.213031936
VF4590	0.214333725
VF4600	0.214333725
VF4670	0.1964643
VF4680	0.19746443
VF4690	0.19746443
VF4700	0.19846617
VF4710	0.206428075
VF4720	0.205045295
VF4730	0.204872966
VF4740	0.206083989
VF4750	0.207307887
VF4990	0.179449117
VF5000	0.179449117
VF5280	0.200155091
VF5290	0.201315832
VF5340	0.184390891
VF5350	0.184390891
VF5360	0.185396445
VF5370	0.184390891
VF5380	0.185328603
VF5390	0.184324074
VF5400	0.181370115
VF5410	0.181370115
VF5590	0.203674698
VF5610	0.217195582
VF5820	0.183329546
VF5840	0.185328603
VF5850	0.185396445
VF5860	0.185328603
GH4090	0.158772171
VF5100	0.159527183
CC4050	0.206159663
CC4130	0.195298946
VF5880	0.120937273
