Scenario 454	
ID	PGA_Soil_g
H4000	0.304988226
H4180	0.258102849
H4060	0.306048
H4130	0.336048129
H4080	0.278906888
H4070	0.282820165
CC4360	0.322606593
H4140	0.287955107
CC4060	0.279954296
CC4070	0.279954296
CC4080	0.279954296
CC4090	0.279954296
CC4100	0.279954296
CC4110	0.276192382
CC4140	0.306812909
CC4150	0.310548413
CC4160	0.310548413
CC4370	0.279954296
CC4380	0.249431506
CC4460	0.310548413
CC4470	0.310548413
CC4480	0.310548413
MW4210	0.170674196
MW4220	0.169628277
MW4190	0.197823775
MW4200	0.196598768
CC4760	0.197823775
HP4110	0.099678122
GH4010	0.208026332
GH4040	0.185869262
GH4050	0.185869262
VF5300	0.205316567
VF5310	0.206628442
VF4150	0.212728882
ST4090	0.128060904
ST4100	0.128879796
ST4110	0.128879796
ST4120	0.128652905
ST4130	0.128652905
VF5420	0.181667244
VF5430	0.183216178
VF5440	0.183216178
VF5450	0.183216178
VF5460	0.183216178
VF5470	0.183980155
VF5480	0.185568547
VF5490	0.185568547
VF5500	0.185568547
VF5510	0.186343873
VF5520	0.186343873
VF5580	0.185568547
VF4000	0.118665826
VF4280	0.118665826
VF4290	0.118385366
VF4300	0.118385366
VF5690	0.118385366
VF5700	0.118385366
VF4010	0.121699244
GH4140	0.11337968
VF4070	0.19651221
VF4080	0.196914423
VF4090	0.195337248
VF4100	0.187744129
VF4110	0.188858783
VF4120	0.188858783
VF4130	0.188858783
VF4200	0.18264662
VF4210	0.18264662
VF4220	0.184027672
VF4230	0.184027672
VF4250	0.184351921
VF4260	0.183286452
VF4610	0.196306157
VF4620	0.197947299
VF4630	0.198424327
VF4640	0.197257018
VF4650	0.198878491
VF4660	0.199312067
VF4760	0.190418398
VF4770	0.190418398
VF4780	0.189544797
VF4790	0.191183448
VF4800	0.191922259
VF4810	0.191922259
VF4820	0.191922259
VF4830	0.191922259
VF4840	0.192633843
VF4850	0.192633843
VF4860	0.192633843
VF4870	0.19429419
VF4880	0.193317389
VF4890	0.193317389
VF4900	0.194976294
VF4910	0.199005616
VF4920	0.199005616
VF4930	0.193586338
VF4940	0.192491388
VF4950	0.19730711
VF4960	0.194510698
VF4970	0.193372858
VF4980	0.193372858
VF5010	0.195196605
VF5020	0.195766521
VF5030	0.195766521
VF5040	0.196848595
VF5050	0.196848595
VF5060	0.195766521
VF5530	0.187973046
VF5570	0.190418398
VF5600	0.19769299
VF5620	0.199005616
VF5630	0.199312067
VF5750	0.195196605
VF5760	0.196848595
VF5770	0.196848595
VF5780	0.195766521
VF5790	0.192239749
VF5800	0.195185399
VF5810	0.194679189
VF5830	0.195766521
VF5870	0.197927916
VF4180	0.157993937
VF4020	0.202943254
VF4030	0.202443743
VF4040	0.2005193
VF4050	0.200067091
VF4060	0.202443743
VF4380	0.195682716
VF4390	0.195682716
VF4400	0.195682716
VF4410	0.195682716
VF4420	0.195682716
VF4430	0.195682716
VF4440	0.195682716
VF4450	0.195682716
VF4460	0.195682716
VF4470	0.195682716
VF4480	0.195682716
VF4490	0.195682716
VF4500	0.195682716
VF4510	0.195682716
VF4520	0.195682716
VF4530	0.195682716
VF4540	0.195682716
VF4550	0.195682716
VF4560	0.195682716
VF4570	0.195682716
VF4580	0.195682716
VF4590	0.194493997
VF4600	0.194493997
VF4670	0.199727547
VF4680	0.200127316
VF4690	0.200127316
VF4700	0.200513458
VF4710	0.195128727
VF4720	0.197892082
VF4730	0.199482226
VF4740	0.198251545
VF4750	0.197031903
VF4990	0.208533955
VF5000	0.208533955
VF5280	0.204543853
VF5290	0.203246117
VF5340	0.201493979
VF5350	0.201493979
VF5360	0.200452805
VF5370	0.201493979
VF5380	0.202227211
VF5390	0.203294849
VF5400	0.206460118
VF5410	0.206460118
VF5590	0.20072403
VF5610	0.190663099
VF5820	0.204357243
VF5840	0.202227211
VF5850	0.200452805
VF5860	0.202227211
GH4090	0.155493438
VF5100	0.155253184
CC4050	0.279954296
CC4130	0.306812909
VF5880	0.117958939
