Scenario 453	
ID	PGA_Soil_g
H5000	0.570581853
H5140	0.470276177
H5130	0.470276177
H5120	0.470276177
H5110	0.470276177
H5100	0.470276177
H5090	0.470276177
H5080	0.489239931
H5070	0.489239931
H5060	0.489239931
H5050	0.451889411
H5040	0.451889411
H5030	0.451889411
H5020	0.451889411
H5010	0.451889411
H5180	0.641050696
H5170	0.641050696
H5160	0.534696847
H5150	0.541823208
H5220	0.451889411
H5230	0.641050696
CC5000	0.302006967
CC5010	0.302006967
CC5020	0.302006967
CC5040	0.302006967
CC5240	0.302006967
CC5050	0.319642413
CC5060	0.319642413
CC5070	0.319642413
CC5080	0.319642413
CC5090	0.319642413
CC5100	0.319642413
CC5110	0.319642413
CC5120	0.316518655
CC5140	0.313784802
CC5150	0.313784802
CC5160	0.313784802
CC5170	0.313784802
CC5180	0.31688799
CC5190	0.31688799
CC5230	0.319642413
CC5250	0.31688799
CC5260	0.31688799
CC5270	0.31688799
SM5460	0.241882761
SM5470	0.241882761
SM5480	0.241882761
SM5530	0.241882761
SY5000	0.20373643
SY5010	0.20373643
SY5020	0.20373643
SY5030	0.20373643
SY5080	0.225476325
SY5090	0.225476325
SY5100	0.225476325
SY5110	0.20373643
SM5300	0.236823407
SM5310	0.236823407
SM5320	0.236823407
MW5110	0.166393808
MW5120	0.165401337
MW5130	0.165401337
MW5240	0.181544146
MW5250	0.181544146
MW5260	0.181544146
MW5270	0.181544146
MW5280	0.181544146
HH5070	0.221508265
HH5080	0.221508265
HH5090	0.221508265
HH5140	0.221508265
SM5350	0.149756685
SM5360	0.149756685
SM5370	0.149756685
SM5380	0.149756685
SM5420	0.153666288
SM5430	0.153666288
SM5440	0.153666288
SY5040	0.205276108
SY5050	0.205276108
SY5060	0.205276108
SY5070	0.205276108
SM5080	0.166700864
SM5090	0.166700864
SM5100	0.166700864
SM5110	0.166700864
SM5120	0.166700864
SM5130	0.166700864
SM5140	0.166700864
SM5190	0.171793467
SM5200	0.171793467
SM5210	0.171793467
SM5220	0.171793467
CC5200	0.175425911
CC5210	0.175425911
CC5220	0.175425911
MW5000	0.175425911
MW5010	0.175425911
MW5020	0.175425911
MW5030	0.180644259
MW5040	0.180644259
MW5050	0.179852247
MW5060	0.179852247
MW5140	0.179087606
MW5150	0.179087606
MW5160	0.179087606
HP5180	0.17654278
HP5190	0.179087606
HP5200	0.179087606
MW5070	0.163570927
MW5080	0.163570927
MW5090	0.163570927
MW5100	0.163570927
MW5190	0.16954359
MW5200	0.170912237
HP5140	0.169509105
HP5150	0.168488377
HP5160	0.169509105
HP5170	0.169509105
HH5000	0.18590844
HH5010	0.18590844
HH5020	0.18590844
HH5030	0.18590844
HH5040	0.18590844
HH5050	0.18590844
HH5060	0.18590844
HH5130	0.180508471
HH5150	0.180508471
MW5170	0.197074932
MW5180	0.196491575
CC5280	0.196491575
CC5290	0.196491575
SM5230	0.207855231
SM5240	0.207855231
SM5250	0.207855231
SM5330	0.204277879
SM5340	0.204277879
HH5100	0.192265551
HH5110	0.192265551
HH5120	0.192522368
SM5000	0.192565677
SM5010	0.192565677
SM5020	0.192565677
SM5490	0.192565677
SM5260	0.188250303
SM5270	0.190052801
SM5280	0.190052801
SM5290	0.190052801
SM5450	0.190052801
MW5210	0.157003009
MW5220	0.157003009
MW5230	0.157003009
HP5050	0.157003009
HP5060	0.157003009
HP5000	0.157236086
HP5010	0.157236086
SM5070	0.196069616
SM5150	0.197131327
SM5160	0.197131327
SM5170	0.197131327
SM5180	0.197131327
SM5390	0.192792401
SM5400	0.192792401
SM5410	0.192792401
EH5350	0.192792401
EH5360	0.192792401
EH5370	0.192792401
SM5030	0.193712148
SM5040	0.193712148
SM5050	0.193712148
SM5060	0.193712148
EH5000	0.18014892
EH5010	0.18014892
EH5020	0.18014892
EH5030	0.18014892
EH5040	0.18014892
EH5050	0.18014892
EH5060	0.18014892
EH5210	0.181705052
SM5500	0.193712148
SM5510	0.193712148
EH5070	0.164072524
EH5080	0.164072524
EH5090	0.164072524
EH5100	0.164072524
EH5110	0.164072524
EH5120	0.164072524
EH5130	0.164072524
EH5140	0.164072524
EH5520	0.164072524
HP5090	0.14898717
HP5100	0.14898717
HP5110	0.14898717
HP5120	0.14898717
HP5130	0.14898717
EH5150	0.169558537
EH5160	0.169558537
EH5180	0.169558537
EH5220	0.177628356
EH5230	0.177628356
EH5240	0.179412422
EH5250	0.179412422
HP5070	0.15220834
HP5080	0.15220834
GH5000	0.140140964
GH5010	0.140140964
GH5020	0.140140964
GH5030	0.140140964
GH5040	0.140140964
HP5020	0.14128658
HP5030	0.14128658
HP5040	0.14128658
HP5210	0.14128658
GH5050	0.141279852
GH5060	0.141279852
GH5070	0.132667954
GH5090	0.132667954
GH5100	0.132667954
GH5110	0.132667954
GH5180	0.132667954
ST5060	0.088511415
ST5070	0.088720568
ST5080	0.088720568
ST5090	0.088720568
ST5000	0.105939156
ST5010	0.105939156
ST5020	0.105939156
ST5030	0.105939156
FH5160	0.151923704
FH5170	0.151923704
FH5180	0.151923704
EH5310	0.182237411
EH5320	0.182237411
EH5330	0.182237411
EH5340	0.182237411
EH5280	0.191941893
EH5290	0.191941893
EH5300	0.191941893
VF7830	0.19310025
VF7840	0.193700051
VF5930	0.204300451
VF5940	0.204300451
VF5950	0.204300451
ST5100	0.120976442
ST5110	0.120976442
ST5120	0.120976442
ST5130	0.120976442
ST5140	0.120976442
ST5150	0.120976442
ST5160	0.118972474
ST5170	0.118972474
ST5180	0.119803372
ST5190	0.119803372
ST5200	0.119062962
ST5210	0.119062962
ST5220	0.119062962
ST5230	0.119062962
ST5240	0.120122868
ST5250	0.120976442
ST5260	0.120122868
ST5270	0.120400067
ST5280	0.120400067
ST5320	0.120976442
ST5330	0.119803372
VF7940	0.160076702
VF7950	0.160076702
VF7960	0.159334171
VF7970	0.1592664
VF7980	0.1592664
VF7990	0.158603543
VF8000	0.158335253
VF9000	0.157798672
VF9010	0.157798672
VF9020	0.157798672
VF9030	0.157147384
VF9040	0.1592664
VF9050	0.1592664
VF9060	0.1592664
VF9070	0.1592664
VF9080	0.1592664
VF9090	0.1592664
VF9100	0.1592664
VF9110	0.1592664
FH5120	0.117557086
FH5130	0.117557086
ST5040	0.11418809
ST5050	0.11418809
VF5000	0.099598834
VF5960	0.099598834
VF5970	0.09959389
VF5980	0.09959389
VF9120	0.09959389
VF9130	0.09959389
VF5060	0.178967845
VF5071	0.180173087
VF5080	0.178555274
VF5090	0.183443701
VF5100	0.182553232
VF5120	0.182553232
VF5130	0.182553232
VF5170	0.179058659
VF5190	0.179058659
VF5200	0.180556762
VF5210	0.180556762
VF5220	0.181287062
VF5240	0.180493927
VF5900	0.175299346
VF5910	0.175016153
VF5920	0.175016153
VF7260	0.181006849
VF7270	0.179756927
VF7280	0.178134966
VF7290	0.178501534
VF7300	0.177876282
VF7310	0.175655031
VF7370	0.164450145
VF7380	0.164450145
VF7390	0.164360005
VF7400	0.165692353
VF7410	0.16703698
VF7420	0.166936636
VF7430	0.166936636
VF7440	0.167668039
VF7450	0.168182433
VF7460	0.168182433
VF7470	0.168182433
VF7480	0.168922764
VF7490	0.169429231
VF7500	0.169429231
VF7510	0.170802099
VF7520	0.175299346
VF7530	0.175299346
VF7540	0.173765171
VF7550	0.173424542
VF7560	0.173733497
VF7570	0.176169872
VF7580	0.175788713
VF7590	0.175788713
VF7620	0.173169255
VF7630	0.174720633
VF7640	0.174413264
VF7650	0.174720633
VF7660	0.174720633
VF7670	0.174413264
VF7930	0.160751462
VF9140	0.173169255
VF9150	0.174720633
VF9160	0.174720633
VF9170	0.174413264
VF9180	0.175395942
VF9190	0.174541545
VF9200	0.174094665
VF9220	0.174413264
VF7800	0.097286484
VF7790	0.097286484
VF7780	0.097286484
VF7770	0.097286484
VF7750	0.097286484
VF7740	0.097761327
VF7730	0.097672606
VF7720	0.097761327
VF7710	0.097672606
VF7700	0.097761327
VF7690	0.097672606
VF7680	0.097978985
ST5300	0.097978985
ST5310	0.097652498
VF5010	0.182164907
VF5020	0.180849063
VF5030	0.181405354
VF5040	0.180133152
VF5050	0.180849063
VF5990	0.188867676
VF7000	0.188867676
VF7010	0.188867676
VF7020	0.188867676
VF7030	0.188867676
VF7040	0.188867676
VF7050	0.188867676
VF7060	0.188867676
VF7070	0.188867676
VF7080	0.188867676
VF7090	0.188867676
VF7100	0.188867676
VF7110	0.188867676
VF7120	0.188867676
VF7130	0.188867676
VF7140	0.188867676
VF7150	0.188867676
VF7160	0.188867676
VF7170	0.188867676
VF7180	0.188867676
VF7190	0.188867676
VF7200	0.188144016
VF7210	0.188144016
VF7220	0.184715629
VF7230	0.183487093
VF7240	0.181816864
VF7250	0.182250524
VF7320	0.187135005
VF7330	0.187750483
VF7340	0.188354862
VF7350	0.186930603
VF7360	0.184379625
VF7600	0.177274346
VF7610	0.177274346
VF7810	0.19065665
VF7820	0.190098226
VF7850	0.174714828
VF7860	0.174714828
VF7870	0.174488199
VF7880	0.174714828
VF7890	0.176072776
VF7900	0.176304817
VF7910	0.176925576
VF7920	0.176925576
VF9210	0.176524174
VF9230	0.176072776
VF9240	0.174488199
VF9250	0.176072776
GH5130	0.12527771
GH5140	0.12527771
GH5150	0.12527771
GH5160	0.12527771
GH5170	0.12527771
FH5090	0.108907554
FH5100	0.108907554
FH5110	0.108907554
FH5190	0.108907554
FH5140	0.10760269
FH5150	0.10760269
FH5040	0.121818674
FH5050	0.121818674
FH5060	0.121818674
FH5070	0.121818674
FH5080	0.121818674
