Scenario 453	
ID	PGA_Soil_g
H4000	0.570581853
H4180	0.385365093
H4060	0.648419499
H4130	0.552916288
H4080	0.527570486
H4070	0.541823208
CC4360	0.39778638
H4140	0.466699214
CC4060	0.319642413
CC4070	0.319642413
CC4080	0.319642413
CC4090	0.319642413
CC4100	0.319642413
CC4110	0.316518655
CC4140	0.313784802
CC4150	0.31688799
CC4160	0.31688799
CC4370	0.319642413
CC4380	0.288687015
CC4460	0.31688799
CC4470	0.31688799
CC4480	0.31688799
MW4210	0.170540358
MW4220	0.16954359
MW4190	0.197658288
MW4200	0.196491575
CC4760	0.197658288
HP4110	0.099878021
GH4010	0.140140964
GH4040	0.13030623
GH4050	0.13030623
VF5300	0.19310025
VF5310	0.193700051
VF4150	0.201854372
ST4090	0.120122868
ST4100	0.120976442
ST4110	0.120976442
ST4120	0.120400067
ST4130	0.120400067
VF5420	0.156496096
VF5430	0.157798672
VF5440	0.157798672
VF5450	0.157798672
VF5460	0.157798672
VF5470	0.157940686
VF5480	0.1592664
VF5490	0.1592664
VF5500	0.1592664
VF5510	0.159401941
VF5520	0.159401941
VF5580	0.1592664
VF4000	0.099598834
VF4280	0.099598834
VF4290	0.09959389
VF4300	0.09959389
VF5690	0.09959389
VF5700	0.09959389
VF4010	0.100191996
GH4140	0.084627107
VF4070	0.178967845
VF4080	0.180173087
VF4090	0.178555274
VF4100	0.181864262
VF4110	0.182553232
VF4120	0.182553232
VF4130	0.182553232
VF4200	0.179058659
VF4210	0.179058659
VF4220	0.180556762
VF4230	0.180556762
VF4250	0.181287062
VF4260	0.180493927
VF4610	0.175655031
VF4620	0.177241445
VF4630	0.178501534
VF4640	0.178134966
VF4650	0.179756927
VF4660	0.181006849
VF4760	0.164450145
VF4770	0.164450145
VF4780	0.164269865
VF4790	0.165692353
VF4800	0.166936636
VF4810	0.166936636
VF4820	0.166936636
VF4830	0.166936636
VF4840	0.168182433
VF4850	0.168182433
VF4860	0.168182433
VF4870	0.169663095
VF4880	0.169429231
VF4890	0.169429231
VF4900	0.170927751
VF4910	0.175299346
VF4920	0.175299346
VF4930	0.173765171
VF4940	0.173424542
VF4950	0.173733497
VF4960	0.176169872
VF4970	0.175788713
VF4980	0.175788713
VF5010	0.173169255
VF5020	0.174413264
VF5030	0.174413264
VF5040	0.174720633
VF5050	0.174720633
VF5060	0.174413264
VF5530	0.160751462
VF5570	0.164450145
VF5600	0.17936846
VF5620	0.175299346
VF5630	0.181006849
VF5750	0.173169255
VF5760	0.174720633
VF5770	0.174720633
VF5780	0.174413264
VF5790	0.175395942
VF5800	0.175317919
VF5810	0.174094665
VF5830	0.174413264
VF5870	0.175016153
VF4180	0.130781364
VF4020	0.182164907
VF4030	0.180849063
VF4040	0.181405354
VF4050	0.180133152
VF4060	0.180849063
VF4380	0.188867676
VF4390	0.188867676
VF4400	0.188867676
VF4410	0.188867676
VF4420	0.188867676
VF4430	0.188867676
VF4440	0.188867676
VF4450	0.188867676
VF4460	0.188867676
VF4470	0.188867676
VF4480	0.188867676
VF4490	0.188867676
VF4500	0.188867676
VF4510	0.188867676
VF4520	0.188867676
VF4530	0.188867676
VF4540	0.188867676
VF4550	0.188867676
VF4560	0.188867676
VF4570	0.188867676
VF4580	0.188867676
VF4590	0.188144016
VF4600	0.188144016
VF4670	0.182250524
VF4680	0.183487093
VF4690	0.183487093
VF4700	0.184715629
VF4710	0.184379625
VF4720	0.186641443
VF4730	0.188354862
VF4740	0.187750483
VF4750	0.187135005
VF4990	0.177274346
VF5000	0.177274346
VF5280	0.19065665
VF5290	0.190098226
VF5340	0.174714828
VF5350	0.174714828
VF5360	0.174488199
VF5370	0.174714828
VF5380	0.176072776
VF5390	0.176304817
VF5400	0.176925576
VF5410	0.176925576
VF5590	0.188947773
VF5610	0.185045898
VF5820	0.176524174
VF5840	0.176072776
VF5850	0.174488199
VF5860	0.176072776
GH4090	0.127785063
VF5100	0.127847517
CC4050	0.319642413
CC4130	0.313784802
VF5880	0.09732601
