Scenario 189	
ID	PGA_Soil_g
H4000	0.15106357
H4180	0.15239499
H4060	0.1329276
H4130	0.14707198
H4080	0.13332613
H4070	0.13365214
CC4360	0.15533995
H4140	0.14519428
CC4060	0.18313603
CC4070	0.18313603
CC4080	0.18313603
CC4090	0.18313603
CC4100	0.18313603
CC4110	0.18248297
CC4140	0.20349865
CC4150	0.2042846
CC4160	0.2042846
CC4370	0.18313603
CC4380	0.17922864
CC4460	0.2042846
CC4470	0.2042846
CC4480	0.2042846
MW4210	0.19485178
MW4220	0.193847
MW4190	0.22312448
MW4200	0.22197742
CC4760	0.22312448
HP4110	0.12978463
GH4010	0.39609032
GH4040	0.43045137
GH4050	0.43045137
VF5300	0.24296444
VF5310	0.24446665
VF4150	0.23668424
ST4090	0.23562995
ST4100	0.23504853
ST4110	0.23504853
ST4120	0.2373679
ST4130	0.2373679
VF5420	0.3145649
VF5430	0.31319955
VF5440	0.31319955
VF5450	0.31319955
VF5460	0.31319955
VF5470	0.3157289
VF5480	0.31432762
VF5490	0.31432762
VF5500	0.31432762
VF5510	0.31685528
VF5520	0.31685528
VF5580	0.31432762
VF4000	0.30800954
VF4280	0.30800954
VF4290	0.30482101
VF4300	0.30482101
VF5690	0.30482101
VF5700	0.30482101
VF4010	0.33574827
GH4140	0.49545786
VF4070	0.26296407
VF4080	0.26014702
VF4090	0.26120506
VF4100	0.22751739
VF4110	0.22889666
VF4120	0.22889666
VF4130	0.22889666
VF4200	0.21878945
VF4210	0.21878945
VF4220	0.21806814
VF4230	0.21806814
VF4250	0.21608514
VF4260	0.21483667
VF4610	0.27365657
VF4620	0.27250119
VF4630	0.26948756
VF4640	0.26765343
VF4650	0.26653529
VF4660	0.26364245
VF4760	0.30394921
VF4770	0.30394921
VF4780	0.30162339
VF4790	0.30028447
VF4800	0.29670011
VF4810	0.29670011
VF4820	0.29670011
VF4830	0.29670011
VF4840	0.29319361
VF4850	0.29319361
VF4860	0.29319361
VF4870	0.29190248
VF4880	0.28976231
VF4890	0.28976231
VF4900	0.28849542
VF4910	0.28266854
VF4920	0.28266854
VF4930	0.27289105
VF4940	0.27099252
VF4950	0.28391538
VF4960	0.26693228
VF4970	0.26511427
VF4980	0.26511427
VF5010	0.2798967
VF5020	0.27674448
VF5030	0.27674448
VF5040	0.27869911
VF5050	0.27869911
VF5060	0.27674448
VF5530	0.31541714
VF5570	0.30394921
VF5600	0.26474081
VF5620	0.28266854
VF5630	0.26364245
VF5750	0.2798967
VF5760	0.27869911
VF5770	0.27869911
VF5780	0.27674448
VF5790	0.26331521
VF5800	0.27176004
VF5810	0.27480861
VF5830	0.27674448
VF5870	0.28067356
VF4180	0.36837151
VF4020	0.26901327
VF4030	0.27202233
VF4040	0.26541581
VF4050	0.26834733
VF4060	0.27202233
VF4380	0.22918536
VF4390	0.22918536
VF4400	0.22918536
VF4410	0.22918536
VF4420	0.22918536
VF4430	0.22918536
VF4440	0.22918536
VF4450	0.22918536
VF4460	0.22918536
VF4470	0.22918536
VF4480	0.22918536
VF4490	0.22918536
VF4500	0.22918536
VF4510	0.22918536
VF4520	0.22918536
VF4530	0.22918536
VF4540	0.22918536
VF4550	0.22918536
VF4560	0.22918536
VF4570	0.22918536
VF4580	0.22918536
VF4590	0.22782232
VF4600	0.22782232
VF4670	0.26080712
VF4680	0.25802754
VF4690	0.25802754
VF4700	0.25530211
VF4710	0.24222957
VF4720	0.24281906
VF4730	0.24187995
VF4740	0.24038463
VF4750	0.23890327
VF4990	0.30155413
VF5000	0.30155413
VF5280	0.24799744
VF5290	0.24644942
VF5340	0.29220779
VF5350	0.29220779
VF5360	0.29010264
VF5370	0.29220779
VF5380	0.28877939
VF5390	0.29085838
VF5400	0.29721443
VF5410	0.29721443
VF5590	0.24338929
VF5610	0.22592892
VF5820	0.29295764
VF5840	0.28877939
VF5850	0.29010264
VF5860	0.28877939
GH4090	0.4049027
VF5100	0.39842699
CC4050	0.18313603
CC4130	0.20349865
VF5880	0.3494698
