Scenario 120	
ID	PGA_Soil_g
H5000	0.18708981
H5140	0.14578205
H5130	0.14578205
H5120	0.14578205
H5110	0.14578205
H5100	0.14578205
H5090	0.14578205
H5080	0.14365955
H5070	0.14365955
H5060	0.14365955
H5050	0.13860064
H5040	0.13860064
H5030	0.13860064
H5020	0.13860064
H5010	0.13860064
H5180	0.16240082
H5170	0.16240082
H5160	0.17179086
H5150	0.17167961
H5220	0.13860064
H5230	0.16240082
CC5000	0.29010558
CC5010	0.29010558
CC5020	0.29010558
CC5040	0.29010558
CC5240	0.29010558
CC5050	0.32433142
CC5060	0.32433142
CC5070	0.32433142
CC5080	0.32433142
CC5090	0.32433142
CC5100	0.32433142
CC5110	0.32433142
CC5120	0.32507511
CC5140	0.31349888
CC5150	0.31349888
CC5160	0.31349888
CC5170	0.31349888
CC5180	0.31113689
CC5190	0.31113689
CC5230	0.32433142
CC5250	0.31113689
CC5260	0.31113689
CC5270	0.31113689
SM5460	0.23177068
SM5470	0.23177068
SM5480	0.23177068
SM5530	0.23177068
SY5000	0.17076808
SY5010	0.17076808
SY5020	0.17076808
SY5030	0.17076808
SY5080	0.17720582
SY5090	0.17720582
SY5100	0.17720582
SY5110	0.17076808
SM5300	0.24465296
SM5310	0.24465296
SM5320	0.24465296
MW5110	0.75389785
MW5120	0.75450891
MW5130	0.75450891
MW5240	0.62509471
MW5250	0.62509471
MW5260	0.62509471
MW5270	0.62509471
MW5280	0.62509471
HH5070	0.48082548
HH5080	0.48082548
HH5090	0.48082548
HH5140	0.48082548
SM5350	0.29441279
SM5360	0.29441279
SM5370	0.29441279
SM5380	0.29441279
SM5420	0.32495955
SM5430	0.32495955
SM5440	0.32495955
SY5040	0.17817276
SY5050	0.17817276
SY5060	0.17817276
SY5070	0.17817276
SM5080	0.34357576
SM5090	0.34357576
SM5100	0.34357576
SM5110	0.34357576
SM5120	0.34357576
SM5130	0.34357576
SM5140	0.34357576
SM5190	0.32528054
SM5200	0.32528054
SM5210	0.32528054
SM5220	0.32528054
CC5200	0.70432121
CC5210	0.70432121
CC5220	0.70432121
MW5000	0.70432121
MW5010	0.70432121
MW5020	0.70432121
MW5030	0.67624873
MW5040	0.67624873
MW5050	0.68075526
MW5060	0.68075526
MW5140	0.63726962
MW5150	0.63726962
MW5160	0.63726962
HP5180	0.65713722
HP5190	0.63726962
HP5200	0.63726962
MW5070	0.79533094
MW5080	0.79533094
MW5090	0.79533094
MW5100	0.79533094
MW5190	0.75794202
MW5200	0.75059211
HP5140	0.63630933
HP5150	0.63720757
HP5160	0.63630933
HP5170	0.63630933
HH5000	0.42785672
HH5010	0.42785672
HH5020	0.42785672
HH5030	0.42785672
HH5040	0.42785672
HH5050	0.42785672
HH5060	0.42785672
HH5130	0.42637819
HH5150	0.42637819
MW5170	0.73136404
MW5180	0.73794806
CC5280	0.73794806
CC5290	0.73794806
SM5230	0.25336913
SM5240	0.25336913
SM5250	0.25336913
SM5330	0.20707793
SM5340	0.20707793
HH5100	0.44125331
HH5110	0.44125331
HH5120	0.4382599
SM5000	0.3011324
SM5010	0.3011324
SM5020	0.3011324
SM5490	0.3011324
SM5260	0.29798276
SM5270	0.25706758
SM5280	0.25706758
SM5290	0.25706758
SM5450	0.25706758
MW5210	0.85012156
MW5220	0.85012156
MW5230	0.85012156
HP5050	0.85012156
HP5060	0.85012156
HP5000	0.74550974
HP5010	0.74550974
SM5070	0.3147109
SM5150	0.27202626
SM5160	0.27202626
SM5170	0.27202626
SM5180	0.27202626
SM5390	0.27548332
SM5400	0.27548332
SM5410	0.27548332
EH5350	0.27548332
EH5360	0.27548332
EH5370	0.27548332
SM5030	0.23855406
SM5040	0.23855406
SM5050	0.23855406
SM5060	0.23855406
EH5000	0.22083393
EH5010	0.22083393
EH5020	0.22083393
EH5030	0.22083393
EH5040	0.22083393
EH5050	0.22083393
EH5060	0.22083393
EH5210	0.21852506
SM5500	0.23855406
SM5510	0.23855406
EH5070	0.1762886
EH5080	0.1762886
EH5090	0.1762886
EH5100	0.1762886
EH5110	0.1762886
EH5120	0.1762886
EH5130	0.1762886
EH5140	0.1762886
EH5520	0.1762886
HP5090	0.84458417
HP5100	0.84458417
HP5110	0.84458417
HP5120	0.84458417
HP5130	0.84458417
EH5150	0.19754643
EH5160	0.19754643
EH5180	0.19754643
EH5220	0.19566294
EH5230	0.19566294
EH5240	0.19581873
EH5250	0.19581873
HP5070	0.82215548
HP5080	0.82215548
GH5000	0.15089838
GH5010	0.15089838
GH5020	0.15089838
GH5030	0.15089838
GH5040	0.15089838
HP5020	0.78989559
HP5030	0.78989559
HP5040	0.78989559
HP5210	0.78989559
GH5050	0.15333641
GH5060	0.15333641
GH5070	0.1525948
GH5090	0.1525948
GH5100	0.1525948
GH5110	0.1525948
GH5180	0.1525948
ST5060	0.33514599
ST5070	0.3371207
ST5080	0.3371207
ST5090	0.3371207
ST5000	0.28422095
ST5010	0.28422095
ST5020	0.28422095
ST5030	0.28422095
FH5160	0.31996299
FH5170	0.31996299
FH5180	0.31996299
EH5310	0.21378531
EH5320	0.21378531
EH5330	0.21378531
EH5340	0.21378531
EH5280	0.2115256
EH5290	0.2115256
EH5300	0.2115256
VF7830	0.40624748
VF7840	0.3981101
VF5930	0.34393104
VF5940	0.34393104
VF5950	0.34393104
ST5100	0.32581249
ST5110	0.32581249
ST5120	0.32581249
ST5130	0.32581249
ST5140	0.32581249
ST5150	0.32581249
ST5160	0.3310838
ST5170	0.3310838
ST5180	0.33630538
ST5190	0.33630538
ST5200	0.35390549
ST5210	0.35390549
ST5220	0.35390549
ST5230	0.35390549
ST5240	0.32102542
ST5250	0.32581249
ST5260	0.32102542
ST5270	0.31838375
ST5280	0.31838375
ST5320	0.32581249
ST5330	0.33630538
VF7940	0.30717167
VF7950	0.30717167
VF7960	0.30797689
VF7970	0.30986499
VF7980	0.30986499
VF7990	0.30873663
VF8000	0.30961609
VF9000	0.31137501
VF9010	0.31137501
VF9020	0.31137501
VF9030	0.31019913
VF9040	0.30986499
VF9050	0.30986499
VF9060	0.30986499
VF9070	0.30986499
VF9080	0.30986499
VF9090	0.30986499
VF9100	0.30986499
VF9110	0.30986499
FH5120	0.25883146
FH5130	0.25883146
ST5040	0.30206698
ST5050	0.30206698
VF5000	0.19511544
VF5960	0.19511544
VF5970	0.19682257
VF5980	0.19682257
VF9120	0.19682257
VF9130	0.19682257
VF5060	0.37152228
VF5071	0.38073224
VF5080	0.37784343
VF5090	0.47342008
VF5100	0.45872101
VF5120	0.45872101
VF5130	0.45872101
VF5170	0.5397743
VF5190	0.5397743
VF5200	0.54647636
VF5210	0.54647636
VF5220	0.56574696
VF5240	0.57872897
VF5900	0.31804286
VF5910	0.32285113
VF5920	0.32285113
VF7260	0.36796739
VF7270	0.3593118
VF7280	0.35673276
VF7290	0.35094949
VF7300	0.3468635
VF7310	0.3404289
VF7370	0.32712477
VF7380	0.32712477
VF7390	0.32929473
VF7400	0.33389349
VF7410	0.33859058
VF7420	0.34088983
VF7430	0.34088983
VF7440	0.3421154
VF7450	0.34812473
VF7460	0.34812473
VF7470	0.34812473
VF7480	0.34937775
VF7490	0.30480877
VF7500	0.30480877
VF7510	0.30922683
VF7520	0.31804286
VF7530	0.31804286
VF7540	0.34325455
VF7550	0.34867591
VF7560	0.31588998
VF7570	0.35988858
VF7580	0.36580503
VF7590	0.36580503
VF7620	0.32543532
VF7630	0.32776601
VF7640	0.33279673
VF7650	0.32776601
VF7660	0.32776601
VF7670	0.33279673
VF7930	0.30825453
VF9140	0.32543532
VF9150	0.32776601
VF9160	0.32776601
VF9170	0.33279673
VF9180	0.37184433
VF9190	0.34455491
VF9200	0.33795787
VF9220	0.33279673
VF7800	0.17575475
VF7790	0.17575475
VF7780	0.17575475
VF7770	0.17575475
VF7750	0.17575475
VF7740	0.17696024
VF7730	0.17776571
VF7720	0.17696024
VF7710	0.17776571
VF7700	0.17696024
VF7690	0.17776571
VF7680	0.17683337
ST5300	0.17683337
ST5310	0.17702367
VF5010	0.34997388
VF5020	0.34209545
VF5030	0.36181616
VF5040	0.35342209
VF5050	0.34209545
VF5990	0.45026192
VF7000	0.45026192
VF7010	0.45026192
VF7020	0.45026192
VF7030	0.45026192
VF7040	0.45026192
VF7050	0.45026192
VF7060	0.45026192
VF7070	0.45026192
VF7080	0.45026192
VF7090	0.45026192
VF7100	0.45026192
VF7110	0.45026192
VF7120	0.45026192
VF7130	0.45026192
VF7140	0.45026192
VF7150	0.45026192
VF7160	0.45026192
VF7170	0.45026192
VF7180	0.45026192
VF7190	0.45026192
VF7200	0.46059391
VF7210	0.46059391
VF7220	0.39584252
VF7230	0.38622158
VF7240	0.38352864
VF7250	0.37693269
VF7320	0.43524139
VF7330	0.42647979
VF7340	0.41792492
VF7350	0.41096166
VF7360	0.4202419
VF7600	0.32578902
VF7610	0.32578902
VF7810	0.38598039
VF7820	0.39352533
VF7850	0.34765063
VF7860	0.34765063
VF7870	0.30231861
VF7880	0.34765063
VF7890	0.30421929
VF7900	0.34977467
VF7910	0.33504762
VF7920	0.33504762
VF9210	0.34474398
VF9230	0.30421929
VF9240	0.30231861
VF9250	0.30421929
GH5130	0.2271858
GH5140	0.2271858
GH5150	0.2271858
GH5160	0.2271858
GH5170	0.2271858
FH5090	0.21092531
FH5100	0.21092531
FH5110	0.21092531
FH5190	0.21092531
FH5140	0.19540966
FH5150	0.19540966
FH5040	0.2266892
FH5050	0.2266892
FH5060	0.2266892
FH5070	0.2266892
FH5080	0.2266892
