
   
   
      Number of Pipes ................... 9
      Number of Nodes ................... 10
      Number of Tanks ................... 2
      Number of Pumps ................... 1
      Number of Valves .................. 1
      Headloss Formula .................. Hazen-Williams
      Hydraulic Timestep ................ 1.00 hrs
      Hydraulic Accuracy ................ 0.001000
      Maximum Trials .................... 40
      Quality Analysis .................. None
      Specific Gravity .................. 1.00
      Kinematic Viscosity ............... 1.10e-005 sq ft/sec
      Chemical Diffusivity .............. 1.30e-008 sq ft/sec
      Vapor Pressure .................... 8.40e-001 ft
      Total Duration .................... 0.00 hrs
   