Scenario 446	
ID	PGA_Soil_g
H4000	0.83144182
H4180	0.498915464
H4060	0.789774776
H4130	0.484599262
H4080	0.74398154
H4070	0.748660445
CC4360	0.376045458
H4140	0.464845568
CC4060	0.306349003
CC4070	0.306349003
CC4080	0.306349003
CC4090	0.306349003
CC4100	0.306349003
CC4110	0.305707097
CC4140	0.303858402
CC4150	0.30358839
CC4160	0.30358839
CC4370	0.306349003
CC4380	0.340465569
CC4460	0.30358839
CC4470	0.30358839
CC4480	0.30358839
MW4210	0.188714182
MW4220	0.188550377
MW4190	0.217644668
MW4200	0.217467141
CC4760	0.217644668
HP4110	0.119580828
GH4010	0.122633168
GH4040	0.117371397
GH4050	0.117371397
VF5300	0.189789999
VF5310	0.189625788
VF4150	0.197230971
ST4090	0.129574311
ST4100	0.130357727
ST4110	0.130357727
ST4120	0.129554169
ST4130	0.129554169
VF5420	0.153851616
VF5430	0.154792452
VF5440	0.154792452
VF5450	0.154792452
VF5460	0.154792452
VF5470	0.154587901
VF5480	0.155535948
VF5490	0.155535948
VF5500	0.155535948
VF5510	0.155322886
VF5520	0.155322886
VF5580	0.155535948
VF4000	0.099944571
VF4280	0.099944571
VF4290	0.100081497
VF4300	0.100081497
VF5690	0.100081497
VF5700	0.100081497
VF4010	0.099286097
GH4140	0.079620861
VF4070	0.175717592
VF4080	0.177114093
VF4090	0.175890315
VF4100	0.188184369
VF4110	0.18813926
VF4120	0.18813926
VF4130	0.18813926
VF4200	0.189655411
VF4210	0.189655411
VF4220	0.19107691
VF4230	0.19107691
VF4250	0.192494464
VF4260	0.192460477
VF4610	0.171426237
VF4620	0.172587776
VF4630	0.173961222
VF4640	0.174152148
VF4650	0.175350058
VF4660	0.17675432
VF4760	0.159877086
VF4770	0.159877086
VF4780	0.160088968
VF4790	0.161102712
VF4800	0.16234256
VF4810	0.16234256
VF4820	0.16234256
VF4830	0.16234256
VF4840	0.163596714
VF4850	0.163596714
VF4860	0.163596714
VF4870	0.164654696
VF4880	0.164865232
VF4890	0.164865232
VF4900	0.16593976
VF4910	0.169462299
VF4920	0.169462299
VF4930	0.17046603
VF4940	0.170646465
VF4950	0.168344188
VF4960	0.173149395
VF4970	0.173322678
VF4980	0.173322678
VF5010	0.168757737
VF5020	0.170084608
VF5030	0.170084608
VF5040	0.169883692
VF5050	0.169883692
VF5060	0.170084608
VF5530	0.156277919
VF5570	0.159877086
VF5600	0.175537491
VF5620	0.169462299
VF5630	0.17675432
VF5750	0.168757737
VF5760	0.169883692
VF5770	0.169883692
VF5780	0.170084608
VF5790	0.173488891
VF5800	0.171616876
VF5810	0.170278764
VF5830	0.170084608
VF5870	0.169676208
VF4180	0.130540907
VF4020	0.176158547
VF4030	0.174743903
VF4040	0.176563179
VF4050	0.175155318
VF4060	0.174743903
VF4380	0.192270374
VF4390	0.192270374
VF4400	0.192270374
VF4410	0.192270374
VF4420	0.192270374
VF4430	0.192270374
VF4440	0.192270374
VF4450	0.192270374
VF4460	0.192270374
VF4470	0.192270374
VF4480	0.192270374
VF4490	0.192270374
VF4500	0.192270374
VF4510	0.192270374
VF4520	0.192270374
VF4530	0.192270374
VF4540	0.192270374
VF4550	0.192270374
VF4560	0.192270374
VF4570	0.192270374
VF4580	0.192270374
VF4590	0.192338741
VF4600	0.192338741
VF4670	0.178174067
VF4680	0.179609299
VF4690	0.179609299
VF4700	0.181060052
VF4710	0.184721291
VF4720	0.185942125
VF4730	0.187306082
VF4740	0.18743614
VF4750	0.187556958
VF4990	0.167258739
VF5000	0.167258739
VF5280	0.186693978
VF5290	0.186860859
VF5340	0.167442691
VF5350	0.167442691
VF5360	0.167677212
VF5370	0.167442691
VF5380	0.168783009
VF5390	0.168544245
VF5400	0.167790842
VF5410	0.167790842
VF5590	0.187166822
VF5610	0.191005123
VF5820	0.168299317
VF5840	0.168783009
VF5850	0.167677212
VF5860	0.168783009
GH4090	0.12757597
VF5100	0.127775025
CC4050	0.306349003
CC4130	0.303858402
VF5880	0.097106856
