Scenario 12	
ID	PGA_Soil_g	
H4000	0.21651495
H4180	0.27962931
H4060	0.19898273
H4130	0.21499933
H4080	0.21352064
H4070	0.21196228
CC4360	0.23742679
H4140	0.23638766
CC4060	0.32509404
CC4070	0.32509404
CC4080	0.32509404
CC4090	0.32509404
CC4100	0.32509404
CC4110	0.32927055
CC4140	0.2759769
CC4150	0.2728782
CC4160	0.2728782
CC4370	0.32509404
CC4380	0.31139914
CC4460	0.2728782
CC4470	0.2728782
CC4480	0.2728782
MW4210	0.27118852
MW4220	0.27395745
MW4190	0.29084448
MW4200	0.29383412
CC4760	0.29084448
HP4110	0.23054916
GH4010	0.11081759
GH4040	0.10957875
GH4050	0.10957875
VF5300	0.23744061
VF5310	0.23561234
VF4150	0.21414895
ST4090	0.18357799
ST4100	0.18466444
ST4110	0.18466444
ST4120	0.18257062
ST4130	0.18257062
VF5420	0.18350803
VF5430	0.18427796
VF5440	0.18427796
VF5450	0.18427796
VF5460	0.18427796
VF5470	0.18319112
VF5480	0.18394878
VF5490	0.18394878
VF5500	0.18394878
VF5510	0.18285859
VF5520	0.18285859
VF5580	0.18394878
VF4000	0.11678448
VF4280	0.11678448
VF4290	0.1173582
VF4300	0.1173582
VF5690	0.1173582
VF5700	0.1173582
VF4010	0.1127333
GH4140	0.07921507
VF4070	0.21711562
VF4080	0.21964145
VF4090	0.21864355
VF4100	0.22601638
VF4110	0.22423333
VF4120	0.22423333
VF4130	0.22423333
VF4200	0.2385243
VF4210	0.2385243
VF4220	0.23993008
VF4230	0.23993008
VF4250	0.24335474
VF4260	0.24539549
VF4610	0.20842733
VF4620	0.20933788
VF4630	0.21169758
VF4640	0.21316223
VF4650	0.21410539
VF4660	0.21656272
VF4760	0.18928925
VF4770	0.18928925
VF4780	0.19046012
VF4790	0.19125623
VF4800	0.19326063
VF4810	0.19326063
VF4820	0.19326063
VF4830	0.19326063
VF4840	0.19530348
VF4850	0.19530348
VF4860	0.19530348
VF4870	0.19612601
VF4880	0.19738578
VF4890	0.19738578
VF4900	0.19822217
VF4910	0.20205693
VF4920	0.20205693
VF4930	0.20891395
VF4940	0.21032565
VF4950	0.20120864
VF4960	0.21367888
VF4970	0.21515431
VF4980	0.21515431
VF5010	0.20388007
VF5020	0.20613108
VF5030	0.20613108
VF5040	0.20475984
VF5050	0.20475984
VF5060	0.20613108
VF5530	0.18360388
VF5570	0.18928925
VF5600	0.21560292
VF5620	0.20205693
VF5630	0.21656272
VF5750	0.20388007
VF5760	0.20475984
VF5770	0.20475984
VF5780	0.20613108
VF5790	0.21664412
VF5800	0.2098428
VF5810	0.20751574
VF5830	0.20613108
VF5870	0.20340185
VF4180	0.14938751
VF4020	0.21206152
VF4030	0.20970309
VF4040	0.21504683
VF4050	0.21262293
VF4060	0.20970309
VF4380	0.224169
VF4390	0.224169
VF4400	0.224169
VF4410	0.224169
VF4420	0.224169
VF4430	0.224169
VF4440	0.224169
VF4450	0.224169
VF4460	0.224169
VF4470	0.224169
VF4480	0.224169
VF4490	0.224169
VF4500	0.224169
VF4510	0.224169
VF4520	0.224169
VF4530	0.224169
VF4540	0.224169
VF4550	0.224169
VF4560	0.224169
VF4570	0.224169
VF4580	0.224169
VF4590	0.22599082
VF4600	0.22599082
VF4670	0.21907105
VF4680	0.22163186
VF4690	0.22163186
VF4700	0.22424664
VF4710	0.23843145
VF4720	0.23777134
VF4730	0.23890455
VF4740	0.21065519
VF4750	0.2122869
VF4990	0.19052393
VF5000	0.19052393
VF5280	0.23173127
VF5290	0.23349388
VF5340	0.19601703
VF5350	0.19601703
VF5360	0.19729629
VF5370	0.19601703
VF5380	0.19809977
VF5390	0.1968062
VF5400	0.19300004
VF5410	0.19300004
VF5590	0.23708072
VF5610	0.22847204
VF5820	0.19552517
VF5840	0.19809977
VF5850	0.19729629
VF5860	0.19809977
GH4090	0.14432852
VF5100	0.1450018
CC4050	0.32509404
CC4130	0.2759769
VF5880	0.11057357
