Scenario 162	
ID	PGA_Soil_g
H6060	0.37631214
H6050	0.37631214
CC6010	0.64558804
CC7180	0.64558804
CC7300	0.67934352
H6070	0.28972783
H6030	0.3243884
H6230	0.56368619
H6200	0.47671178
H6170	0.44082472
H6130	0.43249442
H6120	0.39430056
H6020	0.4224615
H6010	0.4224615
H6000	0.4224615
WS6220	0.45492503
WS6260	0.63700777
WS6510	0.69280964
WS6920	0.59455514
CC6070	0.65708071
CC6130	0.84103638
CC6160	0.78580058
CC6200	0.69006163
CC6540	0.89186418
WS6080	0.68098795
WS6490	0.59755027
WS7010	0.82289332
WS7120	0.82289332
WS6400	0.47391078
WS6470	0.70895684
WS6620	0.67250222
WS6630	0.67250222
WS6640	0.67250222
WS6780	0.49338587
CC6640	0.87520894
CC6650	0.86161029
WS6900	0.8707695
WS6130	0.62812847
WS6310	0.62812847
WS6360	0.5916521
WS6180	0.62805885
CC7090	0.39545747
CC6460	0.48461154
CC6420	0.58970916
WS6890	0.7854172
SY6000	0.40029234
SY6030	0.36974279
SY6040	0.40029234
SY6100	0.37634919
SY6180	0.35671866
SY6200	0.35671866
SY6310	0.39064713
WS7110	0.69869041
WS7150	0.69869041
WS6010	0.56428909
WS6540	0.50844234
WS6550	0.50844234
WS6560	0.50844234
WS6590	0.50844234
MW6140	0.35736093
CC6350	0.67039752
CC6390	0.63793612
CC6770	0.84137791
CC6780	0.84137791
CC7230	0.69441003
CC7240	0.69441003
CC7330	0.74767554
CC7340	0.74767554
CC7350	0.74767554
WS6250	0.74344748
WS6280	0.74071473
WS6340	0.75812495
WS6420	0.6893931
WS6660	0.87074238
WS7040	0.77490616
WS7050	0.77490616
WS7100	0.77490616
WS7070	0.77490616
WS7250	0.77490616
WS7260	0.5081619
WS6040	0.43523733
WS7160	0.45131055
SY6060	0.39291793
SY6150	0.43523733
SY6160	0.43523733
SY6170	0.43523733
SY6270	0.37796009
SY6280	0.40935601
SY6290	0.40935601
SY6320	0.43523733
SY6330	0.3652907
CC6280	0.56682605
CC6490	0.81934897
CC7290	0.75794262
WS6990	0.80787539
WS7000	0.80787539
WS6100	0.52791852
CC6790	0.65947974
CC6800	0.65947974
CC6830	0.64944851
CC6860	0.6754877
CC6990	0.58335
CC7010	0.59666914
SY6120	0.32941448
SY6140	0.33515176
SY6240	0.31839214
WS6120	0.55953848
WS6190	0.59796411
WS6300	0.66707522
WS6450	0.5895139
WS6600	0.61407018
WS6680	0.58130646
WS6730	0.59574032
WS6810	0.6356622
WS6820	0.65265924
WS6840	0.5895139
WS7180	0.59307623
WS7190	0.58210048
WS7220	0.58130646
WS7230	0.58130646
WS7240	0.58130646
WS7270	0.58130646
WS7280	0.58130646
WS7290	0.58130646
WS7300	0.58130646
WS6690	0.5895139
CC6210	0.51179069
CC6250	0.46906635
CC6880	0.57006031
HH6200	0.5333668
HH6210	0.5407142
CC6030	0.57006031
CC6290	0.709885
CC7220	0.34771976
MW6100	0.34113803
MW6110	0.34113803
MW6190	0.3482664
SM6150	0.45461649
MW6160	0.33208155
MW6350	0.3413861
SM6170	0.60201746
SM6340	0.60112327
CC7040	0.36601752
MW6410	0.36090453
MW6420	0.35989002
MW6430	0.35989002
CC6940	0.45985341
HH6220	0.48258225
HH6230	0.48258225
HH6240	0.48258225
HH6280	0.44407563
MW6060	0.44407563
MW6070	0.44407563
SM6130	0.55158353
SM6140	0.55158353
SM6320	0.47753519
EH6200	0.50109106
HH6130	0.52106601
HH6180	0.54826403
SM6190	0.57234257
SM6240	0.57151866
SM6270	0.46875405
CC7210	0.36815435
HH6120	0.39178845
HH6150	0.37278369
HH6160	0.37278369
HH6000	0.36533627
MW6020	0.3446859
MW6120	0.33324654
MW6210	0.33057578
MW6230	0.3288521
MW6270	0.30176024
MW6380	0.31300973
MW6050	0.30828682
MW6240	0.30612394
MW6320	0.31943327
HP6000	0.29942514
HP6010	0.29942514
HH6030	0.41559619
HH6050	0.42067548
CC7100	0.38325377
CC7110	0.38325377
CC7380	0.38033159
WS6030	0.44246358
HH6090	0.46070887
HH6100	0.47079605
HH6110	0.47079605
VF7102	0.44490685
VF7112	0.44490685
VF7122	0.44490685
VF7132	0.44490685
HH6320	0.46973117
WS7130	0.46655044
WS7170	0.46655044
CC7360	0.54506822
SM6210	0.57915366
SM6300	0.58228499
EH6230	0.5804944
HP6050	0.30861001
HP6110	0.30861001
WS6960	0.3916177
SM6000	0.4678601
SM6010	0.4678601
SM6020	0.4678601
EH6190	0.3996158
WS7210	0.4439531
SM6100	0.46865268
EH6120	0.26571272
EH6130	0.26571272
EH6030	0.26571272
HP6090	0.29866558
HP6060	0.21716534
HP6070	0.3069505
VF6130	0.25629776
VF6140	0.25629776
VF6460	0.23792642
VF6470	0.23792642
VF6560	0.22004242
ST6000	0.19635701
VF6190	0.27930174
VF6200	0.27930174
FH6080	0.31686598
FH6110	0.31343508
FH6130	0.31469965
VF6010	0.25215898
GH7230	0.21211556
VF6150	0.23535533
VF6170	0.23535533
VF6640	0.32849045
VF6540	0.26536701
GH7370	0.18400839
VF6660	0.24661976
GH7160	0.22801517
VF6610	0.30045108
GH7200	0.23843553
GH7220	0.23843553
GH7250	0.2409531
ST6030	0.23548414
ST6060	0.24575954
ST6080	0.25029778
ST6100	0.23408098
ST6110	0.23408098
ST6120	0.23408098
VF6040	0.2668262
VF6830	0.32629133
VF6840	0.20266618
VF6240	0.34134507
VF6250	0.34134507
VF6260	0.34134507
VF6270	0.3385078
VF6280	0.3385078
VF6290	0.3385078
VF6300	0.33850404
VF6310	0.33850404
VF6370	0.33850404
VF6380	0.33850404
VF6390	0.33850404
VF6400	0.33850404
VF6850	0.33040073
VF6910	0.3468413
VF6940	0.3598119
VF6960	0.33850654
VF6970	0.36610032
GH7100	0.18967164
GH7120	0.18455098
VF6730	0.1871072
GH7020	0.18400839
GH7040	0.18400839
GH7310	0.18400839
GH7320	0.18400839
GH7330	0.18400839
GH7360	0.18400839
VF6000	0.23902685
VF6110	0.33559288
VF6930	0.40118347
VF6050	0.40406331
VF6060	0.40406331
VF6070	0.40406331
VF6430	0.24557889
VF6580	0.29764723
VF6590	0.29764723
GH7050	0.24306692
