Scenario 160	
ID	PGA_Soil_g
H6060	0.34967767
H6050	0.34967767
CC6010	0.26905797
CC7180	0.26905797
CC7300	0.27818611
H6070	0.28033013
H6030	0.28368404
H6230	0.28166163
H6200	0.29470896
H6170	0.34926977
H6130	0.30414645
H6120	0.31384767
H6020	0.35326483
H6010	0.35326483
H6000	0.35326483
WS6220	0.17345206
WS6260	0.17668675
WS6510	0.17291964
WS6920	0.17316712
CC6070	0.26719828
CC6130	0.24137788
CC6160	0.25318569
CC6200	0.26158469
CC6540	0.22617764
WS6080	0.18951763
WS6490	0.18162069
WS7010	0.20358387
WS7120	0.20358387
WS6400	0.18313134
WS6470	0.19538347
WS6620	0.18744249
WS6630	0.18744249
WS6640	0.18744249
WS6780	0.18450255
CC6640	0.18119219
CC6650	0.17064379
WS6900	0.18199753
WS6130	0.15165368
WS6310	0.15165368
WS6360	0.14835423
WS6180	0.14926295
CC7090	0.19647838
CC6460	0.20058744
CC6420	0.16877486
WS6890	0.1501658
SY6000	0.12594538
SY6030	0.11898486
SY6040	0.12594538
SY6100	0.11819571
SY6180	0.11738374
SY6200	0.11738374
SY6310	0.11934315
WS7110	0.13884535
WS7150	0.13884535
WS6010	0.13353959
WS6540	0.12793763
WS6550	0.12793763
WS6560	0.12793763
WS6590	0.12793763
MW6140	0.18972232
CC6350	0.24915707
CC6390	0.23478756
CC6770	0.18887461
CC6780	0.18887461
CC7230	0.24205202
CC7240	0.24205202
CC7330	0.22617934
CC7340	0.22617934
CC7350	0.22617934
WS6250	0.19096062
WS6280	0.16278975
WS6340	0.16535951
WS6420	0.16628232
WS6660	0.17492251
WS7040	0.17541684
WS7050	0.17541684
WS7100	0.17541684
WS7070	0.17541684
WS7250	0.17541684
WS7260	0.12696565
WS6040	0.12421793
WS7160	0.12607281
SY6060	0.12177026
SY6150	0.12421793
SY6160	0.12421793
SY6170	0.12421793
SY6270	0.12109058
SY6280	0.12295292
SY6290	0.12295292
SY6320	0.12421793
SY6330	0.10302672
CC6280	0.2219739
CC6490	0.17064474
CC7290	0.18124645
WS6990	0.16851803
WS7000	0.16851803
WS6100	0.14688404
CC6790	0.15204675
CC6800	0.15204675
CC6830	0.15108215
CC6860	0.14823718
CC6990	0.1542691
CC7010	0.1536331
SY6120	0.09964358
SY6140	0.10050103
SY6240	0.09868188
WS6120	0.12968232
WS6190	0.13218361
WS6300	0.1360554
WS6450	0.13081894
WS6600	0.13200828
WS6680	0.13016475
WS6730	0.13058032
WS6810	0.13328792
WS6820	0.13466404
WS6840	0.13081894
WS7180	0.13075025
WS7190	0.13014853
WS7220	0.13016475
WS7230	0.13016475
WS7240	0.13016475
WS7270	0.13016475
WS7280	0.13016475
WS7290	0.13016475
WS7300	0.13016475
WS6690	0.13081894
CC6210	0.15804738
CC6250	0.17158535
CC6880	0.1549041
HH6200	0.15679709
HH6210	0.1578669
CC6030	0.1549041
CC6290	0.16245527
CC7220	0.18119288
MW6100	0.18744667
MW6110	0.18744667
MW6190	0.18482247
SM6150	0.12386681
MW6160	0.16145465
MW6350	0.15783708
SM6170	0.0959352
SM6340	0.09671284
CC7040	0.17100441
MW6410	0.16875237
MW6420	0.16830563
MW6430	0.16830563
CC6940	0.16654392
HH6220	0.16495599
HH6230	0.16495599
HH6240	0.16495599
HH6280	0.16772949
MW6060	0.16772949
MW6070	0.16772949
SM6130	0.11143425
SM6140	0.11143425
SM6320	0.10613711
EH6200	0.10794921
HH6130	0.09877708
HH6180	0.0975913
SM6190	0.09524643
SM6240	0.09562357
SM6270	0.11654236
CC7210	0.15198858
HH6120	0.14355372
HH6150	0.14898046
HH6160	0.14898046
HH6000	0.10301882
MW6020	0.14951967
MW6120	0.15434202
MW6210	0.15320737
MW6230	0.15742642
MW6270	0.15682226
MW6380	0.16011675
MW6050	0.1744066
MW6240	0.16955416
MW6320	0.17342268
HP6000	0.17189685
HP6010	0.17189685
HH6030	0.13626721
HH6050	0.13583416
CC7100	0.17198069
CC7110	0.17198069
CC7380	0.17221202
WS6030	0.10473266
HH6090	0.12974606
HH6100	0.13262994
HH6110	0.13262994
VF7102	0.12170721
VF7112	0.12170721
VF7122	0.12170721
VF7132	0.12170721
HH6320	0.13786371
WS7130	0.10484179
WS7170	0.10484179
CC7360	0.11029899
SM6210	0.11264867
SM6300	0.11310568
EH6230	0.11187055
HP6050	0.1484137
HP6110	0.1484137
WS6960	0.11502036
SM6000	0.12285779
SM6010	0.12285779
SM6020	0.12285779
EH6190	0.11588007
WS7210	0.1190647
SM6100	0.12092878
EH6120	0.09481936
EH6130	0.09481936
EH6030	0.09481936
HP6090	0.15438778
HP6060	0.10227569
HP6070	0.15922707
VF6130	0.10382336
VF6140	0.10382336
VF6460	0.10009742
VF6470	0.10009742
VF6560	0.09625222
ST6000	0.07782916
VF6190	0.11256285
VF6200	0.11256285
FH6080	0.12072811
FH6110	0.11954995
FH6130	0.11780915
VF6010	0.10159482
GH7230	0.09438906
VF6150	0.09885972
VF6170	0.09885972
VF6640	0.11253487
VF6540	0.10373021
GH7370	0.07118971
VF6660	0.10111804
GH7160	0.09806702
VF6610	0.10950263
GH7200	0.100665
GH7220	0.100665
GH7250	0.10134974
ST6030	0.1008275
ST6060	0.10531971
ST6080	0.10664042
ST6100	0.10330614
ST6110	0.10330614
ST6120	0.10330614
VF6040	0.10842541
VF6830	0.11707187
VF6840	0.07655081
VF6240	0.1269295
VF6250	0.1269295
VF6260	0.1269295
VF6270	0.1266062
VF6280	0.1266062
VF6290	0.1266062
VF6300	0.12696955
VF6310	0.12696955
VF6370	0.12696955
VF6380	0.12696955
VF6390	0.12696955
VF6400	0.12696955
VF6850	0.11731045
VF6910	0.1199891
VF6940	0.13188859
VF6960	0.12672732
VF6970	0.13259481
GH7100	0.07290029
GH7120	0.07198307
VF6730	0.07169291
GH7020	0.07118971
GH7040	0.07118971
GH7310	0.07118971
GH7320	0.07118971
GH7330	0.07118971
GH7360	0.07118971
VF6000	0.10249857
VF6110	0.12404256
VF6930	0.14106992
VF6050	0.12778215
VF6060	0.12778215
VF6070	0.12778215
VF6430	0.10132403
VF6580	0.10900592
VF6590	0.10900592
GH7050	0.10092649
