Scenario 167	
ID	PGA_Soil_g
H5000	0.19709698
H5140	0.15891984
H5130	0.15891984
H5120	0.15891984
H5110	0.15891984
H5100	0.15891984
H5090	0.15891984
H5080	0.15563326
H5070	0.15563326
H5060	0.15563326
H5050	0.15222061
H5040	0.15222061
H5030	0.15222061
H5020	0.15222061
H5010	0.15222061
H5180	0.16939825
H5170	0.16939825
H5160	0.17961137
H5150	0.17928298
H5220	0.15222061
H5230	0.16939825
CC5000	0.21755482
CC5010	0.21755482
CC5020	0.21755482
CC5040	0.21755482
CC5240	0.21755482
CC5050	0.26096953
CC5060	0.26096953
CC5070	0.26096953
CC5080	0.26096953
CC5090	0.26096953
CC5100	0.26096953
CC5110	0.26096953
CC5120	0.26269059
CC5140	0.25358902
CC5150	0.25358902
CC5160	0.25358902
CC5170	0.25358902
CC5180	0.25171437
CC5190	0.25171437
CC5230	0.26096953
CC5250	0.25171437
CC5260	0.25171437
CC5270	0.25171437
SM5460	0.18585891
SM5470	0.18585891
SM5480	0.18585891
SM5530	0.18585891
SY5000	0.13934834
SY5010	0.13934834
SY5020	0.13934834
SY5030	0.13934834
SY5080	0.14251607
SY5090	0.14251607
SY5100	0.14251607
SY5110	0.13934834
SM5300	0.19167463
SM5310	0.19167463
SM5320	0.19167463
MW5110	0.3658502
MW5120	0.37241342
MW5130	0.37241342
MW5240	0.31973975
MW5250	0.31973975
MW5260	0.31973975
MW5270	0.31973975
MW5280	0.31973975
HH5070	0.30393323
HH5080	0.30393323
HH5090	0.30393323
HH5140	0.30393323
SM5350	0.1737718
SM5360	0.1737718
SM5370	0.1737718
SM5380	0.1737718
SM5420	0.18193239
SM5430	0.18193239
SM5440	0.18193239
SY5040	0.14300492
SY5050	0.14300492
SY5060	0.14300492
SY5070	0.14300492
SM5080	0.2158407
SM5090	0.2158407
SM5100	0.2158407
SM5110	0.2158407
SM5120	0.2158407
SM5130	0.2158407
SM5140	0.2158407
SM5190	0.20967278
SM5200	0.20967278
SM5210	0.20967278
SM5220	0.20967278
CC5200	0.29958396
CC5210	0.29958396
CC5220	0.29958396
MW5000	0.29958396
MW5010	0.29958396
MW5020	0.29958396
MW5030	0.30130202
MW5040	0.30130202
MW5050	0.30794827
MW5060	0.30794827
MW5140	0.31924798
MW5150	0.31924798
MW5160	0.31924798
HP5180	0.32395324
HP5190	0.31924798
HP5200	0.31924798
MW5070	0.36655135
MW5080	0.36655135
MW5090	0.36655135
MW5100	0.36655135
MW5190	0.31506794
MW5200	0.31383018
HP5140	0.38460819
HP5150	0.39132467
HP5160	0.38460819
HP5170	0.38460819
HH5000	0.26437643
HH5010	0.26437643
HH5020	0.26437643
HH5030	0.26437643
HH5040	0.26437643
HH5050	0.26437643
HH5060	0.26437643
HH5130	0.26539695
HH5150	0.26539695
MW5170	0.32041969
MW5180	0.32270601
CC5280	0.32270601
CC5290	0.32270601
SM5230	0.17515667
SM5240	0.17515667
SM5250	0.17515667
SM5330	0.15639374
SM5340	0.15639374
HH5100	0.2665937
HH5110	0.2665937
HH5120	0.26580027
SM5000	0.21496884
SM5010	0.21496884
SM5020	0.21496884
SM5490	0.21496884
SM5260	0.19124739
SM5270	0.17689344
SM5280	0.17689344
SM5290	0.17689344
SM5450	0.17689344
MW5210	0.36643973
MW5220	0.36643973
MW5230	0.36643973
HP5050	0.36643973
HP5060	0.36643973
HP5000	0.4058506
HP5010	0.4058506
SM5070	0.2061116
SM5150	0.20521984
SM5160	0.20521984
SM5170	0.20521984
SM5180	0.20521984
SM5390	0.20704894
SM5400	0.20704894
SM5410	0.20704894
EH5350	0.20704894
EH5360	0.20704894
EH5370	0.20704894
SM5030	0.19077871
SM5040	0.19077871
SM5050	0.19077871
SM5060	0.19077871
EH5000	0.18333441
EH5010	0.18333441
EH5020	0.18333441
EH5030	0.18333441
EH5040	0.18333441
EH5050	0.18333441
EH5060	0.18333441
EH5210	0.18202828
SM5500	0.19077871
SM5510	0.19077871
EH5070	0.15244755
EH5080	0.15244755
EH5090	0.15244755
EH5100	0.15244755
EH5110	0.15244755
EH5120	0.15244755
EH5130	0.15244755
EH5140	0.15244755
EH5520	0.15244755
HP5090	0.41681146
HP5100	0.41681146
HP5110	0.41681146
HP5120	0.41681146
HP5130	0.41681146
EH5150	0.16399104
EH5160	0.16399104
EH5180	0.16399104
EH5220	0.17028731
EH5230	0.17028731
EH5240	0.17024143
EH5250	0.17024143
HP5070	0.40932697
HP5080	0.40932697
GH5000	0.13846219
GH5010	0.13846219
GH5020	0.13846219
GH5030	0.13846219
GH5040	0.13846219
HP5020	0.40929421
HP5030	0.40929421
HP5040	0.40929421
HP5210	0.40929421
GH5050	0.13997856
GH5060	0.13997856
GH5070	0.14035863
GH5090	0.14035863
GH5100	0.14035863
GH5110	0.14035863
GH5180	0.14035863
ST5060	0.23565781
ST5070	0.23590991
ST5080	0.23590991
ST5090	0.23590991
ST5000	0.2318622
ST5010	0.2318622
ST5020	0.2318622
ST5030	0.2318622
FH5160	0.23632317
FH5170	0.23632317
FH5180	0.23632317
EH5310	0.18173869
EH5320	0.18173869
EH5330	0.18173869
EH5340	0.18173869
EH5280	0.19604189
EH5290	0.19604189
EH5300	0.19604189
VF7830	0.27905743
VF7840	0.27632938
VF5930	0.24467739
VF5940	0.24467739
VF5950	0.24467739
ST5100	0.27631938
ST5110	0.27631938
ST5120	0.27631938
ST5130	0.27631938
ST5140	0.27631938
ST5150	0.27631938
ST5160	0.28660881
ST5170	0.28660881
ST5180	0.28762132
ST5190	0.28762132
ST5200	0.30396378
ST5210	0.30396378
ST5220	0.30396378
ST5230	0.30396378
ST5240	0.27540903
ST5250	0.27631938
ST5260	0.27540903
ST5270	0.27272333
ST5280	0.27272333
ST5320	0.27631938
ST5330	0.28762132
VF7940	0.22509846
VF7950	0.22509846
VF7960	0.22585928
VF7970	0.22677962
VF7980	0.22677962
VF7990	0.22660969
VF8000	0.22717303
VF9000	0.22829972
VF9010	0.22829972
VF9020	0.22829972
VF9030	0.22811937
VF9040	0.22677962
VF9050	0.22677962
VF9060	0.22677962
VF9070	0.22677962
VF9080	0.22677962
VF9090	0.22677962
VF9100	0.22677962
VF9110	0.22677962
FH5120	0.21309819
FH5130	0.21309819
ST5040	0.28043044
ST5050	0.28043044
VF5000	0.16822674
VF5960	0.16822674
VF5970	0.16941081
VF5980	0.16941081
VF9120	0.16941081
VF9130	0.16941081
VF5060	0.2630679
VF5071	0.26569456
VF5080	0.26556
VF5090	0.31614025
VF5100	0.31280424
VF5120	0.31280424
VF5130	0.31280424
VF5170	0.3380562
VF5190	0.3380562
VF5200	0.33785668
VF5210	0.33785668
VF5220	0.3414202
VF5240	0.34534859
VF5900	0.24396891
VF5910	0.24613312
VF5920	0.24613312
VF7260	0.26074662
VF7270	0.25821123
VF7280	0.25806553
VF7290	0.25570268
VF7300	0.25445969
VF7310	0.25304182
VF7370	0.23182427
VF7380	0.23182427
VF7390	0.23280095
VF7400	0.23406556
VF7410	0.2353372
VF7420	0.23633614
VF7430	0.23633614
VF7440	0.23646811
VF7450	0.23863595
VF7460	0.23863595
VF7470	0.23863595
VF7480	0.23876312
VF7490	0.24096477
VF7500	0.24096477
VF7510	0.24226563
VF7520	0.24396891
VF7530	0.24396891
VF7540	0.25515189
VF7550	0.25750085
VF7560	0.24377087
VF7570	0.26029768
VF7580	0.26273857
VF7590	0.26273857
VF7620	0.24812461
VF7630	0.24833295
VF7640	0.25056903
VF7650	0.24833295
VF7660	0.24833295
VF7670	0.25056903
VF7930	0.22525799
VF9140	0.24812461
VF9150	0.24833295
VF9160	0.24833295
VF9170	0.25056903
VF9180	0.2652223
VF9190	0.25525418
VF9200	0.25284173
VF9220	0.25056903
VF7800	0.15620338
VF7790	0.15620338
VF7780	0.15620338
VF7770	0.15620338
VF7750	0.15620338
VF7740	0.15676164
VF7730	0.1573982
VF7720	0.15676164
VF7710	0.1573982
VF7700	0.15676164
VF7690	0.1573982
VF7680	0.15652506
ST5300	0.15652506
ST5310	0.15687993
VF5010	0.25363519
VF5020	0.25122773
VF5030	0.25833587
VF5040	0.25584441
VF5050	0.25122773
VF5990	0.30584428
VF7000	0.30584428
VF7010	0.30584428
VF7020	0.30584428
VF7030	0.30584428
VF7040	0.30584428
VF7050	0.30584428
VF7060	0.30584428
VF7070	0.30584428
VF7080	0.30584428
VF7090	0.30584428
VF7100	0.30584428
VF7110	0.30584428
VF7120	0.30584428
VF7130	0.30584428
VF7140	0.30584428
VF7150	0.30584428
VF7160	0.30584428
VF7170	0.30584428
VF7180	0.30584428
VF7190	0.30584428
VF7200	0.30911226
VF7210	0.30911226
VF7220	0.26850815
VF7230	0.26589565
VF7240	0.2658064
VF7250	0.2633083
VF7320	0.29063881
VF7330	0.28769753
VF7340	0.28481105
VF7350	0.28342444
VF7360	0.28773082
VF7600	0.22596332
VF7610	0.22596332
VF7810	0.27377973
VF7820	0.2764649
VF7850	0.23547295
VF7860	0.23547295
VF7870	0.2374982
VF7880	0.23547295
VF7890	0.23768259
VF7900	0.23565324
VF7910	0.22975038
VF7920	0.22975038
VF9210	0.23365538
VF9230	0.23768259
VF9240	0.2374982
VF9250	0.23768259
GH5130	0.20608399
GH5140	0.20608399
GH5150	0.20608399
GH5160	0.20608399
GH5170	0.20608399
FH5090	0.20324049
FH5100	0.20324049
FH5110	0.20324049
FH5190	0.20324049
FH5140	0.19134079
FH5150	0.19134079
FH5040	0.23544095
FH5050	0.23544095
FH5060	0.23544095
FH5070	0.23544095
FH5080	0.23544095
