Scenario 177	
ID	PGA_Soil_g
H6060	0.18112259
H6050	0.18112259
CC6010	0.19834787
CC7180	0.19834787
CC7300	0.1985312
H6070	0.14640535
H6030	0.14551487
H6230	0.20062415
H6200	0.18747312
H6170	0.17533187
H6130	0.17721367
H6120	0.17054868
H6020	0.17265134
H6010	0.17265134
H6000	0.17265134
WS6220	0.23488511
WS6260	0.27311514
WS6510	0.29028469
WS6920	0.26894798
CC6070	0.20018754
CC6130	0.23475219
CC6160	0.2206512
CC6200	0.20590123
CC6540	0.25630028
WS6080	0.26549154
WS6490	0.25886098
WS7010	0.27448428
WS7120	0.27448428
WS6400	0.27515817
WS6470	0.31986968
WS6620	0.32317802
WS6630	0.32317802
WS6640	0.32317802
WS6780	0.26584767
CC6640	0.29546183
CC6650	0.32147049
WS6900	0.3176902
WS6130	0.31017018
WS6310	0.31017018
WS6360	0.30798
WS6180	0.31551313
CC7090	0.3664606
CC6460	0.40272713
CC6420	0.37848549
WS6890	0.31524523
SY6000	0.30176554
SY6030	0.29052218
SY6040	0.30176554
SY6100	0.30116402
SY6180	0.28862255
SY6200	0.28862255
SY6310	0.30617124
WS7110	0.34050543
WS7150	0.34050543
WS6010	0.31956424
WS6540	0.34145139
WS6550	0.34145139
WS6560	0.34145139
WS6590	0.34145139
MW6140	0.38641843
CC6350	0.30156264
CC6390	0.32185673
CC6770	0.36033779
CC6780	0.36033779
CC7230	0.30638379
CC7240	0.30638379
CC7330	0.3111704
CC7340	0.3111704
CC7350	0.3111704
WS6250	0.3350976
WS6280	0.3454456
WS6340	0.3389044
WS6420	0.31621835
WS6660	0.36128522
WS7040	0.31911739
WS7050	0.31911739
WS7100	0.31911739
WS7070	0.31911739
WS7250	0.31911739
WS7260	0.36244047
WS6040	0.29962355
WS7160	0.31289262
SY6060	0.32198856
SY6150	0.29962355
SY6160	0.29962355
SY6170	0.29962355
SY6270	0.3137093
SY6280	0.28940491
SY6290	0.28940491
SY6320	0.29962355
SY6330	0.276103
CC6280	0.35314375
CC6490	0.40428708
CC7290	0.41161051
WS6990	0.40820968
WS7000	0.40820968
WS6100	0.36870207
CC6790	0.41855839
CC6800	0.41855839
CC6830	0.42785722
CC6860	0.42577102
CC6990	0.44686056
CC7010	0.4440423
SY6120	0.26228451
SY6140	0.2620159
SY6240	0.2580449
WS6120	0.36952249
WS6190	0.35849176
WS6300	0.35411726
WS6450	0.38478993
WS6600	0.38930508
WS6680	0.39497337
WS6730	0.38819531
WS6810	0.3825097
WS6820	0.36669468
WS6840	0.38478993
WS7180	0.39734651
WS7190	0.39824116
WS7220	0.39497337
WS7230	0.39497337
WS7240	0.39497337
WS7270	0.39497337
WS7280	0.39497337
WS7290	0.39497337
WS7300	0.39497337
WS6690	0.38478993
CC6210	0.46376236
CC6250	0.40510606
CC6880	0.44915051
HH6200	0.45733567
HH6210	0.44638829
CC6030	0.44915051
CC6290	0.43623677
CC7220	0.38322904
MW6100	0.39074502
MW6110	0.39074502
MW6190	0.36815125
SM6150	0.35218912
MW6160	0.52674526
MW6350	0.57541609
SM6170	0.46261895
SM6340	0.47075278
CC7040	0.44698025
MW6410	0.46972054
MW6420	0.45184624
MW6430	0.45184624
CC6940	0.60750574
HH6220	0.64185607
HH6230	0.64185607
HH6240	0.64185607
HH6280	0.6607464
MW6060	0.6607464
MW6070	0.6607464
SM6130	0.48253992
SM6140	0.48253992
SM6320	0.4966535
EH6200	0.49875507
HH6130	0.5636183
HH6180	0.53160229
SM6190	0.48998615
SM6240	0.49437237
SM6270	0.62677133
CC7210	0.64275163
HH6120	0.74770266
HH6150	0.67637557
HH6160	0.67637557
HH6000	0.72218323
MW6020	0.67982852
MW6120	0.61446583
MW6210	0.62687415
MW6230	0.57438505
MW6270	0.558734
MW6380	0.53279895
MW6050	0.41205636
MW6240	0.42645216
MW6320	0.42260254
HP6000	0.42858224
HP6010	0.42858224
HH6030	0.7390129
HH6050	0.73182863
CC7100	0.6707418
CC7110	0.6707418
CC7380	0.66810355
WS6030	0.36068848
HH6090	0.64960253
HH6100	0.64619249
HH6110	0.64619249
VF7102	0.59551567
VF7112	0.59551567
VF7122	0.59551567
VF7132	0.59551567
HH6320	0.65781915
WS7130	0.42844853
WS7170	0.42844853
CC7360	0.46862651
SM6210	0.46056095
SM6300	0.46364373
EH6230	0.43971449
HP6050	0.6670292
HP6110	0.6670292
WS6960	0.51819319
SM6000	0.48819739
SM6010	0.48819739
SM6020	0.48819739
EH6190	0.53251386
WS7210	0.4718453
SM6100	0.46968791
EH6120	0.33462156
EH6130	0.33462156
EH6030	0.33462156
HP6090	0.52043408
HP6060	0.59516704
HP6070	0.49308598
VF6130	0.3176774
VF6140	0.3176774
VF6460	0.32858505
VF6470	0.32858505
VF6560	0.34939785
ST6000	0.85332537
VF6190	1.0236485
VF6200	1.0236485
FH6080	1.04685247
FH6110	1.04513752
FH6130	1.04977465
VF6010	0.4427344
GH7230	0.4330841
VF6150	0.48118642
VF6170	0.48118642
VF6640	0.46956071
VF6540	0.45031914
GH7370	0.40830883
VF6660	0.57173026
GH7160	0.55337232
VF6610	0.67979151
GH7200	0.68390816
GH7220	0.68390816
GH7250	0.71248482
ST6030	0.79672748
ST6060	0.8200984
ST6080	0.83192927
ST6100	0.78582811
ST6110	0.78582811
ST6120	0.78582811
VF6040	0.99058139
VF6830	0.97400582
VF6840	0.79278421
VF6240	0.89102525
VF6250	0.89102525
VF6260	0.89102525
VF6270	0.89752519
VF6280	0.89752519
VF6290	0.89752519
VF6300	0.90459114
VF6310	0.90459114
VF6370	0.90459114
VF6380	0.90459114
VF6390	0.90459114
VF6400	0.90459114
VF6850	0.95170504
VF6910	0.94378126
VF6940	0.89472604
VF6960	0.89988051
VF6970	0.88206822
GH7100	0.57839042
GH7120	0.54459953
VF6730	0.410267
GH7020	0.40830883
GH7040	0.40830883
GH7310	0.40830883
GH7320	0.40830883
GH7330	0.40830883
GH7360	0.40830883
VF6000	0.80387324
VF6110	0.84163278
VF6930	0.83298367
VF6050	0.5732919
VF6060	0.5732919
VF6070	0.5732919
VF6430	0.6336019
VF6580	0.65879393
VF6590	0.65879393
GH7050	0.63096106
